<?xml version="1.0" encoding="iso-8859-1"?>
<svg version="1.1" id="Layer_1" xmlns="http://www.w3.org/2000/svg" xmlns:xlink="http://www.w3.org/1999/xlink" x="0px" y="0px"
	 viewBox="0 0 512 512" style="enable-background:new 0 0 512 512;" xml:space="preserve">
<g>
	<polygon style="fill:#fff;" points="396.05,225.588 380.048,225.588 380.048,131.969 286.428,131.969 286.428,115.967
		396.05,115.967 	"/>
		<rect x="265.373" y="166.784" transform="matrix(0.7071 -0.7071 0.7071 0.7071 -24.8193 289.6507)" style="fill:#fff;" width="143.713" height="16.002"/>
	<polygon style="fill:#fff;" points="225.636,396.034 116.015,396.034 116.015,286.412 132.017,286.412 132.017,380.032
		225.636,380.032"/>
		<rect x="102.93" y="329.208" transform="matrix(0.7071 -0.7071 0.7071 0.7071 -187.249 222.3591)" style="fill:#fff;" width="143.713" height="16.002"/>
</g>
</svg>
