<svg xmlns="http://www.w3.org/2000/svg" width="22" height="21.995" viewBox="0 0 22 21.995">
  <g id="Group_176" data-name="Group 176" transform="translate(-39.68 -226.46)">
    <rect id="Rectangle_715" data-name="Rectangle 715" width="15.383" height="15.383" rx="4" transform="translate(45.297 232.072)" fill="none" stroke="#9f9f9f" stroke-miterlimit="10" stroke-width="2"/>
    <path id="Path_57" data-name="Path 57" d="M45.295,242.843H43.757a3.086,3.086,0,0,1-3.077-3.077v-9.23a3.086,3.086,0,0,1,3.077-3.077h9.23a3.086,3.086,0,0,1,3.077,3.077v1.538" fill="none" stroke="#9f9f9f" stroke-miterlimit="10" stroke-width="2"/>
    <path id="Path_58" data-name="Path 58" d="M53.586,242.946h0l1.975,2.012,4.244-4.291" transform="translate(-3.015 -3.049)" fill="none" stroke="#9f9f9f" stroke-miterlimit="10" stroke-width="2"/>
  </g>
</svg>
