<svg xmlns="http://www.w3.org/2000/svg" width="45" height="29.037" viewBox="0 0 45 29.037">
  <g id="Group_712" data-name="Group 712" transform="translate(1 1)">
    <g id="Group_710" data-name="Group 710" transform="translate(23)">
      <path id="Path_41" data-name="Path 41" d="M10,0c5.523,0,10,3.475,10,7.762,0,0,0,.009,0,0,0,1.288-1.8,2.189-4.611,2.76C9.8,11.666,0,10.762,0,7.762,0,3.475,4.477,0,10,0Z" transform="translate(0 11)" fill="#fff" stroke="#657dff" stroke-width="2"/>
      <circle id="Ellipse_1" data-name="Ellipse 1" cx="6" cy="6" r="6" transform="translate(4.145 0)" fill="#fff" stroke="#657dff" stroke-miterlimit="10" stroke-width="2"/>
    </g>
    <g id="Group_711" data-name="Group 711">
      <path id="Path_41-2" data-name="Path 41" d="M10,0c5.523,0,10,3.475,10,7.762,0,0,0,.009,0,0,0,1.288-1.8,2.189-4.611,2.76C9.8,11.666,0,10.762,0,7.762,0,3.475,4.477,0,10,0Z" transform="translate(0 11)" fill="#fff" stroke="#657dff" stroke-width="2"/>
      <circle id="Ellipse_1-2" data-name="Ellipse 1" cx="6" cy="6" r="6" transform="translate(4.145 0)" fill="#fff" stroke="#657dff" stroke-miterlimit="10" stroke-width="2"/>
    </g>
    <g id="Group_709" data-name="Group 709" transform="translate(11 5)">
      <path id="Path_41-3" data-name="Path 41" d="M10,0c5.523,0,10,3.475,10,7.762,0,0,0,.009,0,0,0,1.288-1.8,2.189-4.611,2.76C9.8,11.666,0,10.762,0,7.762,0,3.475,4.477,0,10,0Z" transform="translate(0 11)" fill="#fff" stroke="#657dff" stroke-width="2"/>
      <circle id="Ellipse_1-3" data-name="Ellipse 1" cx="6" cy="6" r="6" transform="translate(4.145 0)" fill="#fff" stroke="#657dff" stroke-miterlimit="10" stroke-width="2"/>
    </g>
  </g>
</svg>
