<svg xmlns="http://www.w3.org/2000/svg" width="31" height="22" viewBox="0 0 31 22">
  <g id="Group_796" data-name="Group 796" transform="translate(-988 -203)">
    <g id="Group_105" data-name="Group 105" transform="translate(1000 204)">
      <g id="Icon_feather-trash-2" data-name="Icon feather-trash-2">
        <path id="Path_51" data-name="Path 51" d="M4.5,9h18" transform="translate(-4.5 -6)" fill="none" stroke="#ea5355" stroke-linecap="round" stroke-linejoin="round" stroke-width="2"/>
        <path id="Path_52" data-name="Path 52" d="M21.5,7V21a2,2,0,0,1-2,2H9.5a2,2,0,0,1-2-2m3-15.268V5a2,2,0,0,1,2-2h4a2,2,0,0,1,2,2v.732" transform="translate(-5.5 -3)" fill="none" stroke="#ea5355" stroke-linecap="round" stroke-linejoin="round" stroke-width="2"/>
        <path id="Path_53" data-name="Path 53" d="M15,16.5v5" transform="translate(-8 -7.5)" fill="none" stroke="#ea5355" stroke-linecap="round" stroke-linejoin="round" stroke-width="2"/>
        <path id="Path_54" data-name="Path 54" d="M21,16.5v5" transform="translate(-10 -7.5)" fill="none" stroke="#ea5355" stroke-linecap="round" stroke-linejoin="round" stroke-width="2"/>
      </g>
    </g>
    <g id="Group_779" data-name="Group 779" transform="translate(11 -1)">
      <line id="Line_90" data-name="Line 90" x2="14" transform="translate(978 216)" fill="none" stroke="#ea5355" stroke-linecap="round" stroke-width="2"/>
      <line id="Line_91" data-name="Line 91" x2="6" y2="5" transform="translate(986 211)" fill="none" stroke="#ea5355" stroke-linecap="round" stroke-width="2"/>
      <line id="Line_92" data-name="Line 92" y1="5" x2="6" transform="translate(986 216)" fill="none" stroke="#ea5355" stroke-linecap="round" stroke-width="2"/>
    </g>
  </g>
</svg>
