<svg xmlns="http://www.w3.org/2000/svg" width="22" height="22" viewBox="0 0 22 22">
  <g id="Group_800" data-name="Group 800" transform="translate(-994 -267)">
    <rect id="Rectangle_972" data-name="Rectangle 972" width="20" height="20" rx="10" transform="translate(995 268)" fill="none" stroke="#ea5355" stroke-width="2"/>
    <g id="Group_134" data-name="Group 134" transform="translate(1001 274)">
      <line id="Line_13" data-name="Line 13" x2="8" y2="8" fill="none" stroke="#ea5355" stroke-width="2"/>
      <line id="Line_14" data-name="Line 14" x1="8" y2="8" fill="none" stroke="#ea5355" stroke-width="2"/>
    </g>
  </g>
</svg>
