<svg xmlns="http://www.w3.org/2000/svg" width="23" height="20" viewBox="0 0 23 20">
  <path id="Icon_material-restore" data-name="Icon material-restore" d="M14.643,4.5a9.93,9.93,0,0,0-9.857,10H1.5l4.26,4.322.077.156L10.262,14.5H6.976a7.667,7.667,0,1,1,7.667,7.778,7.551,7.551,0,0,1-5.41-2.289L7.677,21.567A9.738,9.738,0,0,0,14.643,24.5a10,10,0,0,0,0-20Z" transform="translate(-1.5 -4.5)" fill="#34ca76"/>
</svg>
