<svg width="36" height="36" viewBox="0 0 36 36" fill="none" xmlns="http://www.w3.org/2000/svg">
<circle cx="18" cy="18" r="18" fill="white"/>
<g clip-path="url(#clip0)">
<g clip-path="url(#clip1)">
<path d="M26.25 12L26.25 16.5L21.75 16.5" stroke="#EF5101" stroke-width="2" stroke-linecap="round" stroke-linejoin="round"/>
<path d="M9.75 24L9.75 19.5L14.25 19.5" stroke="#EF5101" stroke-width="2" stroke-linecap="round" stroke-linejoin="round"/>
<path d="M11.6325 15.7502C12.0129 14.6753 12.6594 13.7142 13.5116 12.9567C14.3639 12.1993 15.3941 11.67 16.5062 11.4184C17.6183 11.1667 18.7761 11.2009 19.8714 11.5178C20.9667 11.8346 21.9639 12.4237 22.77 13.2302L26.25 16.5002M9.75 19.5002L13.23 22.7702C14.0361 23.5766 15.0333 24.1658 16.1286 24.4826C17.2239 24.7994 18.3817 24.8336 19.4938 24.582C20.6059 24.3304 21.6362 23.8011 22.4884 23.0436C23.3407 22.2861 23.9871 21.3251 24.3675 20.2502" stroke="#EF5101" stroke-width="2" stroke-linecap="round" stroke-linejoin="round"/>
</g>
</g>
<defs>
<clipPath id="clip0">
<rect width="18" height="18" fill="white" transform="translate(9.00769 8.99219) rotate(0.0484664)"/>
</clipPath>
<clipPath id="clip1">
<rect width="18" height="18" fill="white" transform="matrix(-1 8.74279e-08 8.74279e-08 1 27 9)"/>
</clipPath>
</defs>
</svg>
