<svg width="131" height="124" viewBox="0 0 131 124" fill="none" xmlns="http://www.w3.org/2000/svg">
<g clip-path="url(#clip0)">
<path d="M19.6717 102.683C19.7207 102.561 19.7861 102.446 19.7003 102.303C19.5207 101.996 19.3492 101.685 19.1819 101.374C18.9385 100.797 18.7804 100.188 18.7124 99.5651C18.7005 99.4017 18.7213 99.2375 18.7736 99.0822C18.8308 98.8163 18.8961 98.5544 18.9573 98.2884C18.9577 98.275 18.9549 98.2618 18.9492 98.2497C18.9435 98.2377 18.9351 98.2271 18.9247 98.2188C18.8798 98.2188 18.8104 98.1738 18.7859 98.1943C18.5532 98.3825 18.3205 98.5707 18.1 98.7753C17.4115 99.4424 16.555 99.9092 15.6221 100.126C14.9818 100.253 14.3214 100.239 13.6871 100.085C12.6375 99.8878 11.6667 99.392 10.8907 98.6567C10.2005 98.0695 9.76205 97.2387 9.66598 96.3365C9.61763 95.6623 9.70795 94.9854 9.93132 94.3477C9.99256 94.1718 10.1395 94.0285 10.1232 93.7625L9.57208 94.0449C9.37613 94.1472 9.18834 94.2536 8.98831 94.3395C8.24681 94.6872 7.4317 94.8477 6.61411 94.807C5.79651 94.7664 5.00126 94.5258 4.29772 94.1063C3.45675 93.6068 2.75479 92.9032 2.25656 92.0602C1.95323 91.541 1.76784 90.9612 1.71361 90.362C1.68273 89.8958 1.79224 89.4311 2.02795 89.028C2.348 88.3651 2.7962 87.7726 3.34654 87.2848C3.72914 86.9015 4.1384 86.546 4.57123 86.2208C4.66861 86.1384 4.75627 86.045 4.8325 85.9426C4.76718 85.7175 4.60389 85.7952 4.48551 85.7707C3.52267 85.5646 2.63122 85.1073 1.9014 84.4449C1.63397 84.2116 1.38298 83.96 1.15025 83.6919C0.738748 83.2519 0.427158 82.7278 0.236892 82.1557C0.0466253 81.5835 -0.017806 80.9768 0.0480247 80.3773C0.0979162 79.9261 0.244488 79.491 0.47771 79.1019C0.710932 78.7127 1.02529 78.3787 1.39927 78.1226C1.90776 77.753 2.46395 77.4542 3.05261 77.2346C3.28187 77.1494 3.50549 77.0496 3.72211 76.9359C3.92623 76.8336 3.95072 76.6863 3.75885 76.5799C3.12695 76.1513 2.54499 75.653 2.02387 75.0944C1.37564 74.465 0.875063 73.6991 0.558315 72.852C0.0856179 71.6544 -0.0908685 70.3599 0.0439383 69.0791C0.10589 68.6481 0.195895 68.2216 0.313373 67.8023C0.513584 67.1465 0.892495 66.5598 1.40743 66.1082C1.87783 65.6509 2.42154 65.276 3.01587 64.9993C3.35062 64.8274 3.72211 64.7251 4.07727 64.5901C4.84497 64.3148 5.64757 64.1495 6.46135 64.099C6.67363 64.099 6.73486 63.9435 6.62464 63.7594C6.53527 63.5892 6.42856 63.4287 6.30622 63.2806C5.68068 62.5953 5.15436 61.8253 4.7427 60.9931C4.1875 59.9619 3.68129 58.898 3.78335 57.6622C3.83703 57.3085 3.80195 56.9471 3.68129 56.6105C3.64896 56.5344 3.64042 56.4502 3.6568 56.3691C3.83642 55.6366 3.79559 54.8591 4.163 54.1553C4.5128 53.38 5.03177 52.6934 5.68162 52.146C6.4692 51.5107 7.41498 51.1032 8.41679 50.9675C8.57872 50.9472 8.7395 50.9185 8.8985 50.8816C9.32498 50.7895 9.76611 50.7895 10.1926 50.8816C10.8644 50.9703 11.5308 51.096 12.1888 51.258C12.3358 51.3031 12.442 51.1926 12.4624 51.033C12.4828 50.9538 12.4828 50.8707 12.4624 50.7916C12.2664 50.2719 12.3685 49.7071 12.1929 49.1834C12.1526 48.9966 12.1388 48.8051 12.1521 48.6146C12.1521 47.9557 12.1521 47.301 12.1521 46.6463C12.1443 45.3588 12.4949 44.0947 13.1645 42.9961C13.3 42.7934 13.453 42.6031 13.6217 42.4273C13.6874 42.3597 13.7687 42.3094 13.8584 42.2808C13.9482 42.2522 14.0436 42.2464 14.1361 42.2637C15.173 42.4232 16.2263 42.2636 17.2632 42.4069C17.6959 42.5255 17.749 42.8816 17.7653 43.2458C17.8097 43.8176 17.9039 44.3845 18.047 44.9399C18.6063 47.3092 20.0881 48.5491 22.2559 48.5245C24.7052 48.4959 26.3055 47.166 26.7954 44.7639C27.0066 43.6076 27.0615 42.428 26.9587 41.257C26.9587 40.9665 26.824 40.6636 27.0526 40.3936C28.9577 39.9162 30.8818 39.4838 32.825 39.0964C33.8047 38.9 34.7927 38.7322 35.7643 38.4826C38.1647 38.0733 40.5692 37.6641 42.9777 37.3286C46.2681 36.8171 49.5829 36.6329 52.9019 36.4161C57.5844 36.1661 62.2798 36.5015 66.8797 37.4145C69.6631 37.9514 72.3949 38.7291 75.0444 39.7388C75.6404 40.0171 76.2691 40.148 76.8855 40.4222C77.0487 40.5057 77.2179 40.5768 77.3917 40.635L77.5958 40.7046C77.7387 40.7496 77.8857 40.7741 78.0285 40.8069C79.2043 41.1956 80.3555 41.6662 81.5312 42.0345C87.9486 44.4897 94.2313 47.2478 100.457 50.145C103.025 51.3726 105.633 52.5143 108.189 53.7706C110.744 54.8673 113.239 56.1113 115.868 57.0443C116.227 57.1711 116.594 57.2734 116.962 57.3716C117.259 57.4748 117.58 57.4911 117.886 57.4187C118.193 57.3462 118.472 57.188 118.693 56.9624C118.889 56.766 119.064 56.4591 119.436 56.5532C119.207 57.0893 119.272 57.6785 119.146 58.2351C119.009 58.847 118.826 59.4475 118.599 60.0315C118.544 60.1555 118.5 60.2842 118.468 60.4161C118.444 60.4961 118.451 60.5819 118.486 60.6574C118.522 60.7329 118.583 60.7926 118.66 60.8253C118.81 60.8874 118.964 60.938 119.121 60.9768C120.02 61.1964 120.891 61.5219 121.713 61.9466C122.239 62.2383 122.702 62.6303 123.077 63.1005C123.271 63.3282 123.376 63.6193 123.371 63.919C123.371 64.6842 123.371 65.4494 123.371 66.2146C123.31 66.8118 123.148 67.3943 122.893 67.9374C122.587 68.7573 122.147 69.5206 121.591 70.1962C121.368 70.5038 121.091 70.7685 120.775 70.9778C120.562 71.1015 120.38 71.2706 120.24 71.4729C120.24 71.6939 120.432 71.7308 120.55 71.8044C120.91 72.0502 121.244 72.3327 121.546 72.6474C121.889 72.9622 122.159 73.3484 122.336 73.779C122.514 74.2096 122.595 74.674 122.575 75.1395C122.575 75.4914 122.575 75.8515 122.575 76.2034C122.582 76.7237 122.47 77.2388 122.248 77.7093C121.776 78.792 121.007 79.7184 120.032 80.3814C119.966 80.4305 119.901 80.4796 119.84 80.5328C119.676 80.672 119.668 80.8234 119.84 80.942C120.591 81.3881 120.844 82.1697 121.064 82.9144C121.365 84.2494 121.365 85.6347 121.064 86.9697C120.938 87.587 120.662 88.1635 120.259 88.6476C119.857 89.1317 119.341 89.5084 118.758 89.7441C117.575 90.2317 116.313 90.4993 115.035 90.5339C114.386 90.5584 113.749 90.7385 113.088 90.7221C113.001 90.7214 112.916 90.7462 112.843 90.7935C112.771 90.8408 112.714 90.9085 112.679 90.9881C113.496 91.9375 113.782 93.1446 114.002 94.3436C114.19 95.1804 114.083 96.0566 113.7 96.8234C113.56 97.0885 113.388 97.3357 113.19 97.56C112.501 98.2989 111.69 98.9135 110.793 99.3769C110.375 99.5748 109.926 99.702 109.467 99.7534C108.743 99.8903 107.994 99.7854 107.336 99.4546C106.728 99.2067 106.179 98.8346 105.723 98.3621C105.564 98.1779 105.376 98.0224 105.213 97.8628C105.009 97.9324 105.111 98.0388 105.135 98.1247C105.52 99.4942 105.644 100.924 105.503 102.34C105.478 102.749 105.466 102.749 105.833 102.835C105.969 102.845 106.097 102.904 106.192 103.002C105.937 103.105 105.705 103.26 105.511 103.458C105.318 103.655 105.168 103.89 105.07 104.148C104.806 104.648 104.418 105.071 103.943 105.376C103.882 105.419 103.818 105.459 103.751 105.495L103.551 105.609L103.143 105.846C101.4 106.473 99.9302 105.777 98.5341 104.856C97.6331 104.273 96.8183 103.567 96.1132 102.757C95.803 103.985 95.7254 105.102 95.3743 106.166C95.1651 106.961 94.8257 107.716 94.3701 108.4C93.9995 108.918 93.4524 109.281 92.8324 109.421C92.2125 109.561 91.5627 109.469 91.0062 109.161C89.8762 108.53 88.9884 107.539 88.4834 106.346C88.551 106.705 88.551 107.075 88.4834 107.434C88.4028 107.893 88.2784 108.342 88.1119 108.776C87.9526 109.185 87.714 109.558 87.4097 109.873C87.0916 110.213 86.7323 110.511 86.3402 110.761C85.9582 110.983 85.5455 111.147 85.1155 111.248C83.5589 111.616 81.923 111.426 80.4915 110.711C79.0599 109.997 77.9229 108.803 77.2774 107.336C77.0787 108.213 76.678 109.032 76.1074 109.726C75.5368 110.42 74.812 110.971 73.9911 111.334C73.0165 111.79 71.919 111.913 70.8681 111.682C69.5741 111.444 68.7698 110.544 68.4188 109.071C67.6023 110.896 66.2021 112.021 64.2058 112.23C62.6015 112.398 61.3237 111.768 60.5317 110.135C60.2704 111.248 59.7846 112.095 58.7926 112.557C57.726 113.015 56.5271 113.054 55.4329 112.668C54.4943 112.377 53.6437 111.854 52.959 111.148C52.2743 110.441 51.7774 109.574 51.5139 108.625C51.0117 109.922 50.2688 110.949 49.0114 111.522C47.8103 112.075 46.4503 112.174 45.1822 111.8C42.4756 111.072 41.0509 109.173 41.1488 106.231C40.0835 107.342 38.7775 108.192 37.3319 108.715C36.0296 109.173 34.7682 109.153 33.6129 108.269C32.1841 107.176 30.9145 105.945 30.245 104.23C30.0286 103.678 29.8163 103.719 29.4285 104.05C28.8513 104.595 28.1721 105.021 27.4302 105.302C26.6882 105.583 25.898 105.714 25.1053 105.687C23.4275 105.63 22.0681 104.868 20.8352 103.837C20.3921 103.513 20 103.124 19.6717 102.683Z" fill="#E0D8D5"/>
<path d="M19.6715 102.683C19.7809 102.69 19.8875 102.721 19.983 102.775C20.0785 102.829 20.1605 102.904 20.2226 102.994C20.8134 103.638 21.4908 104.196 22.2352 104.652C22.6138 104.864 23.0133 105.037 23.4272 105.167C24.7181 105.645 26.1401 105.623 27.4157 105.106C27.7765 104.979 28.1123 104.789 28.4077 104.545C28.9302 104.116 29.5058 103.755 30.0406 103.228C30.1182 103.477 30.1712 103.67 30.2406 103.858C30.6479 104.933 31.2782 105.909 32.0899 106.722C32.7746 107.465 33.5724 108.095 34.4536 108.588C34.5475 108.641 34.6414 108.736 34.7393 108.74C35.4701 108.776 36.209 108.903 36.9234 108.654C38.4553 108.14 39.8366 107.254 40.9445 106.076C40.9939 105.999 41.058 105.934 41.133 105.882C41.208 105.831 41.2924 105.795 41.3813 105.777C41.3486 105.986 41.3037 106.186 41.2874 106.374C41.2711 106.563 41.2874 106.755 41.2874 106.947C41.2579 107.687 41.4231 108.422 41.7663 109.078C42.1095 109.733 42.6187 110.287 43.2428 110.683C44.0573 111.282 45.0177 111.649 46.0229 111.747C46.161 111.765 46.2975 111.794 46.4311 111.833C46.722 111.916 47.0301 111.916 47.3211 111.833C47.7293 111.723 48.1049 111.62 48.4968 111.498C49.0053 111.342 49.4768 111.083 49.8825 110.739C50.2882 110.394 50.6195 109.97 50.8564 109.493C51.0686 109.083 51.2646 108.674 51.4932 108.24C51.7014 108.404 51.6483 108.613 51.6932 108.776C52.1872 110.614 54.1671 112.263 55.747 112.574C56.6706 112.825 57.6492 112.782 58.5474 112.451C58.8781 112.321 59.1789 112.125 59.4316 111.874C59.6842 111.624 59.8834 111.324 60.0171 110.994C60.1925 110.599 60.3001 110.177 60.3355 109.746C60.3923 109.732 60.4523 109.74 60.5032 109.769C60.5541 109.798 60.5919 109.846 60.609 109.902C60.6866 110.045 60.7601 110.192 60.8295 110.34C61.0761 110.862 61.4674 111.302 61.9568 111.607C62.4461 111.913 63.0127 112.071 63.5891 112.062C65.1037 112.136 66.312 111.481 67.3244 110.389C67.727 109.979 68.0253 109.478 68.194 108.928C68.2007 108.857 68.2257 108.789 68.2665 108.731C68.3073 108.673 68.3625 108.627 68.4267 108.596C68.5206 108.907 68.6104 109.21 68.7043 109.517C68.9048 110.113 69.2836 110.632 69.7891 111.004C70.2946 111.376 70.9023 111.583 71.5292 111.596C72.7747 111.635 73.9962 111.247 74.9922 110.496C75.9882 109.746 76.6991 108.677 77.0077 107.467C77.028 107.273 77.1095 107.091 77.2404 106.947C77.5343 107.43 77.718 107.962 78.0569 108.433C78.7829 109.502 79.8273 110.314 81.041 110.753C82.0325 111.142 83.0973 111.309 84.1599 111.24C84.7964 111.224 85.4213 111.066 85.9896 110.778C86.5578 110.491 87.0552 110.08 87.4458 109.576C87.8364 109.072 88.1105 108.488 88.2483 107.864C88.386 107.241 88.3839 106.596 88.2423 105.973C88.2361 105.922 88.2361 105.87 88.2423 105.818C88.377 105.769 88.4341 105.867 88.475 105.957C88.7945 106.589 89.1732 107.189 89.6058 107.749C90.0438 108.345 90.6311 108.813 91.3081 109.108C91.8117 109.323 92.373 109.364 92.9021 109.222C93.4312 109.08 93.8976 108.765 94.2269 108.326C94.6728 107.608 95.0072 106.825 95.219 106.006C95.4999 104.9 95.722 103.78 95.8844 102.651C95.917 102.479 96.0436 102.421 96.166 102.528C96.2556 102.591 96.3366 102.665 96.4069 102.749C97.0152 103.62 97.901 104.185 98.742 104.77C99.5487 105.374 100.501 105.753 101.502 105.867C102.089 105.922 102.682 105.852 103.241 105.662C103.326 105.564 103.482 105.601 103.567 105.495C103.626 105.445 103.682 105.391 103.735 105.335C104.4 104.913 104.907 104.281 105.176 103.539C105.185 103.458 105.212 103.381 105.253 103.311C105.294 103.241 105.349 103.181 105.414 103.133C105.48 103.086 105.555 103.053 105.634 103.036C105.713 103.019 105.795 103.019 105.874 103.035C105.981 103.041 106.089 103.041 106.196 103.035C107.58 103.326 108.964 103.612 110.348 103.907C110.985 104.042 111.626 104.181 112.259 104.316C113.614 104.623 114.973 104.905 116.316 105.245C119.19 105.968 122.06 106.711 124.926 107.475C126.114 107.786 127.286 108.138 128.465 108.478C128.569 108.509 128.668 108.555 128.759 108.613C128.78 108.625 128.798 108.643 128.812 108.663C128.825 108.684 128.834 108.707 128.837 108.731C128.829 108.785 128.801 108.833 128.759 108.866C128.666 108.924 128.567 108.973 128.465 109.014C127.498 109.374 126.53 109.746 125.555 110.094C123.991 110.647 122.428 111.207 120.848 111.731C118.905 112.361 116.949 112.959 114.998 113.552C113.637 113.969 112.276 114.378 110.915 114.78C110.344 114.947 109.76 115.095 109.18 115.246C107.339 115.725 105.486 116.179 103.649 116.686C102.285 117.063 100.893 117.329 99.5299 117.701C97.7949 118.172 96.0273 118.475 94.2841 118.9C92.8308 119.252 91.353 119.494 89.8834 119.772C88.4137 120.05 87.0012 120.357 85.5479 120.545C84.3232 120.705 83.1434 120.995 81.9228 121.126C80.9798 121.229 80.045 121.421 79.1019 121.536C78.4855 121.621 77.8772 121.667 77.2363 121.744C76.8893 121.785 76.5382 121.847 76.1912 121.9C75.1135 122.055 74.0317 122.162 72.9458 122.26C71.7538 122.366 70.5658 122.489 69.3738 122.591C68.5818 122.665 67.7858 122.632 67.0101 122.759C66.1202 122.902 65.2098 122.759 64.3321 123.009C64.2237 123.023 64.1139 123.023 64.0055 123.009C61.1152 123.009 58.229 123.271 55.3347 123.185C55.0897 123.185 54.8448 123.185 54.5998 123.185C52.824 123.242 51.0605 123.005 49.2928 122.996C48.5333 122.956 47.7768 122.872 47.0271 122.743C46.8917 122.726 46.7553 122.718 46.6189 122.718C45.5852 122.672 44.5549 122.568 43.5327 122.407C42.5121 122.264 41.4915 122.178 40.4546 122.031C39.7034 121.928 38.9564 121.769 38.2093 121.621C37.0826 121.425 35.9559 121.245 34.8332 121.036C34.2699 120.93 33.7228 120.766 33.1636 120.656C30.6734 120.181 28.2199 119.567 25.7787 118.896C24.3376 118.487 22.8761 118.16 21.4718 117.628C21.1697 117.509 20.8431 117.456 20.5329 117.353C18.9244 116.838 17.3078 116.343 15.7157 115.786C13.2473 114.927 10.7979 113.997 8.36754 112.995C6.57948 112.251 4.79959 111.491 3.02786 110.716C2.3257 110.413 1.66029 110.033 0.949962 109.75C0.613004 109.622 0.311899 109.414 0.0722656 109.145C0.573732 108.844 1.10968 108.605 1.66845 108.433C3.24695 107.833 4.83361 107.254 6.42844 106.698C7.45718 106.338 8.50226 106.022 9.51467 105.617C9.83166 105.478 10.1593 105.364 10.4944 105.278L12.9193 104.557C13.8297 104.287 14.74 104.009 15.6586 103.739C16.9976 103.412 18.3366 103.064 19.6715 102.683Z" fill="#2B2A29" fill-opacity="0.05"/>
<path d="M50.6363 0.401552C55.115 -0.00413545 59.616 -0.102575 64.108 0.106921C65.8716 0.168303 67.6351 0.31971 69.3946 0.51613C71.9134 0.782116 74.4077 1.17087 76.9061 1.58007C77.3945 1.61621 77.8755 1.7209 78.3349 1.89107C78.6256 1.94259 78.9017 2.05672 79.1441 2.22556C79.3866 2.39441 79.5896 2.61396 79.7392 2.86908C82.3152 6.55196 84.9646 10.2062 87.6263 13.8359C88.5938 15.1535 89.5123 16.5121 90.4839 17.8338C90.8595 18.3494 90.7003 18.7873 90.3941 19.262C88.7162 21.885 86.8792 24.3975 84.985 26.8692C83.2786 29.1034 81.6212 31.3705 80.1352 33.7643C79.9856 34.119 79.7341 34.421 79.4126 34.6319C79.3236 34.6482 79.2323 34.6482 79.1432 34.6319C76.6938 34.0508 74.2689 33.4329 71.8154 32.9132C68.2982 32.1533 64.7447 31.5728 61.1687 31.174C56.8078 30.6804 52.42 30.4645 48.0318 30.5275C47.7873 30.5399 47.5423 30.5151 47.3052 30.4538C46.7581 30.1756 47.1745 29.9055 47.3419 29.6886C48.5666 28.1132 49.8362 26.5745 51.0976 25.0318C53.7226 21.8113 56.4781 18.7054 59.1602 15.5382C60.0788 14.4579 61.0544 13.4226 61.9689 12.3382C62.5731 11.6221 62.5322 11.5198 61.8301 10.8937C58.009 7.50133 53.9553 4.39134 49.9301 1.25271C49.7931 1.1623 49.674 1.04712 49.579 0.913063C49.428 0.67163 49.428 0.503854 49.7791 0.503854C50.1301 0.503854 50.3547 0.565235 50.6363 0.401552Z" fill="#F37567"/>
<path d="M87.3526 4.14995C88.0588 4.35455 88.7733 4.52642 89.4632 4.76376C91.0961 5.32437 92.7617 5.88908 94.3905 6.50289C95.6601 6.97758 96.9175 7.49727 98.1626 8.04561C99.5098 8.63487 100.845 9.24459 102.18 9.86659C103.857 10.6441 105.499 11.5034 107.111 12.4119C108.389 13.1321 109.679 13.8441 110.928 14.6093C112.572 15.5754 114.162 16.63 115.692 17.7684C116.358 18.906 116.423 20.2237 116.676 21.4513C117.366 24.8232 117.778 28.2441 118.133 31.6815C118.215 32.4426 118.223 33.2079 118.329 33.9649C118.379 34.3425 118.335 34.7266 118.202 35.0834C118.069 35.4402 117.851 35.7587 117.566 36.0109C114.645 39.0649 111.552 41.9491 108.303 44.6493C108.096 44.8279 107.875 44.9894 107.642 45.1322C107.327 45.2181 107.168 45.6069 106.784 45.5619C103.249 43.79 99.6894 42.0672 96.0439 40.5286C93.0515 39.2682 90.0143 38.1265 86.9485 37.0667C86.4461 36.9344 85.9689 36.7201 85.536 36.4324C85.4831 36.368 85.4492 36.29 85.438 36.2073C85.7156 35.2375 86.381 34.4928 86.928 33.6907C89.5489 29.8605 92.0922 25.9812 94.8151 22.2329C94.9765 22.0363 95.0743 21.7951 95.0954 21.5414C95.1166 21.2877 95.0601 21.0336 94.9335 20.8129C93.2801 17.0646 91.7207 13.2794 89.8347 9.63743C88.9774 8.0006 88.0956 6.36377 87.1893 4.72693C87.075 4.52233 86.6382 4.13767 87.3526 4.14995Z" fill="#F37567"/>
<path d="M19.8392 9.09715C19.9922 8.98214 20.1532 8.87821 20.3209 8.78615C21.4028 8.27463 22.4846 7.76314 23.5868 7.2639C24.4033 6.89152 25.2197 6.52732 26.0566 6.19177C28.0529 5.37335 30.0818 4.66951 32.1311 4.00659C33.6905 3.50327 35.2704 3.09406 36.8421 2.64393C37.5443 2.44342 38.275 2.33293 38.9935 2.18153C39.2017 2.04649 39.4752 2.21835 39.6711 2.0383C39.7221 2.02597 39.7753 2.02597 39.8263 2.0383C40.6836 2.0383 41.3735 2.52526 42.1042 2.85672C45.1374 4.22757 48.2032 5.54113 50.9629 7.43986C52.3843 8.41207 53.6837 9.55243 54.8329 10.8363C55.531 11.6179 55.535 12.0312 54.8615 12.7555C51.6364 16.2174 48.6604 19.8839 45.7905 23.6404C44.1944 25.7274 42.7492 27.9126 41.1816 30.0159C41.0391 30.1304 40.9175 30.2689 40.8224 30.4251C40.7938 30.4947 40.7611 30.5642 40.7285 30.6338C40.6182 30.8711 40.606 31.2271 40.1814 31.1044C38.3038 31.1283 36.4326 31.3297 34.5927 31.7059C31.9392 32.1724 29.3048 32.7385 26.6894 33.4041C26.2116 33.5189 25.7506 33.695 25.3177 33.9279C25.2678 33.9475 25.213 33.9509 25.161 33.9377C25.109 33.9245 25.0625 33.8953 25.0279 33.8543C24.3869 32.774 23.7705 31.6814 23.7705 30.3637C23.9304 30.1744 24.1463 30.0411 24.3869 29.9832C30.1553 27.9371 35.9113 25.8297 41.7001 23.8123C40.4754 24.0824 39.2058 23.9964 37.9647 24.0742C34.7315 24.2747 31.4902 24.4056 28.2611 24.643C26.7628 24.7535 25.2606 24.643 23.7705 24.9008C23.6234 24.9368 23.4702 24.9405 23.3215 24.9115C23.1728 24.8825 23.0321 24.8216 22.9091 24.733C22.7027 24.2688 22.6581 23.7485 22.7826 23.2558C22.9711 22.8295 23.2788 22.4671 23.6684 22.2123C25.8933 20.2481 28.0161 18.1693 30.2451 16.2051C30.9268 15.6036 30.8901 15.5054 30.1144 15.0511C27.4405 13.4675 24.6564 12.0844 21.8886 10.6808C21.2762 10.3698 20.7251 9.96877 20.1413 9.61685C19.9535 9.49818 19.7494 9.37541 19.8392 9.09715Z" fill="#F37567"/>
<path d="M40.9733 29.9504C41.602 29.0665 42.2389 28.1826 42.8553 27.2905C43.7207 26.0356 44.6229 24.808 45.5619 23.6077C46.1824 22.8179 46.7621 21.9954 47.3867 21.2056C48.1582 20.2235 48.9584 19.2619 49.7381 18.2839C50.4362 17.4123 51.1669 16.5734 51.9221 15.7468C52.6774 14.9202 53.4612 13.9135 54.2735 13.0378C54.5811 12.7337 54.8637 12.4053 55.1186 12.0557C55.1689 11.99 55.1962 11.9094 55.1962 11.8266C55.1962 11.7437 55.1689 11.6631 55.1186 11.5974C54.9415 11.3232 54.745 11.062 54.5307 10.8158C52.9752 9.13834 51.1881 7.69279 49.2237 6.52321C48.5093 6.08127 47.7255 5.74981 46.9744 5.36924C46.3661 5.06643 45.7497 4.74725 45.1496 4.46489C43.5166 3.71604 41.8837 2.98356 40.2508 2.24698C40.1038 2.17742 39.9568 2.09967 39.814 2.02601C40.4738 1.79017 41.1588 1.63225 41.8551 1.55542C43.4023 1.28125 44.9536 1.02754 46.5171 0.859768C47.5418 0.749282 48.5583 0.561044 49.5748 0.430098C49.9265 0.402044 50.2794 0.39248 50.6321 0.40145C50.5866 0.452497 50.5305 0.492889 50.4677 0.519762C50.4049 0.546635 50.337 0.559333 50.2688 0.556951C50.0524 0.556951 49.8401 0.577412 49.6319 0.589689C49.6176 0.661192 49.6275 0.735456 49.66 0.800693C49.6925 0.86593 49.7459 0.918407 49.8116 0.949794C51.0975 1.86233 52.3181 2.8608 53.5346 3.85927C54.2491 4.44853 54.9961 4.99277 55.7228 5.56157C56.2371 5.97078 56.7434 6.37999 57.2496 6.7892C58.0334 7.41938 58.809 8.05365 59.5969 8.67974C59.9806 8.98256 60.2991 9.35494 60.695 9.65366C61.3441 10.1447 61.9197 10.7176 62.528 11.27C62.7689 11.4951 62.7729 11.5647 62.577 11.8266C62.2232 12.3422 61.833 12.8317 61.4094 13.2915C60.7726 13.9299 60.2256 14.6419 59.6132 15.3007C59.0009 15.9596 58.4906 16.6307 57.9191 17.2854C57.5108 17.7355 57.1026 18.1693 56.7434 18.6399C56.1514 19.3846 55.5187 20.1008 54.8981 20.8169C54.4164 21.3734 53.9143 21.9095 53.4367 22.4537C52.8407 23.1575 52.2569 23.8737 51.669 24.5857C51.1832 25.1749 50.7383 25.7887 50.2116 26.3453C49.8402 26.7545 49.5176 27.1637 49.1747 27.6015C48.4603 28.4936 47.8112 29.4307 47.0356 30.2737L46.9213 30.376C46.2639 30.5461 45.5876 30.6313 44.9087 30.6297C43.8269 30.732 42.7369 30.7197 41.6428 30.822C41.2877 30.8588 40.8264 30.9734 40.6345 30.4333C40.7651 30.2901 40.8509 30.1059 40.9733 29.9504Z" fill="#F8A18E"/>
<path d="M87.3526 4.14988C87.2505 4.20308 87.0097 4.20717 87.1566 4.38313C87.6237 5.02186 88.0232 5.70757 88.3487 6.42918C89.455 8.47522 90.5246 10.5213 91.5166 12.6164C92.0881 13.8195 92.6433 15.0307 93.1495 16.2666C93.6557 17.5024 94.1578 18.6154 94.6926 19.7735C94.9212 20.2686 95.1253 20.776 95.358 21.2671C95.4156 21.3573 95.4427 21.4637 95.4354 21.5705C95.428 21.6774 95.3866 21.779 95.3172 21.8604C94.7008 22.7198 94.0435 23.5505 93.4842 24.4548C93.076 25.1464 92.5331 25.7807 92.0636 26.4436C91.8758 26.7096 91.7043 26.9919 91.5329 27.262C91.4794 27.3876 91.4123 27.507 91.3328 27.618C90.7042 28.2032 90.3817 29.0052 89.8673 29.664C89.1406 30.6093 88.5324 31.6446 87.8629 32.639C87.2832 33.4942 86.6912 34.3372 86.1156 35.1965C85.8993 35.5116 85.7074 35.8431 85.5155 36.1705C85.3986 36.2642 85.2575 36.3229 85.1087 36.3395C84.9598 36.3562 84.8093 36.3302 84.6746 36.2646C83.0417 35.7572 81.4087 35.2702 79.7758 34.771C79.6446 34.7305 79.5319 34.645 79.4574 34.5295C79.4725 34.4239 79.5013 34.3208 79.5431 34.2226C80.6249 32.5858 81.6782 30.9285 82.809 29.3326C83.8459 27.8676 84.9767 26.4681 86.0544 25.0359C86.6423 24.2543 87.2056 23.4563 87.7812 22.6625C88.2262 22.0446 88.6875 21.4348 89.1162 20.8088C89.5448 20.1827 89.9898 19.4297 90.4388 18.7627C90.5097 18.6608 90.5441 18.5379 90.5367 18.4139C90.5293 18.2899 90.4805 18.1721 90.398 18.0793C90.0143 17.5515 89.6101 17.0359 89.2305 16.508C88.912 16.0701 88.614 15.6159 88.2997 15.174C87.0178 13.3816 85.7237 11.6016 84.4419 9.80923C83.7479 8.83941 83.0702 7.84504 82.3436 6.89976C81.2658 5.49618 80.3024 4.0353 79.2655 2.57852C79.1124 2.31963 78.8675 2.12819 78.5797 2.04246C78.4817 2.002 78.3896 1.94831 78.3062 1.88287C78.442 1.87238 78.5785 1.87238 78.7144 1.88287C81.2087 2.40666 83.6662 3.06957 86.132 3.69975C86.5565 3.81842 86.9484 4.00257 87.3526 4.14988Z" fill="#F8A18E"/>
<path d="M122.591 23.0269C124.807 24.8421 126.843 26.8675 128.67 29.075C129.186 29.6759 129.646 30.3223 130.046 31.0064C130.211 31.2891 130.296 31.6118 130.291 31.9394C130.29 32.4035 130.246 32.8665 130.16 33.3225C129.63 35.6671 128.897 37.9606 127.968 40.1768C127.217 42.051 126.421 43.906 125.58 45.742C124.676 47.6735 123.709 49.5722 122.677 51.4382C122.31 52.1093 121.93 52.7722 121.55 53.4351C121.456 53.5947 121.403 53.7912 121.228 53.8975C120.435 53.5402 119.684 53.094 118.991 52.5676C117.252 51.4014 115.406 50.4193 113.627 49.3185C113.567 49.2691 113.518 49.2078 113.484 49.1384C113.477 49.0598 113.499 48.9813 113.545 48.9175C113.719 48.7526 113.873 48.5671 114.002 48.365C114.722 47.5433 115.484 46.7593 116.284 46.0162C118.211 44.0769 120.023 42.0274 121.714 39.8781C122.148 39.3464 122.402 38.69 122.44 38.0039C122.698 34.7363 122.729 31.4548 122.534 28.1829C122.432 26.7425 122.33 25.3184 122.187 23.8575C122.155 23.5547 122.048 23.121 122.591 23.0269Z" fill="#F37567"/>
<path d="M122.591 23.0268C122.522 23.106 122.465 23.1957 122.424 23.2927C122.401 23.4557 122.401 23.6209 122.424 23.7838C122.514 24.5654 122.611 25.347 122.701 26.1286C122.723 26.2901 122.737 26.4526 122.742 26.6155C122.705 27.3512 122.754 28.0888 122.889 28.813C122.918 29.0303 122.918 29.2504 122.889 29.4677C122.889 31.3255 122.889 33.1847 122.889 35.0452C122.919 35.4271 122.879 35.8113 122.771 36.1787C122.729 36.3375 122.718 36.5028 122.738 36.6657C122.754 37.4277 122.698 38.1895 122.571 38.9409C122.554 39.1042 122.493 39.2598 122.395 39.391C121.526 40.4345 120.762 41.5721 119.799 42.5256C119.48 43.1066 118.888 43.4585 118.55 44.0314C118.404 44.2297 118.237 44.4109 118.052 44.5716C116.896 45.7337 115.737 46.8918 114.586 48.054C114.373 48.2257 114.191 48.4318 114.047 48.6637C113.892 48.7905 113.712 48.8724 113.557 48.9951C113.259 49.1261 113.022 48.9583 112.794 48.8192C111.136 47.8166 109.393 46.9737 107.699 46.0366C107.033 45.6642 107.017 45.5701 107.495 45.0545C108.066 44.5143 108.691 44.0314 109.299 43.5363C109.907 43.0412 110.332 42.5788 110.907 42.1614C111.483 41.744 111.904 41.2325 112.418 40.7864C113.41 39.9312 114.288 38.9573 115.231 38.0488C115.429 37.824 115.657 37.6272 115.908 37.4636C116.054 37.3872 116.18 37.2779 116.276 37.1445C116.753 36.5144 117.288 35.9295 117.872 35.3971C117.964 35.3156 118.036 35.2144 118.083 35.101C118.131 34.9877 118.152 34.8651 118.145 34.7424C118.182 34.2522 118.142 33.7594 118.027 33.2815C117.99 33.178 117.978 33.0674 117.99 32.9583C118.012 32.087 117.941 31.2159 117.778 30.3598C117.692 29.6641 117.684 28.9562 117.533 28.2564C117.423 27.7613 117.398 27.2375 117.337 26.726C117.186 25.4984 117.019 24.3035 116.753 23.1127C116.672 22.7362 116.635 22.3557 116.578 21.9874C116.435 21.0175 116.141 20.0805 116.002 19.1229C115.929 18.8057 115.837 18.4928 115.729 18.1858C115.714 18.0498 115.714 17.9126 115.729 17.7766C115.965 17.8389 116.181 17.9632 116.353 18.1367C117.664 19.0984 118.999 20.0232 120.256 21.0462C121.084 21.6451 121.865 22.3073 122.591 23.0268Z" fill="#F8A18E"/>
<path d="M19.8389 9.09717C19.8797 9.16264 19.9083 9.26085 19.9695 9.29768C20.7922 9.82943 21.644 10.3144 22.521 10.7504C23.2744 11.0669 24.0007 11.4446 24.6928 11.8798C25.2725 12.244 25.9175 12.5018 26.4972 12.821C27.579 13.398 28.6812 13.9258 29.7059 14.601C29.9174 14.7283 30.1354 14.8444 30.359 14.9489C30.6731 15.0867 30.9309 15.3277 31.0898 15.6322C30.7421 16.0123 30.3713 16.3703 29.9794 16.7044C29.6534 16.954 29.3464 17.2275 29.0609 17.5228C28.1015 18.4967 27.0646 19.3806 26.0685 20.3095C25.0724 21.2384 24.1294 22.1427 23.0925 22.9816C23.0496 23.0143 23.003 23.0417 22.9537 23.0635C22.5455 22.4988 22.7823 21.9381 22.8557 21.5453C22.4965 22.4783 22.2066 23.6527 21.578 24.688C21.3453 24.909 21.0391 24.7658 20.7615 24.8599C20.6807 24.8792 20.5989 24.8942 20.5166 24.9049C18.7979 24.954 17.0792 24.9049 15.3606 24.9335C15.1034 24.9335 14.8217 24.8394 14.589 25.0318C15.5157 25.7806 16.569 26.3248 17.5038 27.0491C17.6916 27.5197 18.3815 27.307 18.5448 27.8103C17.2834 28.5469 16.3363 29.6517 15.2789 30.6256C14.1032 31.7182 12.9847 32.8763 11.8375 34.0016C11.5822 34.2485 11.2985 34.4641 10.9925 34.6441C10.8498 34.7038 10.691 34.7129 10.5425 34.6697C10.394 34.6265 10.2647 34.5337 10.176 34.4067C9.14321 33.1505 7.93485 32.0415 6.99183 30.7238C6.95949 30.6492 6.94684 30.5675 6.95509 30.4865C6.99064 30.3714 7.05051 30.2653 7.13063 30.1755C10.2255 26.5532 13.616 23.1957 17.267 20.1376C18.7816 18.8445 20.3614 17.6374 21.9658 16.4547C22.6761 15.931 22.672 15.845 22.0066 15.2271C20.3737 13.7049 18.3733 12.7473 16.2914 11.9534C15.9893 11.843 15.6423 11.8143 15.4177 11.5442C16.418 10.864 17.4658 10.2568 18.553 9.72735C18.9734 9.52275 19.3409 9.17901 19.8389 9.09717Z" fill="#F8A18E"/>
<path d="M7.06168 30.4497C7.06168 30.5029 7.06168 30.5561 7.06168 30.6093C7.02804 30.6283 6.99007 30.6383 6.95146 30.6383C6.91284 30.6383 6.87488 30.6283 6.84124 30.6093C5.42875 28.7187 3.90604 26.8978 2.97119 24.6921C3.16368 23.3092 3.64949 21.9836 4.39592 20.8046C5.2883 19.5304 6.33298 18.3706 7.50665 17.3509C8.89758 16.0817 10.3674 14.9021 11.9074 13.8195C13.0464 13.0215 14.1976 12.2399 15.4019 11.5483C15.8921 11.5984 16.3693 11.7371 16.8103 11.9575C18.0543 12.4365 19.2504 13.0325 20.3823 13.7376C21.2504 14.3 22.0457 14.968 22.75 15.7264C22.897 15.8819 22.8888 16.0046 22.7133 16.1356C22.1459 16.5448 21.5825 16.9785 21.0069 17.3878C20.2108 17.9566 19.4434 18.5581 18.6922 19.1883L15.8346 21.5903C15.7938 21.6231 15.757 21.664 15.7162 21.7008C14.5405 22.7975 13.3403 23.8655 12.2258 25.0236C11.4093 25.8829 10.5398 26.7218 9.69478 27.5729C8.95743 28.3317 8.26108 29.1294 7.60871 29.9627C7.49683 30.0808 7.37379 30.1877 7.2413 30.2819C7.17597 30.3317 7.1158 30.3879 7.06168 30.4497Z" fill="#F37567"/>
<path d="M113.537 49.1587C113.864 49.1995 114.172 49.333 114.427 49.5433C115.194 50.1203 116.1 50.4558 116.876 51.0001C117.541 51.4666 118.297 51.7817 118.917 52.3177C119.188 52.5464 119.493 52.7326 119.819 52.8702C120.305 53.0666 120.636 53.5004 121.13 53.6886C121.179 53.6886 121.191 53.8277 121.22 53.9055C121.167 53.9693 121.124 54.0411 121.093 54.1183C120.743 54.7338 120.347 55.322 119.909 55.8779C119.741 56.0918 119.584 56.3145 119.44 56.5449C119.162 56.8027 118.876 57.0523 118.623 57.3183C118.48 57.4657 118.302 57.5761 118.107 57.6403C117.912 57.7044 117.704 57.7203 117.501 57.6866C116.988 57.6243 116.484 57.5035 115.998 57.3265C115.484 57.1505 114.97 56.9582 114.472 56.7454C112.471 55.882 110.479 55.0062 108.487 54.1346C108.368 54.0696 108.256 53.9928 108.152 53.9055C108.046 53.6068 108.262 53.4431 108.438 53.2958C109.899 52.0681 111.296 50.816 112.712 49.5474C112.92 49.3551 113.153 49.0686 113.537 49.1587Z" fill="#F06256"/>
<path d="M17.39 42.5256C16.6128 42.6033 15.831 42.6238 15.0508 42.5869C14.5691 42.5624 14.0915 42.4846 13.6138 42.4274C12.9403 42.1409 12.2259 41.9813 11.5727 41.6376C10.5026 41.1041 9.5074 40.4312 8.613 39.6366C8.14584 39.2631 7.72264 38.8375 7.35156 38.368C7.35156 37.7215 7.85777 37.3818 8.24967 36.9972C9.03756 36.2278 9.6744 35.2826 10.6991 34.7792C11.1849 34.7424 11.4257 35.0984 11.6788 35.4094C12.1115 35.9373 12.5729 36.4406 12.977 36.989C13.0359 37.0952 13.1162 37.1879 13.2129 37.2611C13.3097 37.3344 13.4206 37.3866 13.5386 37.4143C13.6566 37.442 13.7791 37.4448 13.8982 37.4222C14.0173 37.3997 14.1304 37.3525 14.2303 37.2836C15.2059 36.8048 16.2184 36.3997 17.2308 36.0069C17.7247 35.8145 18.1616 35.8186 18.2391 36.5102C18.0554 38.4007 17.7696 40.2831 17.5696 42.1737C17.5571 42.3097 17.4927 42.4357 17.39 42.5256Z" fill="#F06256"/>
<path d="M10.6662 34.8775C10.4825 35.2335 10.0742 35.3276 9.82929 35.6222C9.58435 35.9169 9.25777 36.191 8.98425 36.4857C8.38217 37.0603 7.83544 37.6906 7.35132 38.368C6.87182 37.9725 6.45839 37.5029 6.12663 36.9767C5.53947 36.2308 5.03569 35.4225 4.62433 34.5665C4.47736 34.2227 4.17119 33.9568 4.13037 33.5598C5.11829 32.9869 5.52244 31.8943 6.30216 31.1332C6.49403 30.945 6.59609 30.6626 6.90227 30.6135H7.06556C7.16135 30.6648 7.24933 30.7296 7.32682 30.8059C8.14329 31.8084 9.00058 32.7864 9.90277 33.7153C10.0424 33.8796 10.1706 34.0532 10.2865 34.235C10.3624 34.3492 10.469 34.4394 10.5941 34.4952C10.7191 34.551 10.8573 34.57 10.9928 34.5501C11.0785 34.8529 10.7356 34.7261 10.6662 34.8775Z" fill="#F58776"/>
<path d="M6.90229 30.634C6.16747 31.6283 5.40408 32.5982 4.62027 33.5598C4.43248 33.789 4.29777 33.6457 4.13039 33.5598C3.35627 31.8408 2.89056 29.9984 2.75465 28.1173C2.71645 27.2165 2.73964 26.3142 2.82405 25.4166C2.85632 25.1744 2.90682 24.935 2.9751 24.7004C3.38333 24.9255 3.49355 25.392 3.70583 25.7521C4.21498 26.6431 4.77096 27.5064 5.37142 28.3383C5.83136 28.9739 6.29674 29.6055 6.76757 30.2329C6.85175 30.35 6.89871 30.4897 6.90229 30.634Z" fill="#F06256"/>
<path d="M10.4988 105.31C10.2229 105.537 9.87554 105.657 9.51904 105.65C9.64023 105.515 9.79374 105.413 9.96512 105.353C10.1365 105.294 10.3202 105.279 10.4988 105.31Z" fill="#ECE3DF"/>
<path d="M39.6586 2.03843C39.4708 2.27168 39.2218 2.20621 38.981 2.18166C39.0765 2.10946 39.1868 2.0592 39.3039 2.03445C39.421 2.0097 39.5421 2.01106 39.6586 2.03843Z" fill="#F8A18E"/>
<path d="M121.089 54.1308C121.088 54.0869 121.099 54.0435 121.121 54.0057C121.144 53.968 121.176 53.9376 121.216 53.918C121.216 53.9617 121.204 54.0047 121.182 54.0422C121.16 54.0798 121.128 54.1104 121.089 54.1308Z" fill="#F37567"/>
<path d="M75.1835 82.0222C75.6325 82.2473 76.1428 82.1818 76.6164 82.2964C76.8311 82.3359 77.0281 82.4418 77.1797 82.5992C78.039 83.4776 78.8254 84.4246 79.5311 85.431C80.2072 86.4282 80.7046 87.536 81.0008 88.7046C81.2418 89.4955 81.2418 90.3404 81.0008 91.1312C80.7794 91.8415 80.3616 92.4742 79.7957 92.9559C79.2299 93.4376 78.5394 93.7485 77.8043 93.8525C76.8833 93.965 75.9534 93.9855 75.0283 93.9139C72.7627 93.832 70.5133 93.5742 68.2558 93.386C66.0819 93.1996 63.8955 93.2133 61.7241 93.4269C59.144 93.6806 56.5763 94.0202 54.0085 94.4008C52.9266 94.5663 51.8362 94.6701 50.7426 94.7118C50.4154 94.7152 50.0884 94.7002 49.7629 94.6668C49.3516 94.6394 48.9546 94.5044 48.6115 94.2754C48.2685 94.0464 47.9912 93.7313 47.8074 93.3614C47.3031 92.4973 47.1006 91.4894 47.2318 90.497C47.3858 89.214 47.7615 87.9678 48.3422 86.8141C49.0776 85.3758 50.0198 84.0535 51.1386 82.8898C51.2366 82.7773 51.3561 82.6857 51.49 82.6204C51.624 82.555 51.7696 82.5172 51.9183 82.5092C52.7062 82.4601 53.4941 82.3905 54.282 82.3333C57.058 82.1246 59.834 81.8831 62.6099 81.7153C65.5271 81.5428 68.4514 81.5237 71.3706 81.6581C71.6666 81.7071 71.9686 81.7071 72.2646 81.6581C73.2516 81.4687 74.273 81.5961 75.1835 82.0222Z" fill="#851919"/>
<path d="M47.0396 30.2862H53.5019C53.6373 30.2677 53.7747 30.2677 53.9101 30.2862C54.6286 30.5113 55.3675 30.4172 56.1023 30.4376C56.3777 30.427 56.653 30.4587 56.9188 30.5317C57.1027 30.5798 57.2921 30.6032 57.4822 30.6013C58.0306 30.564 58.5815 30.6123 59.1151 30.7445C59.3021 30.7803 59.4934 30.7872 59.6825 30.765C59.9823 30.7402 60.2839 30.7778 60.5684 30.8755C60.6447 30.9069 60.7267 30.9223 60.8092 30.9205C61.3236 30.9205 61.838 31.0432 62.3401 31.0637C63.079 31.0924 63.7893 31.2724 64.5282 31.2888C65.1214 31.3465 65.7077 31.4602 66.2796 31.6284C66.4323 31.6854 66.5913 31.7239 66.7531 31.743C67.5939 31.7787 68.4273 31.9161 69.2352 32.1522C69.6883 32.2422 70.1455 32.2341 70.5987 32.3527C71.9867 32.7251 73.3951 33.0034 74.7912 33.3348C76.1874 33.6663 77.6856 34.0427 79.1307 34.4029C79.2042 34.4029 79.2613 34.497 79.3267 34.542V34.6402C79.3186 34.7061 79.3021 34.7708 79.2777 34.8325C79.2532 34.8939 79.2205 34.9553 79.1919 35.0167L79.0409 35.3031C78.2244 36.6658 77.2937 37.9343 76.3996 39.2397C76.1384 39.6244 75.9138 40.2341 75.2117 39.9804C74.8619 39.9201 74.5233 39.807 74.2074 39.6448C71.3928 38.6953 68.5161 37.942 65.5978 37.3901C64.6058 37.2182 63.6016 37.1159 62.6055 36.9809C61.0624 36.7926 59.5111 36.719 57.9598 36.6126C56.7376 36.5138 55.5103 36.4946 54.2857 36.5553C53.1139 36.5683 51.9435 36.6407 50.779 36.7722C50.6437 36.7907 50.5072 36.7989 50.3707 36.7967C48.5745 36.8786 46.7865 37.0463 45.0025 37.2837C44.3289 37.3696 43.6472 37.4228 42.9613 37.4924C42.5735 37.5742 42.0469 37.7461 41.8387 37.4187C41.6305 37.0913 42.1 36.7558 42.3082 36.453C43.6104 34.5788 44.929 32.7128 46.3333 30.9123C46.5208 30.6442 46.7646 30.4207 47.0477 30.2576L47.0396 30.2862Z" fill="#F06256"/>
<path d="M17.3896 42.5255C17.4264 41.2733 17.5734 40.0334 17.7203 38.7894C17.7816 38.2492 17.8836 37.7132 17.9612 37.173C17.9979 36.907 18.0183 36.637 18.0428 36.3546C18.2347 33.7439 19.0838 31.2968 19.8309 28.8211C20.133 27.6671 20.6147 26.5786 20.9698 25.441C21.0367 25.1485 21.1904 24.8831 21.4107 24.6799L22.166 22.8589C22.4027 22.2819 22.6354 21.7008 22.8763 21.1198C22.8763 21.0829 22.962 21.0666 23.0477 21.0093C22.9728 21.6885 22.9468 22.3723 22.9702 23.0553C22.9087 23.5992 22.9087 24.1483 22.9702 24.6922C23.1457 24.9049 23.2308 25.1783 23.207 25.4533C23.212 26.8935 23.4111 28.3264 23.7989 29.7131C23.8703 29.9493 23.8703 30.2013 23.7989 30.4374C24.1197 31.654 24.5886 32.8263 25.195 33.928C25.6808 34.3658 25.8319 34.9919 26.0646 35.5648C26.557 36.8919 26.9259 38.2618 27.1668 39.6569C27.2441 39.9486 27.2076 40.2588 27.0648 40.5244C27.1444 41.2268 27.1853 41.9331 27.1872 42.64C27.1987 43.3755 27.1275 44.1099 26.9749 44.8293C26.8233 45.6948 26.4569 46.5082 25.9095 47.1945C25.2948 47.9742 24.4104 48.4941 23.4315 48.6513C22.7565 48.76 22.0703 48.7792 21.3903 48.7086C20.8484 48.6515 20.3249 48.4793 19.8547 48.2034C19.3845 47.9275 18.9783 47.5543 18.6633 47.1086C18.1313 46.3452 17.7884 45.4656 17.6632 44.5429C17.5461 44.038 17.4818 43.5224 17.4713 43.0042C17.4964 42.84 17.4677 42.672 17.3896 42.5255Z" fill="#4EA7AF"/>
<path d="M85.524 36.3629C86.7487 36.7721 87.9938 37.2059 89.2226 37.6478C90.3207 38.057 91.4107 38.4662 92.4884 38.8754C93.0883 39.0533 93.6749 39.2734 94.2438 39.5343C95.3215 40.1276 96.5299 40.4018 97.5995 41.0115C97.8567 41.1588 98.1547 41.2325 98.4159 41.3593C99.3794 41.8013 100.347 42.2309 101.306 42.6729C102.421 43.1885 103.49 43.79 104.621 44.2606C105.344 44.5634 106.025 44.9645 106.719 45.3287C106.768 45.3573 106.772 45.476 106.797 45.5537C106.821 45.6315 106.797 45.6315 106.777 45.6724C106.745 45.7443 106.703 45.8117 106.654 45.8729C104.923 47.4238 103.025 48.7374 101.212 50.2023C101.099 50.3016 100.96 50.3675 100.812 50.3928C100.664 50.418 100.511 50.4017 100.371 50.3456C99.0814 49.7604 97.7913 49.1711 96.4972 48.5941C93.758 47.3665 91.0229 46.1389 88.251 45.0054C85.9812 44.0683 83.7114 43.1394 81.4294 42.2391C81.3151 41.969 81.4702 41.7685 81.6049 41.5639C82.6337 40.0212 83.6869 38.499 84.7279 36.9685C84.9361 36.6944 85.0668 36.2974 85.524 36.3629Z" fill="#F06256"/>
<path d="M27.0933 40.5121C26.8813 38.9698 26.5217 37.4514 26.0197 35.9781C25.8441 35.4666 25.6115 34.9755 25.3951 34.4722C25.3257 34.2963 25.2808 34.108 25.2236 33.928C25.2262 33.8461 25.2511 33.7665 25.2958 33.698C25.3404 33.6294 25.403 33.5745 25.4767 33.5392C25.6497 33.46 25.8285 33.3943 26.0115 33.3428C26.8417 33.0981 27.6837 32.896 28.5344 32.7372C28.5882 32.7353 28.6417 32.7271 28.6936 32.7126C29.555 32.3689 30.4898 32.3361 31.3757 32.0865C31.8966 31.9426 32.4274 31.8373 32.9637 31.7714C33.2617 31.7346 33.5475 31.6732 33.8373 31.6078C34.5477 31.4523 35.2743 31.3663 35.9887 31.2395C36.6082 31.1996 37.2237 31.112 37.8298 30.9776C37.9887 30.9391 38.1526 30.9253 38.3156 30.9366C38.7284 30.9647 39.1428 30.9204 39.5403 30.8057C39.7259 30.7646 39.9181 30.7646 40.1037 30.8057C40.2629 30.8057 40.3037 30.9653 40.3282 31.1044C40.3261 31.1439 40.3261 31.1836 40.3282 31.2231C40.3113 31.3012 40.2881 31.3779 40.2588 31.4522C38.9362 33.6006 37.5604 35.7162 36.3806 37.9546C36.2191 38.2363 36.0057 38.4849 35.7519 38.6871C35.2367 38.921 34.6835 39.0597 34.119 39.0963C32.1146 39.4359 30.1469 39.9597 28.1547 40.3607C27.7873 40.4221 27.4403 40.4548 27.0933 40.5121Z" fill="#F06256"/>
<path d="M75.1829 82.0223C74.1991 81.9623 73.2192 81.8489 72.2477 81.6826C72.2105 81.6254 72.1587 81.5793 72.0977 81.549C72.0366 81.5188 71.9686 81.5056 71.9007 81.5107C71.57 81.5107 71.2434 81.5107 70.9169 81.5107H63.2217C62.8679 81.4931 62.5135 81.5248 62.1684 81.6049C61.9548 81.6473 61.737 81.6652 61.5193 81.6581C60.8349 81.6181 60.1482 81.6718 59.4782 81.8177C58.5229 81.7604 57.584 82.0141 56.6206 82.0059C56.266 81.9776 55.9092 82.0137 55.5673 82.1123C55.4878 82.1356 55.4052 82.1466 55.3224 82.145C54.5601 82.1389 53.7985 82.1923 53.0445 82.3046C52.7475 82.3394 52.4474 82.3394 52.1504 82.3046C52.124 82.2998 52.0994 82.2883 52.0788 82.2711C52.0582 82.2539 52.0424 82.2316 52.0329 82.2065C52.0235 82.1813 52.0207 82.1542 52.0248 82.1276C52.0289 82.1011 52.0399 82.0761 52.0565 82.055C52.3709 81.7563 52.673 81.4371 53.0159 81.1711C54.7727 79.7834 56.7448 78.6941 58.8536 77.9465C59.7459 77.6174 60.6652 77.3668 61.601 77.1977C62.4826 77.0439 63.3729 76.9455 64.2667 76.9031C65.5712 76.8746 66.8748 76.9927 68.1531 77.255C68.8965 77.4185 69.6245 77.6458 70.329 77.9343C71.7139 78.5027 73.0289 79.2291 74.248 80.099C74.9029 80.5855 75.5299 81.1088 76.1259 81.6663C76.1559 81.6892 76.1808 81.7182 76.199 81.7513C76.2173 81.7844 76.2285 81.8209 76.232 81.8586C76.232 82.0018 76.081 81.9895 75.9748 81.9936C75.7258 82.01 75.4523 82.0141 75.1829 82.0223Z" fill="white"/>
<path d="M44.4762 41.7521C45.8107 41.7468 47.1399 41.9216 48.4279 42.2718C49.0999 42.4134 49.7068 42.773 50.1547 43.2948C50.5629 43.794 50.5344 44.1418 50.0526 44.5633C49.66 44.9057 49.1789 45.1298 48.6647 45.2099C47.7793 45.3734 46.8851 45.4841 45.9867 45.5413C43.6118 45.6391 41.2737 46.163 39.0834 47.0881C36.7886 48.1079 34.5485 49.2471 32.3721 50.5009C31.7026 50.8651 31.0372 51.2416 30.3554 51.5772C29.9561 51.7529 29.5473 51.9059 29.1307 52.0355C28.9767 52.0928 28.8072 52.0928 28.6531 52.0355C28.6063 52.0244 28.5622 52.0042 28.5233 51.976C28.4844 51.9477 28.4514 51.912 28.4264 51.8709C28.4013 51.8298 28.3846 51.7841 28.3773 51.7365C28.37 51.6889 28.3721 51.6403 28.3837 51.5935C28.4473 51.3277 28.5579 51.0755 28.7103 50.8488C29.3214 50.0079 30.0043 49.222 30.7514 48.4999C32.2001 47.091 33.7991 45.8463 35.5196 44.7884C37.5607 43.5239 39.7203 42.4682 42.1166 42.0221C42.8909 41.8456 43.6822 41.7551 44.4762 41.7521Z" fill="#5B4A42"/>
<path d="M76.7465 47.3378C78.1673 47.3198 79.5829 47.5129 80.9472 47.9107C83.9771 48.7388 86.8502 50.0619 89.4507 51.8268C90.152 52.2985 90.8104 52.8311 91.4184 53.4186C91.6643 53.6371 91.8617 53.9047 91.9981 54.2043C92.1205 54.5194 91.9981 54.7363 91.647 54.7813C91.2942 54.8212 90.937 54.7948 90.5938 54.7036C89.9855 54.5481 89.3691 54.4048 88.7812 54.1961C86.5237 53.3982 84.2498 52.633 81.9229 52.0355C79.5777 51.3893 77.1351 51.1744 74.7135 51.4012C73.5243 51.5636 72.3254 51.6443 71.1252 51.6427C70.6883 51.6581 70.252 51.5986 69.8351 51.4667C69.6808 51.4139 69.533 51.3439 69.3943 51.258C69.2207 51.1461 69.0919 50.9765 69.0307 50.7789C68.9695 50.5814 68.9797 50.3685 69.0595 50.1777C69.1644 49.8919 69.3468 49.641 69.5861 49.4534C69.9619 49.1347 70.3728 48.8601 70.8108 48.635C72.664 47.752 74.6949 47.3082 76.7465 47.3378Z" fill="#5B4A42"/>
<path d="M75.4527 64.4017C75.4165 63.6075 75.5229 62.8133 75.767 62.0569C76.0613 60.808 76.6445 59.646 77.4694 58.6646C77.7095 58.385 78.0063 58.1597 78.3399 58.0038C78.6735 57.8479 79.0363 57.7649 79.4044 57.7603C79.7452 57.7599 80.0806 57.8451 80.3801 58.0081C80.6796 58.1711 80.9336 58.4066 81.119 58.6932C81.4118 59.1194 81.6427 59.5851 81.8048 60.0764C82.0212 60.633 82.1413 61.2225 82.16 61.8196C82.16 62.2288 82.2743 62.638 82.3028 63.0472C82.3448 64.1385 82.1829 65.228 81.8252 66.2595C81.586 67.0962 81.2123 67.8881 80.7189 68.6043C80.332 69.1709 79.8005 69.6231 79.1799 69.9137C79.0091 69.9896 78.827 70.0366 78.641 70.0529C78.3168 70.0912 77.9882 70.0489 77.6842 69.9297C77.3802 69.8105 77.1101 69.6181 76.8979 69.3695C76.261 68.6616 75.8365 67.7878 75.6732 66.8488C75.523 66.0419 75.4492 65.2225 75.4527 64.4017Z" fill="#333230"/>
<path d="M42.288 69.9918C41.601 69.8141 40.9984 69.3998 40.5856 68.8214C40.1097 68.1897 39.7389 67.4849 39.4875 66.7345C39.0847 65.6384 38.8587 64.485 38.818 63.3176C38.7714 61.9535 39.0514 60.598 39.6344 59.3646C39.845 58.9193 40.1568 58.5296 40.5448 58.227C40.7732 58.0146 41.0544 57.8676 41.3589 57.8014C41.6634 57.7351 41.98 57.7521 42.2757 57.8506C42.7943 58.0035 43.266 58.285 43.6474 58.669C44.4298 59.544 44.99 60.5954 45.2803 61.7339C45.614 62.8318 45.7765 63.9747 45.762 65.1222C45.7627 65.4766 45.7202 65.8298 45.6355 66.1739C45.5171 66.5831 45.4232 67.0209 45.3211 67.4424C45.1274 68.1239 44.7999 68.7597 44.3577 69.3125C44.0683 69.6402 43.687 69.8727 43.2636 69.9795C42.9448 69.8838 42.6043 69.8881 42.288 69.9918Z" fill="#333230"/>
<path d="M100.396 50.3414C100.637 50.3307 100.87 50.2449 101.061 50.0959C102.343 49.0688 103.637 48.0499 104.931 47.0432C105.502 46.5972 106.082 46.1552 106.658 45.7133C106.707 45.656 106.772 45.611 106.821 45.5496C106.892 45.4753 106.957 45.396 107.017 45.3123C107.064 45.233 107.131 45.1675 107.211 45.1222C107.292 45.077 107.382 45.0536 107.474 45.0545C107.176 45.5455 107.176 45.5496 107.601 45.7706C108.752 46.3803 109.911 46.9737 111.059 47.5957C111.875 48.0458 112.691 48.5286 113.537 48.9951V49.1588C112.945 49.5879 112.387 50.0612 111.867 50.5747C110.854 51.5036 109.826 52.4243 108.744 53.2796C108.497 53.4447 108.289 53.6627 108.136 53.9179C107.517 53.7109 106.917 53.4507 106.343 53.1404C105.327 52.6985 104.331 52.2033 103.327 51.7246L100.396 50.3414Z" fill="#F58776"/>
<path d="M35.7397 38.679C36.201 37.8606 36.6419 37.0053 37.1237 36.191C38.0136 34.6974 38.928 33.2202 39.8343 31.7388C39.9323 31.5751 40.0466 31.4237 40.1527 31.2641C40.2119 31.2143 40.2653 31.1581 40.3119 31.0964C40.3663 31.0626 40.4105 31.0147 40.44 30.9578C40.4695 30.9009 40.483 30.8371 40.4793 30.7731C40.4753 30.7085 40.4887 30.644 40.5182 30.5864C40.5476 30.5288 40.592 30.4802 40.6467 30.4457C40.7365 30.4948 40.8263 30.593 40.9161 30.593C41.4535 30.6484 41.9961 30.6194 42.5246 30.5071C42.7344 30.4576 42.9501 30.4369 43.1655 30.4457C43.9722 30.4708 44.7796 30.4243 45.5781 30.3066C46.0604 30.2478 46.5473 30.2382 47.0315 30.278C46.3007 31.256 45.5618 32.2299 44.8433 33.2161C44.2963 33.9608 43.7697 34.7179 43.239 35.4708C42.7858 36.1092 42.3409 36.7516 41.8347 37.4718L42.945 37.5128C42.7981 37.6642 42.5981 37.6396 42.4143 37.6683C41.4754 37.8074 40.5406 37.9752 39.5975 38.0775C38.3034 38.2371 37.0461 38.6053 35.7397 38.679Z" fill="#F58776"/>
<path d="M85.5237 36.3629C85.1994 36.6097 84.9355 36.9274 84.7521 37.2918C84.0744 38.278 83.4253 39.2806 82.7109 40.2545C82.2537 40.8969 81.8577 41.5803 81.4373 42.2432L78.2653 41.1097L77.8122 40.9583C77.7223 40.856 77.5713 40.8888 77.4774 40.8028C77.3549 40.6351 77.1222 40.8028 76.9957 40.6269C76.3695 40.4715 75.7587 40.2592 75.1709 39.9926C75.3846 39.9852 75.5869 39.8941 75.7343 39.7389C76.2107 39.1482 76.651 38.5292 77.0529 37.8852C77.7101 36.9563 78.3265 35.9946 78.9593 35.0494C79.0164 35.0002 79.0654 34.9389 79.1226 34.8857C79.2206 34.7956 79.192 34.6483 79.2859 34.5542H79.4532C79.8555 34.5908 80.251 34.6817 80.629 34.8243C81.4862 35.0534 82.3435 35.2867 83.1845 35.569C83.7438 35.7614 84.2867 35.9782 84.8664 36.1297C85.0752 36.1777 85.2891 36.1997 85.5032 36.1951C85.5237 36.2401 85.5237 36.2974 85.5237 36.3629Z" fill="#F58776"/>
<path d="M42.2881 69.9916C42.4263 69.8854 42.5956 69.8279 42.7698 69.8279C42.944 69.8279 43.1133 69.8854 43.2515 69.9916C42.9337 70.0571 42.6059 70.0571 42.2881 69.9916Z" fill="#282521"/>
<path d="M77.0122 40.6186C77.1918 40.6186 77.3837 40.5941 77.4939 40.7946C77.3143 40.7905 77.1265 40.8109 77.0122 40.6186Z" fill="#F0ADA1"/>
<path d="M103.543 105.474C103.512 105.532 103.464 105.578 103.406 105.608C103.348 105.638 103.282 105.65 103.217 105.642C103.25 105.586 103.298 105.54 103.356 105.51C103.414 105.481 103.479 105.468 103.543 105.474Z" fill="#CDC4BF"/>
<path d="M77.4937 40.7945C77.5586 40.783 77.6255 40.7917 77.6854 40.8195C77.7453 40.8473 77.7952 40.8929 77.8284 40.95C77.7634 40.9615 77.6965 40.9528 77.6367 40.925C77.5768 40.8972 77.5269 40.8516 77.4937 40.7945Z" fill="#F0ADA1"/>
<path d="M103.71 105.314L103.543 105.474L103.71 105.314Z" fill="#CDC4BF"/>
<path d="M23.8275 30.4374C23.491 29.6654 23.2708 28.8476 23.1743 28.0108C22.9594 26.9172 22.8826 25.8008 22.9457 24.688C23.407 24.6986 23.8682 24.6602 24.3214 24.5734C24.7276 24.5225 25.1375 24.5088 25.5461 24.5325C26.3343 24.5757 27.1249 24.5262 27.9016 24.3852C28.0644 24.3666 28.2287 24.3666 28.3915 24.3852C28.9612 24.3869 29.5302 24.3458 30.0938 24.2624C30.6891 24.2003 31.2883 24.1852 31.886 24.2174C32.2968 24.2198 32.7069 24.1828 33.1107 24.1069C33.5426 24.0541 33.9781 24.0363 34.4129 24.0538C34.9284 24.0644 35.4437 24.026 35.952 23.9392C36.4107 23.8796 36.874 23.8632 37.3359 23.8901C37.7982 23.894 38.2599 23.857 38.7157 23.7796C39.2019 23.7207 39.6921 23.7029 40.1812 23.7264C40.6157 23.7415 41.0503 23.703 41.4753 23.6118C41.7708 23.5632 42.0714 23.5536 42.3694 23.5832C42.3921 23.5884 42.413 23.5994 42.4302 23.6152C42.4474 23.631 42.4602 23.651 42.4673 23.6732C42.4653 23.7245 42.4433 23.773 42.4061 23.8082C42.3604 23.8379 42.311 23.8613 42.2591 23.8778L39.1811 24.9581C36.8991 25.7765 34.6089 26.5458 32.3309 27.3602C31.2818 27.7325 30.253 28.1786 29.208 28.5469C28.4201 28.8374 27.6118 29.0747 26.8239 29.3653C25.8115 29.6967 24.8235 30.0691 23.8275 30.4374Z" fill="#F7AA98"/>
<path d="M40.9735 29.9507C40.9772 30.057 40.9478 30.1618 40.8892 30.2506C40.8307 30.3393 40.746 30.4076 40.647 30.4458C40.6386 30.3386 40.6662 30.2317 40.7254 30.142C40.7845 30.0523 40.8719 29.985 40.9735 29.9507Z" fill="#F58776"/>
<path d="M113.537 48.9952C113.574 48.8958 113.641 48.8105 113.729 48.7511C113.817 48.6917 113.921 48.6612 114.026 48.6637C113.993 48.7653 113.926 48.8528 113.838 48.9127C113.749 48.9726 113.643 49.0016 113.537 48.9952Z" fill="#F58776"/>
<path d="M20.0108 28.8048C19.8841 29.4725 19.7011 30.1283 19.4637 30.7649C18.982 32.5491 18.4921 34.3332 18.1574 36.1501C18.1299 36.2276 18.0914 36.3006 18.0431 36.367C18.0145 36.146 17.9165 35.9864 17.6716 36.0683C17.2278 36.189 16.7971 36.3535 16.3857 36.5593C15.7202 36.9358 14.9609 37.079 14.3078 37.4718C13.973 37.4718 13.7648 37.9506 13.4301 37.7624C13.1913 37.584 12.9855 37.3652 12.8218 37.1158C12.4136 36.6166 12.0053 36.101 11.5971 35.61C11.3399 35.3112 11.1358 34.9225 10.6704 34.8775L10.997 34.546C11.1012 34.3535 11.2548 34.1925 11.442 34.0795C11.5624 34.018 11.6715 33.9364 11.7645 33.8381C12.2748 33.1629 12.9892 32.6964 13.5525 32.0744C14.1159 31.4524 14.7201 30.8468 15.3406 30.2861C16.1571 29.5537 16.9735 28.8498 17.7083 28.0601C17.8156 27.9579 17.9456 27.8828 18.0876 27.8408C18.2295 27.7988 18.3794 27.7912 18.5248 27.8186C19.127 27.9464 19.6583 28.2989 20.0108 28.8048Z" fill="#F37567"/>
<path d="M17.3816 27.1598C16.4263 26.5173 15.4711 25.8749 14.524 25.2406C14.4499 25.21 14.3713 25.192 14.2913 25.1874C14.1117 24.5981 14.5852 24.7782 14.8097 24.7782C16.4957 24.7782 18.1858 24.7782 19.8718 24.7782C20.1945 24.83 20.5249 24.8033 20.8352 24.7004C21.2884 24.8273 21.0598 25.1097 20.9128 25.2651C20.2519 26.0511 19.5057 26.7607 18.6879 27.3808C18.1572 27.7449 17.7694 27.4912 17.3816 27.1598Z" fill="#FCC4B5"/>
<path d="M17.3813 27.1596H17.463C17.7406 27.1596 17.8712 27.5238 18.1896 27.4542C18.5081 27.3846 18.5979 27.1146 18.8428 26.9918C19.1507 26.7827 19.4258 26.529 19.6593 26.2389C20.0675 25.8297 20.4757 25.4204 20.8554 25.0112C20.9656 24.8967 20.9411 24.7698 20.8023 24.6757C20.8146 24.6473 20.8329 24.6219 20.8559 24.6013C20.8789 24.5808 20.9061 24.5654 20.9357 24.5565C20.9652 24.5475 20.9963 24.5451 21.0269 24.5495C21.0574 24.5538 21.0867 24.5647 21.1126 24.5816C21.2035 24.6151 21.2962 24.6438 21.3902 24.6675C20.982 26.067 20.4757 27.4174 19.99 28.7596C19.4595 28.4896 18.9622 28.1587 18.5081 27.7734C18.4725 27.718 18.4225 27.6735 18.3635 27.6447C18.3045 27.6158 18.2387 27.6037 18.1733 27.6097C18.0112 27.6254 17.8481 27.5907 17.7064 27.5101C17.5646 27.4296 17.4511 27.3072 17.3813 27.1596Z" fill="#F6AA98"/>
<path d="M20.8231 24.7003C20.6353 24.9254 20.374 24.8558 20.1372 24.8558C18.4757 24.8558 16.8142 24.8558 15.1527 24.8558C14.9348 24.8504 14.7167 24.8572 14.4995 24.8763C14.3444 24.8968 14.2954 25.0359 14.2791 25.1791C14.2301 25.1543 14.1824 25.1269 14.1362 25.0973C14.0423 25.0277 13.977 24.9336 14.026 24.8231C14.0481 24.7911 14.0765 24.7641 14.1096 24.7437C14.1426 24.7233 14.1794 24.7099 14.2179 24.7044C14.3796 24.6942 14.5419 24.6942 14.7037 24.7044L20.8231 24.7003Z" fill="#F6AA98"/>
<path d="M7.06152 30.4497L7.22073 30.282L7.06152 30.4497Z" fill="#F58776"/>
<path d="M79.3187 34.5459C79.3253 34.6109 79.3135 34.6766 79.2846 34.7352C79.2558 34.7938 79.211 34.8431 79.1554 34.8774C79.1473 34.8121 79.1584 34.746 79.1874 34.687C79.2165 34.6281 79.2621 34.579 79.3187 34.5459Z" fill="#F37567"/>
<path d="M79.1389 34.8774L78.9756 35.0411L79.1389 34.8774Z" fill="#F37567"/>
<path d="M106.821 45.5496L106.658 45.7132L106.821 45.5496Z" fill="#F37567"/>
<path d="M40.312 31.0964L40.1528 31.2642L40.312 31.0964Z" fill="#F37567"/>
</g>
<defs>
<clipPath id="clip0">
<rect width="130.291" height="123.202" fill="white"/>
</clipPath>
</defs>
</svg>
