<svg width="106" height="28" viewBox="0 0 106 28" fill="none" xmlns="http://www.w3.org/2000/svg">
<path fill-rule="evenodd" clip-rule="evenodd" d="M13.3212 11.0544C13.5469 11.057 13.7668 11.1268 13.9533 11.2551C14.1397 11.3833 14.2843 11.5643 14.369 11.7752C14.4536 11.9861 14.4744 12.2176 14.4288 12.4404C14.3832 12.6632 14.2733 12.8674 14.1127 13.0274C13.9522 13.1874 13.7483 13.2959 13.5268 13.3394C13.3052 13.3828 13.0758 13.3592 12.8675 13.2716C12.6592 13.1839 12.4812 13.0362 12.3561 12.8468C12.2309 12.6575 12.1641 12.4351 12.1641 12.2076C12.1664 11.9002 12.2894 11.6062 12.5063 11.3901C12.7232 11.174 13.0162 11.0533 13.3212 11.0544ZM1.19576 13.0009C0.41639 11.5338 0.00581635 9.89645 0 8.23232V7.84651C1.61715 8.34734 3.34752 8.33827 4.95941 7.8205V8.22799C4.95934 8.49376 4.98092 8.75909 5.02393 9.0213C7.34603 7.67416 10.1024 7.30689 12.6921 7.99958C15.2817 8.69228 17.4947 10.3887 18.8483 12.7191L19.0161 13.0095L18.8483 13.3C17.4947 15.6292 15.2825 17.3248 12.6939 18.0174C10.1053 18.71 7.34993 18.3435 5.02823 16.9978C4.39164 21.0684 7.57031 26.4178 12.6631 27.6576C11.8286 27.8756 10.9701 27.9863 10.1081 27.9871C8.36233 27.9869 6.64642 27.5308 5.12761 26.6633C3.6088 25.7959 2.33892 24.5466 1.44176 23.0372C0.544602 21.5279 0.0507724 19.8101 0.00841412 18.0512C-0.0339441 16.2922 0.376617 14.5523 1.20007 13.0009H1.19576Z" fill="#EF5101"/>
<path fill-rule="evenodd" clip-rule="evenodd" d="M7.11328 22.0352C7.86204 22.5665 8.73754 22.8874 9.64997 22.9651C10.5624 23.0427 11.4789 22.8744 12.3055 22.4773C13.132 22.0802 13.8389 21.4686 14.3536 20.7053C14.8682 19.942 15.1721 19.0544 15.2341 18.1337L15.26 17.7002C16.8719 18.2074 18.5989 18.2074 20.2108 17.7002V18.1554C20.086 21.9572 18.3053 26.2055 14.0298 26.4353C11.2554 26.5827 9.10048 25.0481 7.57782 22.7982C7.41437 22.5598 7.26382 22.3083 7.11758 22.0482" fill="white"/>
<path d="M44.2925 25.5153C45.8722 27.1033 48.0113 27.9966 50.2425 28C51.3534 27.9994 52.4532 27.7774 53.4786 27.3466C54.504 26.9158 55.4346 26.2848 56.217 25.49C56.8295 26.1107 57.5331 26.6327 58.3032 27.0376C58.6784 25.3923 59.5356 23.8986 60.7635 22.7503C60.1447 22.4716 59.6185 22.0192 59.2479 21.4473C58.8772 20.8754 58.6777 20.2081 58.6731 19.525V7.647H51.92C52.4103 9.25726 52.4103 10.9787 51.92 12.589H53.7567V19.525C53.7248 20.4435 53.3404 21.3136 52.6844 21.9519C52.0285 22.5903 51.1522 22.9471 50.2404 22.9471C49.3285 22.9471 48.4522 22.5903 47.7963 21.9519C47.1403 21.3136 46.7559 20.4435 46.724 19.525V7.647H39.971C40.4613 9.25726 40.4613 10.9787 39.971 12.589H41.8119V19.525C41.821 21.7736 42.7128 23.9273 44.2925 25.5153Z" fill="white"/>
<path d="M61.8302 22.2127C61.8659 23.0816 62.1366 23.924 62.6131 24.649C65.1121 28.5289 71.5426 28.8757 75.1858 26.5261C78.0849 24.6534 78.7344 21.3631 76.3644 18.8921C74.3772 16.8069 71.5641 16.2174 69.0521 15.0426C66.8714 14.0238 67.3703 12.6063 69.8221 12.6063C71.2974 12.615 72.5276 12.9618 72.833 13.3953C74.4625 12.905 76.2018 12.9277 77.8182 13.4603C77.7064 10.2394 74.1707 7.63833 69.8264 7.63833C65.4132 7.63833 61.8345 10.313 61.8345 13.612C61.8345 17.3618 66.0068 19.1609 68.8629 20.1883C69.736 20.5047 71.8781 20.9035 71.7878 22.0783C71.7491 22.5942 71.1813 23.0667 69.8264 23.0667C68.351 23.0581 67.1208 22.7113 66.8154 22.2777C65.1859 22.768 63.4467 22.7453 61.8302 22.2127Z" fill="white"/>
<path d="M80.5151 4.95494H78.6742C79.1645 3.34025 79.1645 1.61469 78.6742 0H85.4272V8.41431C86.5302 7.90082 87.7307 7.63459 88.9457 7.63399C91.1795 7.64085 93.3199 8.53825 94.8995 10.1302C96.479 11.7221 97.3694 13.8793 97.3762 16.1307V28C95.7741 27.5059 94.062 27.5059 92.4598 28V16.1307C92.428 15.2122 92.0435 14.3421 91.3876 13.7037C90.7316 13.0654 89.8554 12.7086 88.9435 12.7086C88.0317 12.7086 87.1554 13.0654 86.4995 13.7037C85.8435 14.3421 85.4591 15.2122 85.4272 16.1307V28C83.8266 27.5057 82.1158 27.5057 80.5151 28V4.95494Z" fill="white"/>
<path d="M101.088 12.5759H99.2473C99.4927 11.7756 99.6174 10.9426 99.6172 10.105C99.6181 9.2644 99.4934 8.42848 99.2473 7.62533H106V28C104.4 27.5057 102.689 27.5057 101.088 28V12.5759Z" fill="white"/>
<path d="M104.849 0.442685C104.425 0.156881 103.926 0.00433927 103.415 0.00433927V0C103.076 0 102.74 0.067418 102.427 0.198403C102.113 0.329387 101.829 0.521368 101.589 0.763354C101.349 1.00534 101.159 1.29258 101.03 1.60865C100.9 1.92472 100.834 2.26343 100.835 2.60536C100.835 3.11979 100.986 3.62267 101.269 4.0504C101.553 4.47814 101.956 4.81153 102.428 5.00839C102.899 5.20526 103.418 5.25676 103.919 5.1564C104.419 5.05604 104.879 4.80831 105.24 4.44455C105.601 4.08079 105.847 3.61734 105.946 3.11279C106.046 2.60824 105.995 2.08526 105.8 1.60999C105.604 1.13471 105.274 0.728489 104.849 0.442685Z" fill="white"/>
<path d="M22.3657 22.2127C22.3983 23.0821 22.6693 23.9254 23.1486 24.649C25.6433 28.5289 32.0781 28.8757 35.7084 26.5261C38.6118 24.6534 39.257 21.3631 36.8912 18.8921C34.904 16.8069 32.091 16.2174 29.579 15.0426C27.3982 14.0238 27.8929 12.6063 30.349 12.6063C31.8286 12.615 33.0588 12.9618 33.3599 13.3953C34.9894 12.905 36.7287 12.9277 38.3451 13.4603C38.2375 10.2394 34.7019 7.63833 30.3575 7.63833C25.9444 7.63833 22.3657 10.313 22.3657 13.612C22.3657 17.3618 26.538 19.1609 29.3941 20.1883C30.2629 20.5047 32.4093 20.9035 32.3189 22.0783C32.2802 22.5942 31.7125 23.0667 30.3575 23.0667C28.8822 23.0581 27.652 22.7113 27.3466 22.2777C25.7185 22.768 23.9807 22.7453 22.3657 22.2127Z" fill="white"/>
</svg>
