<svg width="16" height="14" viewBox="0 0 16 14" fill="none" xmlns="http://www.w3.org/2000/svg">
<path d="M14.3718 4.15815C14.998 3.68827 15.5616 3.12441 16 2.46658C15.4364 2.71718 14.7789 2.90513 14.1213 2.96779C14.8102 2.56056 15.3112 1.93405 15.5616 1.15092C14.9354 1.52682 14.2153 1.80875 13.4951 1.96538C12.8689 1.30754 12.0235 0.931641 11.0841 0.931641C9.2681 0.931641 7.79648 2.40393 7.79648 4.2208C7.79648 4.4714 7.82779 4.722 7.89041 4.9726C5.16634 4.81598 2.72407 3.50032 1.09589 1.52682C0.81409 1.9967 0.657534 2.56056 0.657534 3.18706C0.657534 4.31477 1.22114 5.31718 2.12916 5.91236C1.59687 5.88104 1.06458 5.75574 0.626223 5.50513V5.53646C0.626223 7.13405 1.75342 8.44971 3.25636 8.76297C3.00587 8.82562 2.69276 8.88827 2.41096 8.88827C2.19178 8.88827 2.00391 8.85694 1.78474 8.82562C2.19178 10.1413 3.41292 11.081 4.85323 11.1124C3.72603 11.9895 2.31703 12.522 0.782779 12.522C0.500978 12.522 0.250489 12.4907 0 12.4594C1.44031 13.3991 3.16243 13.9316 5.0411 13.9316C11.0841 13.9316 14.3718 8.95092 14.3718 4.5967C14.3718 4.44007 14.3718 4.31477 14.3718 4.15815Z" fill="white"/>
</svg>
