<svg width="12" height="12" viewBox="0 0 12 12" fill="none" xmlns="http://www.w3.org/2000/svg">
<path fill-rule="evenodd" clip-rule="evenodd" d="M7.00013 2.5C7.00013 1.94772 6.55241 1.5 6.00013 1.5C5.44784 1.5 5.00013 1.94772 5.00013 2.5V4.99997H2.49988C1.94759 4.99997 1.49988 5.44768 1.49988 5.99997C1.49988 6.55225 1.94759 6.99997 2.49988 6.99997H5.00013V9.5C5.00013 10.0523 5.44784 10.5 6.00013 10.5C6.55241 10.5 7.00013 10.0523 7.00013 9.5V6.99997H9.49988C10.0522 6.99997 10.4999 6.55225 10.4999 5.99997C10.4999 5.44768 10.0522 4.99997 9.49988 4.99997H7.00013V2.5Z" fill="#EF5101"/>
</svg>
