<svg width="30" height="30" viewBox="0 0 30 30" fill="none" xmlns="http://www.w3.org/2000/svg">
<rect width="30" height="30" rx="15" fill="#4FC048"/>
<path d="M22.491 12.627C22.227 10.4297 20.2031 8.75977 17.8566 7.99805C18.9419 9.14062 19.7045 10.9277 19.7045 13.125H20.5258L17.094 16.9336C17.0354 16.9043 16.9474 16.875 16.8887 16.875H15.4808V13.125H18.7659C18.7659 9.75586 16.7421 7.5 15.0115 7.5C13.2517 7.5 11.2572 9.75586 11.2572 13.125H14.5422V16.875H13.1343C13.0464 16.875 12.9877 16.9043 12.8997 16.9336L9.46797 13.125H10.3186C10.3186 10.9277 11.0812 9.14062 12.1371 7.99805C9.79061 8.75977 7.76677 10.4297 7.50279 12.627C7.47346 12.9199 7.67877 13.125 7.97208 13.125H8.20673L12.2251 17.5781C12.1958 17.666 12.1664 17.7539 12.1664 17.8125V21.5625C12.1664 22.0898 12.6064 22.5 13.105 22.5H16.8594C17.3873 22.5 17.798 22.0898 17.798 21.5625V17.8125C17.798 17.7539 17.798 17.666 17.7687 17.5781L21.787 13.125H22.0217C22.315 13.125 22.5496 12.9199 22.491 12.627Z" fill="white"/>
</svg>
