<svg width="132" height="115" viewBox="0 0 132 115" fill="none" xmlns="http://www.w3.org/2000/svg">
<path d="M19.989 95.7076C19.857 95.2506 19.6502 94.819 19.3769 94.4305C18.9265 93.4951 18.8335 92.4257 19.1157 91.4257C19.1157 91.3131 19.2052 91.1703 19.1157 91.1027C19.0261 91.0351 18.9216 91.1553 18.8469 91.2304C18.3865 91.7254 17.8676 92.1619 17.3018 92.53C16.8479 92.8341 16.3353 93.0381 15.7976 93.1288C15.2599 93.2194 14.7092 93.1945 14.1816 93.0558C13.0285 92.8171 11.9609 92.2695 11.0913 91.4708C10.5947 91.0145 10.2375 90.4252 10.0616 89.772C9.88582 89.1187 9.89862 88.4286 10.0986 87.7824C10.1881 87.4519 10.3001 87.1214 10.4046 86.7908C10.089 86.9422 9.765 87.0751 9.43422 87.189C8.92664 87.3392 8.44145 87.527 7.94133 87.6472C5.6348 88.158 2.9252 86.3401 2.2534 84.1166C2.11393 83.6127 2.10591 83.0811 2.23013 82.5732C2.35435 82.0652 2.6066 81.5981 2.96252 81.2169C3.54062 80.446 4.23589 79.7717 5.02271 79.2187C5.39594 78.9633 5.14215 78.8657 4.93314 78.7981C4.09385 78.5676 3.299 78.1969 2.58183 77.7013C1.96984 77.2977 1.45833 76.7579 1.08685 76.1235C0.715365 75.4891 0.493879 74.7773 0.439525 74.043C0.407019 73.4447 0.543244 72.8494 0.832488 72.3257C1.12173 71.802 1.55221 71.3713 2.07425 71.0832C2.64155 70.7302 3.26856 70.4823 3.86572 70.1743C4.32105 69.9339 4.30612 69.9414 3.94783 69.5959C2.93266 68.5968 1.77567 67.7329 1.18597 66.3582C0.756371 65.5315 0.540728 64.6092 0.55896 63.6764C0.58888 63.3089 0.58888 62.9396 0.55896 62.5721C0.394741 60.5815 1.46216 59.327 3.04463 58.418C4.20059 57.7907 5.46957 57.4025 6.77687 57.2762C7.05306 57.2762 7.12024 57.2236 6.94109 56.9532C6.36633 56.1193 5.77662 55.293 5.2765 54.4216C4.53006 53.092 3.89558 51.7098 4.1867 50.1022C4.18735 49.9359 4.15958 49.7708 4.10459 49.6139C4.49274 49.4862 4.64203 49.8168 4.85103 50.0196C5.63136 50.8599 6.52305 51.5879 7.50093 52.1831C8.62013 52.9246 9.82286 53.5298 11.0839 53.9859C12.3368 54.3592 13.5091 54.9656 14.5399 55.7738C14.6594 56.2921 14.316 56.4198 13.9204 56.4574C13.5248 56.4949 13.3083 56.7729 13.3157 57.2086C13.2473 59.4414 13.3096 61.6763 13.5024 63.9018C13.6639 64.6178 14.0732 65.2528 14.6571 65.6931C15.241 66.1335 15.9614 66.3506 16.6897 66.3056C17.3637 66.2327 18.0115 66.0025 18.5816 65.6335C19.1518 65.2644 19.6286 64.7667 19.9741 64.1797C20.3697 63.5562 20.7205 62.8651 21.676 63.3158C21.8999 63.421 22.2507 63.1506 22.5642 63.1806C23.0718 63.4811 23.1838 64.0445 23.4301 64.5102C24.1868 66.037 25.2611 67.3821 26.5801 68.454C27.3796 69.114 28.3319 69.5599 29.3485 69.7503C30.3651 69.9408 31.413 69.8695 32.395 69.5433C33.9734 69.0845 35.4086 68.2264 36.5638 67.0507C37.719 65.875 38.5555 64.4211 38.9936 62.8276C39.1802 62.2341 38.7397 61.7233 38.9562 61.1749C39.0022 61.142 39.0554 61.1207 39.1112 61.1128C39.1671 61.105 39.224 61.1108 39.2772 61.1298C39.9789 61.3702 40.0237 60.9871 39.9714 60.4312C39.9266 60.0106 39.8221 59.5974 39.7997 59.1692C39.7644 58.8698 39.84 58.5678 40.0122 58.3211C40.1844 58.0744 40.4409 57.9003 40.7328 57.8321C40.8917 57.7711 41.0638 57.7536 41.2316 57.7813C41.3995 57.809 41.557 57.881 41.6882 57.9898C42.0092 58.2678 41.9271 58.5908 41.8077 58.9288C41.6882 59.2669 41.636 59.4021 41.5688 59.68C41.218 61.0097 40.9866 62.1064 42.7108 63.0604C42.8452 63.1355 42.9348 63.421 43.0766 63.3008C43.2184 63.1806 42.9796 62.9928 42.8601 62.8877C42.6756 62.7412 42.5238 62.5573 42.4146 62.3479C42.3055 62.1384 42.2414 61.9082 42.2266 61.6721C42.2118 61.4361 42.2466 61.1996 42.3288 60.978C42.4109 60.7564 42.5386 60.5548 42.7034 60.3862C43.308 59.5523 43.1214 58.5983 43.2632 57.6893C43.323 57.2762 42.9945 57.0283 42.6661 56.8405C41.9556 56.4363 41.2964 55.9469 40.7029 55.3832C40.4454 55.0939 40.0952 54.9046 39.7133 54.8484C39.3314 54.7921 38.942 54.8723 38.6129 55.0752C38.4438 55.1784 38.2508 55.2354 38.053 55.2404C37.9685 55.2522 37.8824 55.241 37.8036 55.208C37.7249 55.175 37.6563 55.1213 37.6051 55.0526C37.5608 54.9642 37.5477 54.8631 37.568 54.7662C37.5884 54.6692 37.641 54.5821 37.7171 54.5193C37.9327 54.3005 38.1855 54.1224 38.4636 53.9934C39.4713 53.415 39.6131 53.0244 39.21 51.9126C39.1652 51.7759 39.1733 51.6271 39.2329 51.4962C39.2924 51.3652 39.3989 51.2618 39.531 51.2065C40.0622 50.9018 40.5207 50.4839 40.8746 49.982C41.0164 49.8243 41.2553 49.6891 41.1209 49.4261C40.9866 49.1632 40.7776 49.2909 40.5909 49.321C40.4043 49.351 40.2625 49.321 40.2028 49.1182C40.1431 48.6449 40.4939 48.4045 40.7626 48.1266C41.4015 47.4456 41.9214 46.6608 42.3003 45.8054C42.4496 45.4748 42.584 45.0542 42.3003 44.7687C42.0167 44.4833 41.6136 44.6034 41.2702 44.7311C40.5676 45.0184 39.8929 45.3704 39.2548 45.7828C38.9712 45.9556 38.7174 46.211 38.3516 46.1885C37.9263 45.7989 37.5923 45.3191 37.3738 44.7837C38.0157 44.1602 38.8666 44.0325 39.6579 43.6119C40.0012 43.4316 40.4043 43.3189 40.7253 43.1311C46.897 40.4549 53.3843 38.5867 60.0284 37.5722C63.4342 37.0717 66.8865 36.9759 70.3145 37.2868C70.9266 37.3469 71.5536 37.2868 72.1657 37.3769C73.7929 37.5572 75.4277 37.5797 77.0474 37.7901L79.8989 38.1506C83.6311 38.5638 87.3634 39.1197 91.0956 39.7657C94.0814 40.2991 97.1418 40.7874 100.135 41.4409C100.266 41.479 100.379 41.5613 100.456 41.6738C100.523 41.9066 100.15 42.0569 100.225 42.117C100.299 42.1771 100.561 42.0569 100.695 41.9367C100.807 41.8181 100.949 41.7324 101.105 41.6888C103.434 41.9893 105.711 42.5827 108.018 43.0109C108.208 43.0598 108.403 43.09 108.6 43.101C109.257 43.1912 109.899 43.364 110.555 43.4541C110.787 43.4917 111.071 43.4992 111.108 43.8372C110.944 43.8748 110.772 43.8973 110.764 44.1302C110.809 44.9455 110.751 45.7632 110.593 46.5641C110.593 46.6392 110.593 46.7819 110.638 46.8045C110.682 46.827 110.832 46.7444 110.914 46.6692C111.904 45.7871 113.11 45.1857 114.407 44.9265C114.961 44.8138 115.532 44.8138 116.087 44.9265C116.774 45.1252 117.381 45.5372 117.822 46.1037C118.263 46.6703 118.515 47.3624 118.542 48.0815C118.614 49.3214 118.554 50.5653 118.363 51.7924C118.218 52.4212 118.036 53.0408 117.818 53.6479C117.706 53.9484 117.766 54.001 118.065 54.0836C119.295 54.3785 120.464 54.887 121.521 55.586C121.904 55.8287 122.214 56.1731 122.415 56.5813C122.616 56.9895 122.702 57.4456 122.663 57.8997C122.652 58.8358 122.54 59.7678 122.327 60.6791C122.091 61.5513 121.656 62.3562 121.058 63.0304C120.742 63.5291 120.334 63.9626 119.856 64.3074C119.446 64.5403 119.483 64.7431 119.856 65.0586C120.566 65.5191 121.147 66.1554 121.543 66.9066C121.936 68.4032 121.824 69.9889 121.222 71.4138C120.761 72.1518 120.175 72.8027 119.49 73.3368C118.975 73.7275 119.02 73.78 119.416 74.3134C120.12 75.1482 120.476 76.2251 120.409 77.3182C120.371 77.8835 120.371 78.4506 120.409 79.0159C120.536 81.2695 118.916 82.8245 116.841 83.2301C115.587 83.4705 114.303 83.5832 113.034 83.756C112.952 83.756 112.862 83.756 112.78 83.756C112.086 83.9062 112.033 83.9889 112.384 84.6199C113.113 85.9317 113.431 87.4349 113.295 88.9318C113.277 89.4948 113.051 90.0308 112.66 90.4342C112.056 91.0654 111.4 91.6434 110.697 92.1619C109.935 92.7018 109.009 92.9568 108.079 92.8827C107.15 92.8087 106.275 92.4102 105.607 91.7563C105.472 91.611 105.33 91.4731 105.181 91.3431C105.002 91.2004 104.905 90.8774 104.614 90.975C104.588 91.1859 104.613 91.3999 104.688 91.5985C104.935 92.1971 105.037 92.8457 104.987 93.4915C104.95 93.8296 105.196 93.9197 105.338 94.115C105.271 95.1343 105.034 96.135 104.636 97.0748C104.279 97.8067 103.689 98.3975 102.96 98.7528C102.231 99.1081 101.405 99.2076 100.613 99.0354C98.9317 98.6143 97.4106 97.7052 96.2386 96.4212C96.0669 96.256 95.9624 95.8879 95.6937 95.9855C95.425 96.0832 95.4847 96.4362 95.4698 96.6841C95.3604 97.9783 95.0454 99.2464 94.5367 100.44C93.8724 101.943 92.8796 102.626 91.5509 102.476C90.7 102.362 89.9249 101.924 89.3862 101.251C88.8444 100.674 88.3961 100.015 88.0575 99.2983C88.0575 99.2457 88.1173 99.1105 87.9605 99.1406C87.9998 99.182 88.0258 99.2343 88.0352 99.2908C88.1442 99.9212 88.1134 100.568 87.945 101.185C87.7766 101.802 87.4747 102.374 87.061 102.86C86.6474 103.346 86.132 103.734 85.552 103.996C84.9719 104.258 84.3415 104.388 83.7058 104.376C81.0186 104.444 78.8464 103.55 77.3908 101.184C77.1782 100.859 77.0264 100.497 76.943 100.117C76.9313 100.494 76.8503 100.866 76.7041 101.214C76.2624 102.255 75.5377 103.149 74.6133 103.793C73.6889 104.438 72.6024 104.807 71.479 104.857C70.6684 104.856 69.885 104.563 69.2704 104.031C68.6557 103.499 68.2503 102.764 68.1274 101.958C68.1274 101.897 68.2618 101.822 68.1274 101.777C68.1379 101.85 68.1379 101.923 68.1274 101.995C67.7415 103.085 66.9807 104 65.9826 104.575C64.9845 105.149 63.8151 105.345 62.6858 105.128C62.2056 105.046 61.7518 104.85 61.3623 104.556C60.9727 104.262 60.6587 103.878 60.4465 103.437C60.4465 103.355 60.3867 103.235 60.3121 103.235C60.2375 103.235 60.2598 103.355 60.2449 103.422C59.6627 105.714 57.5279 106.254 55.602 105.751C54.6465 105.542 53.7617 105.085 53.0352 104.427C52.3086 103.768 51.7654 102.93 51.4592 101.995C51.4167 101.89 51.3915 101.778 51.3846 101.665C51.2652 101.71 51.3099 101.83 51.2726 101.912C49.9887 104.977 46.3461 105.976 43.4424 104.083C42.5929 103.617 41.9117 102.892 41.4961 102.012C41.0805 101.133 40.9518 100.143 41.1284 99.1856C41.1284 99.0955 41.2105 99.0204 41.1806 98.9227C41.1586 99.0046 41.1205 99.0812 41.0687 99.1481C40.0998 100.307 38.8466 101.19 37.4335 101.71C35.1941 102.596 33.5445 101.544 32.0814 100.019C31.2728 99.2617 30.6494 98.3258 30.2601 97.2851C30.0884 96.7593 29.857 96.7517 29.5137 97.0823C28.9781 97.5455 28.38 97.93 27.7371 98.2241C27.0003 98.591 26.1892 98.7818 25.3671 98.7818C24.545 98.7818 23.734 98.591 22.9972 98.2241C21.7844 97.6782 20.7439 96.8078 19.989 95.7076Z" fill="#DFD7D4"/>
<path d="M19.9871 95.7075C20.5693 95.8578 20.8231 96.4062 21.2411 96.7517C22.0286 97.4315 22.9455 97.9427 23.9358 98.2541C24.7092 98.466 25.5195 98.5039 26.309 98.3649C27.0986 98.226 27.848 97.9137 28.5041 97.4503C28.9501 97.1606 29.3675 96.8285 29.7506 96.4587C30.0791 96.1507 30.206 96.2109 30.3329 96.639C30.7932 98.1001 31.6866 99.3846 32.8932 100.32C33.368 100.801 33.9241 101.192 34.5354 101.477C35.167 101.676 35.8341 101.734 36.4902 101.647C37.1464 101.56 37.7759 101.33 38.3348 100.973C39.4384 100.351 40.4281 99.5431 41.2608 98.5846C41.3206 98.517 41.328 98.3292 41.4624 98.4043C41.5968 98.4795 41.4624 98.6147 41.4624 98.7199C41.237 99.4805 41.2274 100.289 41.4344 101.055C41.6415 101.821 42.0571 102.513 42.6343 103.054C43.7058 104.115 45.1474 104.711 46.6502 104.714C47.6137 104.741 48.5616 104.466 49.3636 103.928C50.1656 103.39 50.7822 102.615 51.1289 101.71C51.1811 101.582 51.1961 101.432 51.2558 101.304C51.3155 101.176 51.3006 101.071 51.4424 101.086C51.4424 101.086 51.4872 101.236 51.517 101.319C51.8062 102.418 52.4081 103.407 53.2488 104.166C53.8837 104.744 54.6461 105.161 55.4729 105.383C56.2998 105.605 57.1673 105.625 58.0037 105.443C58.5865 105.283 59.1049 104.943 59.4863 104.472C59.8678 104 60.0932 103.421 60.1311 102.814C60.1311 102.686 60.0788 102.468 60.2132 102.446C60.3475 102.423 60.4296 102.649 60.4819 102.806C60.6423 103.355 60.9616 103.843 61.399 104.209C61.8364 104.574 62.3721 104.8 62.9377 104.857C63.5774 104.968 64.2338 104.931 64.8571 104.749C65.4805 104.567 66.0545 104.244 66.5356 103.805C67.2969 103.213 67.8427 102.383 68.0882 101.447C68.114 101.375 68.1492 101.307 68.1927 101.244C68.2196 101.322 68.2396 101.403 68.2524 101.484C68.2925 102.229 68.5896 102.937 69.0923 103.485C69.5951 104.034 70.2721 104.389 71.0068 104.489C72.012 104.625 73.0331 104.413 73.903 103.888C74.6409 103.536 75.2843 103.012 75.7791 102.358C76.274 101.705 76.6059 100.941 76.747 100.132C76.7809 99.995 76.8284 99.8616 76.8888 99.734C76.8888 99.6814 76.9261 99.5988 76.956 99.5912C76.9858 99.5837 77.0381 99.6814 77.0605 99.749C77.3271 100.705 77.8361 101.574 78.5375 102.272C79.239 102.97 80.1087 103.473 81.0614 103.73C81.8473 104.039 82.6905 104.171 83.5324 104.118C84.3742 104.065 85.1944 103.827 85.9357 103.422C86.5192 103.11 87.0082 102.645 87.351 102.077C87.6939 101.508 87.8781 100.857 87.884 100.192C87.9413 99.7417 87.9237 99.2847 87.8317 98.84C87.7944 98.7349 87.6974 98.5997 87.8317 98.5396C87.9661 98.4795 88.0109 98.6447 88.0556 98.7499C88.4758 99.7345 89.0992 100.618 89.8845 101.342C90.2925 101.801 90.8479 102.101 91.4536 102.191C92.0593 102.28 92.6769 102.152 93.1987 101.83C93.7515 101.432 94.1624 100.866 94.3706 100.215C94.8355 99.1597 95.1134 98.0309 95.1917 96.8794C95.2019 96.6816 95.2422 96.4865 95.3111 96.301C95.4156 95.9705 95.2663 95.4296 95.6321 95.347C95.8486 95.2944 96.0874 95.8353 96.3412 96.0982C97.5081 97.4051 99.0366 98.3312 100.73 98.7574C101.448 98.888 102.188 98.7877 102.846 98.4708C103.504 98.154 104.046 97.6365 104.395 96.9921C104.787 96.2431 105 95.4121 105.015 94.5657C105.015 94.3103 104.97 94.0248 105.351 94.0173C107.426 94.3328 109.464 94.8211 111.517 95.2568C115.184 96.028 118.834 96.8644 122.467 97.7658C125.453 98.517 128.438 99.3509 131.372 100.17C131.484 100.17 131.581 100.26 131.686 100.297C131.79 100.335 131.984 100.403 131.999 100.553C132.014 100.703 131.827 100.808 131.671 100.876C131.051 101.131 130.439 101.409 129.804 101.627C125.729 103.062 121.638 104.414 117.503 105.646C112.89 107.028 108.245 108.28 103.567 109.402C100.407 110.153 97.237 110.834 94.0571 111.445C92.0566 111.821 90.0487 112.196 88.0407 112.549C86.3388 112.872 84.6145 113.045 82.8977 113.301C81.3451 113.518 79.7925 113.744 78.2473 113.947C77.5755 114.037 76.9037 114.052 76.2319 114.112C74.6718 114.255 73.1118 114.405 71.5442 114.518C69.1855 114.683 66.8267 114.735 64.4754 114.878C62.1241 115.021 59.7429 115.028 57.3841 114.953C55.3911 114.893 53.3906 114.878 51.4125 114.63C49.4344 114.382 47.2474 114.165 45.1722 113.879C41.1041 113.286 37.0808 112.474 33.0947 111.49C30.1537 110.739 27.2575 109.92 24.3687 109.034C20.9351 107.99 17.5611 106.78 14.232 105.436C12.1718 104.617 10.1191 103.76 8.11111 102.821C7.17058 102.378 6.22259 101.942 5.28953 101.484C5.12532 101.394 4.84913 101.349 4.85659 101.131C4.86406 100.913 5.13278 100.868 5.31193 100.801C7.14072 100.095 8.96952 99.3659 10.8207 98.7199C13.1422 97.901 15.4935 97.1423 17.8299 96.3761C18.5241 96.0907 19.263 95.9104 19.9871 95.7075Z" fill="#2B2A29" fill-opacity="0.05"/>
<path d="M38.9851 5.66902C43.0391 4.17836 47.1921 2.97599 51.4135 2.07078C53.8543 1.54494 56.3102 1.13178 58.7809 0.801249C61.3711 0.455697 63.9612 0.215313 66.5589 0.0500488C66.8948 0.0500488 67.2307 0.0500488 67.574 0.0500488C68.7161 0.418137 69.4551 1.36465 70.3284 2.10834C74.1901 5.4036 78.0641 8.68885 81.9506 11.9641C83.0628 12.9031 83.1076 13.0007 82.6448 14.4205C81.5774 17.7408 80.1069 20.9034 78.7633 24.1185C77.7705 26.4923 76.9569 28.9412 76.0388 31.345C76.0023 31.4333 75.9354 31.5054 75.8504 31.5482C75.7655 31.5909 75.668 31.6015 75.576 31.5779C73.8147 31.3603 72.035 31.3376 70.2687 31.5103C68.4101 31.653 66.5365 31.623 64.7002 31.7657C60.856 32.0662 57.0268 32.4718 53.2273 33.1554C50.3087 33.6738 47.4349 34.3423 44.5611 35.056C44.3961 35.0898 44.226 35.0898 44.0609 35.056C43.4862 34.7405 43.8221 34.3048 43.9714 33.9592C44.3968 33.0052 44.7925 32.0361 45.2553 31.0971C47.3229 26.8529 49.3383 22.5785 51.5628 18.4094C52.3092 17.0647 52.9362 15.6825 53.6603 14.3379C54.25 13.2561 54.2201 13.166 53.1452 12.5951C51.2343 11.5659 49.2637 10.657 47.2931 9.75555C44.8074 8.62124 42.3217 7.50195 39.8286 6.37515C39.4927 6.23993 39.0374 6.17984 38.9851 5.66902Z" fill="#F27567"/>
<path d="M76.0527 0.0425358C77.4561 0.00497576 78.8519 0.245353 80.2478 0.305449C81.6436 0.365545 82.8155 0.598426 84.0994 0.72613C85.6894 0.883882 87.2644 1.16934 88.8319 1.47733C91.4296 1.92805 94.0048 2.46891 96.5577 3.13748C97.8664 3.47802 99.1603 3.84861 100.439 4.24925C102.32 4.82767 104.171 5.42864 106.03 6.11223C106.318 6.21337 106.592 6.35227 106.844 6.52538C107.36 6.9675 107.741 7.54859 107.941 8.20057C109.737 12.0196 111.331 15.9313 112.718 19.9193C112.756 20.032 112.718 19.9193 112.718 20.0019C113.621 22.4433 113.621 22.4433 112.323 24.7119C110.363 28.0396 108.235 31.264 105.948 34.3724C105.75 34.7189 105.468 35.0085 105.127 35.2137C105.042 35.2544 104.951 35.2798 104.858 35.2888C103.512 35.1776 102.181 34.9259 100.887 34.5376C96.595 33.6512 92.273 32.915 87.9138 32.4042C86.3238 32.2164 84.7264 32.0737 83.1365 31.8859C82.8274 31.8826 82.5242 31.7999 82.2557 31.6455C81.8825 31.2474 82.1214 30.8342 82.2557 30.4511C83.9725 25.6509 85.7342 20.8658 87.6003 16.1182C87.7673 15.7807 87.8316 15.401 87.7851 15.0268C87.7386 14.6527 87.5834 14.3006 87.339 14.0148C84.2444 9.79359 80.9253 5.74373 77.3963 1.88297C76.8738 1.37216 76.1498 0.92144 76.0527 0.0425358Z" fill="#F27567"/>
<path d="M12.5682 20.9859C16.169 17.8186 20.0634 15.0063 24.1979 12.5875C26.0148 11.473 27.8968 10.4696 29.8336 9.58273C30.4253 9.40621 31.0518 9.38296 31.6549 9.51512C34.5807 9.97678 37.4789 10.6012 40.3361 11.3856C42.5324 12.0225 44.6173 12.9981 46.5167 14.2777C47.5617 14.9839 47.5915 15.1491 47.0093 16.2684C43.4784 22.8985 40.4178 29.7716 37.8504 36.8363C37.8312 36.9219 37.7948 37.0028 37.7434 37.0738C37.6921 37.1448 37.6269 37.2046 37.5518 37.2494C32.6283 39.0012 27.8695 41.1908 23.332 43.7924C22.7979 44.2096 22.1784 44.5021 21.5181 44.6487C20.9672 44.4416 20.3803 44.3488 19.7928 44.3759C19.2052 44.403 18.6292 44.5495 18.0994 44.8065C17.659 45.0544 17.0618 44.9642 16.5468 45.1445C16.1371 45.2783 15.7579 45.4927 15.4312 45.7751C15.1045 46.0575 14.8367 46.4023 14.6434 46.7897C14.0089 47.9465 13.8297 49.2386 13.3296 50.4255C13.2939 50.4695 13.2489 50.5049 13.1979 50.5293C13.1469 50.5536 13.0912 50.5662 13.0348 50.5662C12.9783 50.5662 12.9226 50.5536 12.8716 50.5293C12.8206 50.5049 12.7756 50.4695 12.7399 50.4255C11.9039 49.6743 10.9559 49.1034 10.09 48.4123C10.0067 48.3387 9.94698 48.242 9.91834 48.1343C9.90385 48.0498 9.90385 47.9634 9.91834 47.8789C10.4151 46.7758 11.0176 45.7242 11.7173 44.7389C12.6802 43.1914 13.6133 41.6139 14.6359 40.104C14.8897 39.7284 15.1285 39.3528 15.6735 39.3528C16.9091 39.6421 18.1159 40.0444 19.2788 40.5547C19.6812 40.744 20.1284 40.8156 20.5693 40.7611C21.0102 40.7066 21.427 40.5284 21.7719 40.2467C26.8254 36.8888 31.8564 33.4859 36.9099 30.1356C36.9845 30.083 37.0816 30.0604 37.1413 29.9928C37.0678 30.0354 36.9903 30.0707 36.9099 30.098C32.2222 31.5403 27.5718 33.1028 22.8617 34.47C21.4286 34.8907 20.0029 35.3414 18.5697 35.7545C18.2786 35.8372 17.9874 36.0024 17.6739 35.8221C17.5097 35.3639 17.8456 35.0709 18.0471 34.7554C20.0402 31.6605 22.0854 28.6106 24.1008 25.5307C24.6607 24.6818 24.6308 24.6293 23.6231 24.3213C20.7642 23.4499 17.8307 22.879 14.9345 22.1353C14.3074 21.97 13.6804 21.7972 13.0683 21.5944C12.7698 21.5043 12.3667 21.4592 12.5682 20.9859Z" fill="#F27567"/>
<path d="M37.6336 36.806C38.2233 34.928 38.9623 33.11 39.7013 31.2921C40.5075 29.2864 41.3733 27.3033 42.2467 25.3276C42.6348 24.4487 43.1126 23.6149 43.5157 22.7435C44.6726 20.3096 45.8744 17.8907 47.1732 15.532C47.2121 15.4816 47.2395 15.4232 47.2535 15.361C47.2675 15.2987 47.2678 15.2342 47.2542 15.1718C47.2407 15.1095 47.2137 15.0509 47.1752 15.0002C47.1367 14.9495 47.0876 14.9079 47.0314 14.8784C45.8327 13.9968 44.547 13.2416 43.1947 12.6248C40.6724 11.5784 38.0406 10.8224 35.3495 10.3712C33.9089 10.1008 32.4608 9.80784 31.0127 9.55243C30.621 9.50967 30.2268 9.49711 29.8333 9.51487C32.8094 8.03487 35.8731 6.74036 39.0071 5.63867C39.8101 6.14921 40.6661 6.56987 41.56 6.89317C42.9707 7.56174 44.4188 8.15519 45.8371 8.81624C48.0764 9.8529 50.3158 10.852 52.5551 11.9938C53.1224 12.2943 53.6823 12.6173 54.2496 12.9253C54.4959 13.053 54.5407 13.1356 54.3914 13.4286C53.5181 15.0963 52.7343 16.809 51.8385 18.4617C50.0993 21.6618 48.5467 24.952 46.9344 28.2273C45.8893 30.3456 44.9488 32.5091 43.9486 34.6575C43.9197 34.7373 43.9022 34.8207 43.8963 34.9054C43.8847 34.9744 43.857 35.0397 43.8155 35.0958C43.7739 35.1519 43.7198 35.1974 43.6575 35.2284C41.9481 35.7768 40.2238 36.2876 38.5219 36.851C38.3852 36.9302 38.2287 36.968 38.0712 36.96C37.9137 36.952 37.7618 36.8985 37.6336 36.806Z" fill="#F7A08D"/>
<path d="M76.0531 0.0423193C76.598 0.673327 77.113 1.3419 77.7027 1.93535C79.0314 3.27248 80.1959 4.75234 81.435 6.17962C83.525 8.606 85.3986 11.1976 87.3692 13.6916C88.3396 14.9311 88.3097 14.9161 87.735 16.3659C86.9885 18.2739 86.2421 20.1895 85.5554 22.1126C84.5203 24.9221 83.4877 27.7365 82.4576 30.5561C82.3456 30.8716 82.2561 31.1946 82.1516 31.5101L82.0396 31.6152C81.563 31.7942 81.0474 31.8409 80.5467 31.7505C79.315 31.6378 78.0834 31.5777 76.8144 31.5702C76.4561 31.5702 76.068 31.5702 75.859 31.1645C76.3666 29.7448 76.8518 28.31 77.4041 26.8977C78.061 25.2 78.7776 23.5173 79.4793 21.8346C80.6213 19.0927 81.8231 16.3659 82.6965 13.5188C82.7565 13.3932 82.7729 13.2509 82.7432 13.1147C82.7134 12.9785 82.6391 12.8564 82.5322 12.7676C82.0097 12.3019 81.5021 11.8136 80.9572 11.3779C79.5166 10.2136 78.1282 8.98911 76.7249 7.78719C75.1499 6.44254 73.5301 5.14296 71.9476 3.80583C70.9623 2.97199 70.0143 2.09309 69.0439 1.24423C68.5587 0.82356 68.0511 0.425432 67.551 0.0197843C70.395 -0.00275173 73.224 -0.0177766 76.0531 0.0423193Z" fill="#F7A08D"/>
<path d="M114.668 9.85303C117.672 11.2808 120.506 13.0447 123.117 15.1114C123.535 15.4461 123.872 15.8726 124.101 16.3582C124.33 16.8439 124.445 17.3759 124.439 17.9134C124.466 19.613 124.374 21.3125 124.162 22.999C123.968 24.8244 123.7 26.6348 123.416 28.4527C123.244 29.5946 122.983 30.7063 122.774 31.8557C122.326 34.2745 121.684 36.6483 121.042 39.0146C120.998 39.3212 120.891 39.6153 120.729 39.8785C120.422 39.9118 120.111 39.8679 119.826 39.7508C117.586 38.9996 115.399 38.3085 113.167 37.6399C112.805 37.5849 112.47 37.4137 112.212 37.1516C112.122 36.7685 112.354 36.5056 112.533 36.2201C114.459 33.1933 116.175 30.0357 117.668 26.7701C118.113 25.8575 118.255 24.825 118.071 23.8253C117.306 19.3897 116.137 15.0344 114.578 10.8146C114.369 10.2211 114.369 10.2136 114.668 9.85303Z" fill="#F27567"/>
<path d="M114.667 9.85319C114.354 10.0936 114.667 10.349 114.712 10.5218C115.917 13.69 116.895 16.941 117.638 20.2498C118.019 21.7973 118.235 23.3823 118.519 24.9523C118.515 25.4881 118.354 26.0107 118.056 26.4547C117.154 28.5124 116.139 30.5186 115.018 32.4643C114.137 34.0343 113.182 35.5593 112.256 37.0992C112.191 37.1659 112.103 37.206 112.01 37.2119C109.905 36.7161 107.822 36.1001 105.725 35.5592C105.478 35.4992 105.143 35.4616 105.157 35.0635C106.74 32.885 108.33 30.714 109.748 28.4229C110.024 27.9721 110.315 27.5214 110.621 27.0857C111.547 25.7786 112.211 24.3138 113.107 22.9917C113.473 22.4433 113.174 21.94 113.018 21.4893C112.48 19.8667 111.913 18.2516 111.301 16.6591C110.554 14.7435 109.868 12.8129 108.979 10.965C108.27 9.46256 107.666 7.96016 106.844 6.45776C107.634 6.59202 108.393 6.86945 109.084 7.27657C110.868 8.02777 112.622 8.81653 114.391 9.60529C114.518 9.68041 114.585 9.78558 114.667 9.85319Z" fill="#F7A08D"/>
<path d="M12.5678 20.9858C12.5678 21.3915 12.8962 21.3389 13.0978 21.399C14.4339 21.7746 15.77 22.1502 17.1286 22.4657C19.1141 22.9089 21.0922 23.3371 23.0404 23.9681C23.5182 24.1183 24.0034 24.2385 24.4811 24.4038C24.9588 24.5691 24.9663 24.6517 24.6976 25.0423C23.7272 26.4546 22.7717 27.8668 21.861 29.3167C21.2415 30.3158 20.5398 31.2698 19.8979 32.2538C19.1514 33.4332 18.405 34.6201 17.6585 35.807C17.5157 35.968 17.34 36.0961 17.1435 36.1826C15.1282 36.8728 13.0615 37.4003 10.9629 37.7601C10.9264 37.7647 10.8894 37.761 10.8545 37.7493C10.8196 37.7376 10.7878 37.7182 10.7614 37.6925C10.8211 37.7676 10.9032 37.7601 10.9853 37.7752C12.4782 38.0456 13.8442 38.7592 15.3072 39.1724C15.464 39.2475 15.6506 39.3076 15.6133 39.548C15.1729 39.4503 15.031 39.8259 14.8668 40.0889C14.2622 41.0053 13.6725 41.9218 13.1052 42.8608C12.0826 44.5435 10.9704 46.1661 10.0299 47.9013C9.68648 48.1868 9.40283 47.9464 9.12664 47.7661C8.06669 47.0976 7.05898 46.3388 5.99903 45.6628C5.80847 45.5704 5.64423 45.4311 5.52155 45.2577C5.39887 45.0844 5.32175 44.8826 5.29736 44.6712C5.54369 43.4467 6.30508 42.4777 6.87984 41.411C9.54026 36.5783 12.6467 32.0084 16.1582 27.7617C16.7553 27.0105 16.7329 26.9278 15.8671 26.4696C13.9393 25.4571 11.8142 24.8827 9.64169 24.7869C9.36551 24.7869 9.06693 24.7869 8.85046 24.5691C10.0058 23.2896 11.2478 22.0923 12.5678 20.9858Z" fill="#F7A08D"/>
<path d="M8.82833 24.539C11.3534 24.4914 13.8477 25.1021 16.0689 26.3118L16.2182 26.3944C17.2483 27.0029 17.0691 27.0254 16.4645 27.7015C15.718 28.5128 15.0761 29.3842 14.4192 30.2556C13.6728 31.2622 12.9263 32.2688 12.1799 33.2604C11.0378 34.8604 9.97787 36.5131 8.94777 38.1732C7.79078 40.0287 6.79053 41.9893 5.73057 43.9049C5.58116 44.1104 5.48612 44.3508 5.45439 44.6035C5.27524 44.7462 5.52904 45.1594 5.11849 45.1519C4.24725 44.2736 3.31155 43.4625 2.31931 42.7255C1.63258 42.102 1.05035 41.3658 0.356149 40.7574C0.109821 40.5395 0.199397 40.2315 0.0426425 40.0062C-0.165872 37.7363 0.394458 35.4622 1.63258 33.5534C2.79369 31.613 4.11722 29.7759 5.58875 28.0621C6.58098 26.8091 7.66378 25.6315 8.82833 24.539Z" fill="#F27567"/>
<path d="M112.099 37.1438H112.279C114.369 37.8124 116.504 38.3607 118.564 39.1195C119.321 39.2945 120.059 39.5461 120.766 39.8707C120.502 40.9396 120.114 41.9734 119.609 42.9506C118.997 44.1375 118.571 44.7084 116.713 44.5206C114.854 44.3328 112.98 43.9947 111.114 43.7694L108.569 43.2511C108.308 43.1759 108.084 43.0783 108.218 42.7327C108.24 42.6523 108.27 42.5743 108.308 42.4999C109.576 40.727 110.786 38.8791 112.099 37.1438Z" fill="#EF6256"/>
<path d="M5.10386 45.1521C5.36512 45.077 5.18597 44.7164 5.43976 44.6338C5.43976 45.062 5.78313 45.2648 6.07425 45.4676C7.1566 46.2188 8.25388 46.8949 9.32876 47.6311C9.42075 47.7141 9.52807 47.778 9.64462 47.8193C9.76118 47.8605 9.88467 47.8783 10.008 47.8715V48.0442C9.33581 49.3517 8.58808 50.6184 7.76869 51.8378C7.66809 52.0434 7.49516 52.204 7.28349 52.2885C6.26289 51.6835 5.34134 50.9233 4.55149 50.0349C4.42254 49.8537 4.25401 49.7046 4.05884 49.5992C3.92448 49.2462 3.52139 49.0959 3.40942 48.7278C3.6659 47.4113 4.24875 46.1813 5.10386 45.1521Z" fill="#F48676"/>
<path d="M5.10389 45.1518C4.58138 46.2035 4.11112 47.2777 3.66325 48.3669C3.61847 48.4947 3.58861 48.6449 3.43932 48.7125C1.65712 46.5995 0.484969 44.035 0.0504365 41.2982C0.0167165 40.8782 0.0167165 40.4561 0.0504365 40.0361C0.769319 40.9011 1.54222 41.719 2.36443 42.4851C3.11088 43.2363 4.08873 43.8222 4.88743 44.5809C4.96458 44.653 5.02422 44.742 5.06176 44.841C5.09929 44.94 5.11371 45.0463 5.10389 45.1518Z" fill="#EF6256"/>
<path d="M43.695 35.1234C43.7026 35.0816 43.7222 35.043 43.7514 35.0123C43.7806 34.9816 43.818 34.9602 43.8592 34.9506C44.9415 34.6952 46.0164 34.4323 47.0988 34.1994C48.8902 33.7938 50.6593 33.3205 52.4807 33.0877C53.0927 33.0125 53.6675 32.8022 54.2721 32.697C55.3993 32.5017 56.5115 32.389 57.661 32.2388C58.8105 32.0886 60.0795 31.9083 61.2962 31.758C61.9873 31.6712 62.6824 31.621 63.3788 31.6078C64.7 31.6078 66.0063 31.39 67.3275 31.3824C69.8803 31.3824 72.4332 31.1195 74.9935 31.2247C75.2548 31.2247 75.6578 31.0444 75.7026 31.5627C75.9639 31.8932 75.7847 32.2088 75.7026 32.5167C75.2174 33.8689 74.7099 35.2135 74.2097 36.5507C73.7917 37.6249 73.7917 37.6249 72.6497 37.6024C72.4831 37.6275 72.3128 37.6067 72.157 37.5423C69.9699 37.5423 67.7828 37.2794 65.5883 37.3394C62.4776 37.4349 59.3809 37.7993 56.3323 38.4287C52.9274 39.1225 49.577 40.0639 46.3075 41.2457C44.4414 41.9293 42.5753 42.6429 40.7166 43.3415C40.1493 43.2063 40.4554 42.8157 40.53 42.5903C40.8581 41.4779 41.2596 40.3888 41.7318 39.3301C42.1946 38.2033 42.6275 37.0765 43.1202 35.9572C43.2143 35.6227 43.4165 35.3293 43.695 35.1234Z" fill="#EF6256"/>
<path d="M82.1367 31.5251C83.2414 31.6603 84.3312 31.8106 85.4434 31.8857C86.5556 31.9608 87.6828 32.1636 88.8248 32.3364C89.3996 32.4265 89.9893 32.4416 90.5715 32.5092C92.6392 32.7571 94.6695 33.2604 96.7297 33.5233C98.663 33.7787 100.544 34.2745 102.447 34.6351C103.282 34.8467 104.13 35.0023 104.985 35.1008C105.054 35.1723 105.093 35.2679 105.093 35.3675C105.093 35.467 105.054 35.5627 104.985 35.6342C103.533 37.7033 101.957 39.6826 100.268 41.5611C99.1264 41.4471 97.994 41.2538 96.879 40.9827C94.4232 40.562 91.9749 40.1188 89.519 39.6982C87.8619 39.4202 86.2123 39.1348 84.5477 38.8944C83.0548 38.669 81.4947 38.5038 79.9645 38.3084C79.6062 38.1657 79.6361 37.8727 79.7331 37.5572C80.3825 35.6417 81.1215 33.7487 81.8082 31.8406C81.8679 31.6678 82.0247 31.5852 82.1591 31.4875L82.1367 31.5251Z" fill="#EF6256"/>
<path d="M56.7653 79.0009C52.8162 78.9596 48.9614 80.2149 45.785 82.5766C44.4708 83.5618 43.3475 84.7815 42.4708 86.1749C42.3769 86.3672 42.2453 86.5384 42.0841 86.6783C41.9229 86.8182 41.7352 86.924 41.5324 86.9892C41.3296 87.0544 41.1158 87.0778 40.9038 87.0579C40.6918 87.038 40.486 86.9753 40.2986 86.8735C40.0836 86.7976 39.8887 86.6732 39.7289 86.5098C39.569 86.3464 39.4485 86.1484 39.3764 85.9308C39.3044 85.7133 39.2827 85.4821 39.3132 85.2548C39.3437 85.0276 39.4254 84.8104 39.5522 84.6199C40.2569 83.4193 41.1348 82.3307 42.1573 81.3897C45.0769 78.8044 48.6202 77.0363 52.4323 76.2624C56.2445 75.4885 60.1917 75.736 63.8789 76.9802C67.3948 78.181 70.3285 80.6771 72.0898 83.9663C72.231 84.2046 72.3485 84.4562 72.4407 84.7175C72.5461 85.12 72.5009 85.5474 72.3138 85.9186C72.1266 86.2897 71.8105 86.5787 71.4255 86.7307C71.2569 86.8234 71.0711 86.8801 70.8798 86.8972C70.6884 86.9143 70.4956 86.8914 70.3135 86.8301C70.1313 86.7687 69.9636 86.6702 69.8211 86.5406C69.6785 86.4111 69.564 86.2533 69.4848 86.0772C66.9394 81.1719 62.6846 79.2263 57.4371 78.9709L56.7653 79.0009Z" fill="#32312F"/>
<path d="M40.2988 49.0205C40.3884 49.2384 40.4854 49.1407 40.5974 49.0205C40.6593 48.9628 40.7338 48.9206 40.815 48.8973C40.8961 48.8739 40.9816 48.8702 41.0645 48.8863C41.1473 48.9024 41.2252 48.9379 41.2919 48.9899C41.3586 49.0419 41.4122 49.1091 41.4483 49.1858C41.6275 49.4412 41.4483 49.7267 41.2169 49.937C40.6123 50.4178 40.2615 51.1915 39.4404 51.4394C39.306 51.477 39.306 51.6723 39.2986 51.815C39.2936 52.1999 39.1489 52.5697 38.8918 52.8547C38.6347 53.1398 38.2829 53.3204 37.9027 53.3625C37.2383 53.4601 36.992 53.7381 37.0517 54.4292C37.0486 54.8563 36.8979 55.269 36.6255 55.5965C36.3531 55.9241 35.976 56.1461 35.5589 56.2246C34.8804 56.402 34.2469 56.722 33.7002 57.1636C33.3647 57.4301 32.9667 57.6053 32.5445 57.6724C32.1222 57.7394 31.69 57.6962 31.2892 57.5467C30.0725 57.096 28.9528 57.5016 27.8107 57.7119C27.3554 57.8021 26.9001 57.9899 26.4373 58.095C26.2964 58.1133 26.1612 58.1624 26.0412 58.239C25.9213 58.3156 25.8195 58.4177 25.7431 58.5382C25.3773 59.1617 25.5117 59.4923 26.2133 59.6275C26.723 59.7558 27.191 60.0146 27.5719 60.3787C28.3183 60.9872 28.8632 61.7759 29.647 62.3243C29.9755 62.5412 30.2347 62.849 30.3934 63.2107C30.8114 64.2774 30.8115 64.2774 31.9759 64.0671C32.463 64.0357 32.93 63.8599 33.3179 63.5618C33.7058 63.2636 33.9973 62.8566 34.1555 62.3919C34.6153 61.3834 35.4286 60.5809 36.4397 60.1383C37.4399 59.8679 37.6191 60.0331 37.5444 61.19C37.542 61.2454 37.5267 61.2994 37.4996 61.3477C35.7753 63.1281 34.3645 65.2314 32.1998 66.546C31.0055 67.2972 28.393 66.546 27.2733 65.2615C26.4597 64.3225 25.7804 63.2483 24.9668 62.3393C24.4666 61.7384 24.2203 60.8369 23.1156 61.0623C22.9218 61.1188 22.7249 61.1639 22.5259 61.1975C21.869 61.3402 21.7048 60.8369 21.5331 60.3937C21.4975 60.2631 21.4349 60.1415 21.3494 60.037C21.2639 59.9324 21.1574 59.8472 21.0369 59.7869C20.9164 59.7266 20.7846 59.6926 20.6502 59.6872C20.5157 59.6817 20.3816 59.7049 20.2567 59.7552C18.3756 60.236 18.1592 59.4171 18.0173 57.8547C20.1223 57.1861 21.981 55.8339 24.2427 55.6011C26.2543 55.3049 28.2303 54.8015 30.1396 54.0987C30.4758 53.9473 30.8389 53.8656 31.2071 53.8583C31.7072 53.9334 31.5355 54.3691 31.6251 54.6621C31.7147 54.955 31.543 55.4884 32.1252 55.4133C32.397 55.3531 32.6402 55.201 32.814 54.9823C32.9879 54.7635 33.082 54.4914 33.0806 54.2113C33.0284 53.9634 32.8269 53.7681 32.8343 53.4977C32.8685 53.3787 32.9457 53.2768 33.0508 53.2122C35.4803 52.2385 37.758 50.9178 39.8136 49.291C39.9554 49.1858 40.0749 49.013 40.2988 49.0205Z" fill="#DFD7D4"/>
<path d="M85.5114 51.4472C85.9593 51.1767 85.9817 51.1317 85.5637 50.8988C85.1456 50.6659 85.2576 50.6058 85.5637 50.4781C86.0932 50.3137 86.5854 50.0456 87.0118 49.6894C87.1082 49.5845 87.2372 49.5156 87.3775 49.4941C88.2285 49.4941 89.0645 49.1034 89.9304 49.3438C90.1487 49.3899 90.3717 49.41 90.5947 49.4039C90.7963 49.4039 91.0351 49.4039 91.1396 49.5692C91.4531 50.1326 92.1249 50.1626 92.5504 50.5608C92.7033 50.6858 92.8912 50.7593 93.0879 50.7711C93.8806 50.8591 94.6556 51.0667 95.3869 51.3871C95.5177 51.4374 95.6579 51.4579 95.7975 51.4472C96.3867 51.3932 96.9747 51.5619 97.4471 51.9204C97.874 52.1518 98.3685 52.2237 98.843 52.1233C99.3282 52.1233 99.7984 52.1233 100.022 52.6716C100.106 52.8218 100.246 52.9325 100.411 52.9796C100.867 53.1657 101.272 53.4604 101.59 53.8385C101.909 54.2166 102.132 54.6669 102.239 55.1506C102.508 55.9544 102.807 57.0361 101.821 57.7723C101.541 58.0179 101.352 58.3514 101.284 58.7188C101.216 58.964 101.087 59.1878 100.909 59.3691C100.732 59.5504 100.511 59.6834 100.269 59.7554C100.022 59.8456 99.8357 59.9958 99.6118 60.0935C99.4653 60.1479 99.3436 60.2543 99.2694 60.3925C99.1952 60.5308 99.1736 60.6916 99.2087 60.8447C99.2312 60.9588 99.2312 61.0762 99.2087 61.1902C99.148 61.3049 99.1148 61.4322 99.1117 61.5621C99.1085 61.692 99.1356 61.8208 99.1907 61.9383C99.2458 62.0558 99.3274 62.1587 99.429 62.2388C99.5307 62.3189 99.6495 62.374 99.776 62.3997C100.239 62.5875 100.336 63.211 100.664 63.6016C100.959 63.9807 101.321 64.3016 101.732 64.5481C101.859 64.6157 102.015 64.6758 101.993 64.8336C101.971 64.9913 101.821 64.9763 101.717 64.9988C100.708 65.3311 99.6149 65.2992 98.6265 64.9087C97.8488 64.5208 96.9854 64.3398 96.1184 64.3828C95.4392 64.3828 95.3272 64.18 95.6482 63.5715C95.7899 63.2478 96.0375 62.9827 96.3498 62.8203C96.5721 62.6973 96.7616 62.5221 96.9022 62.3095C97.1261 62.0015 96.9918 61.5583 96.6484 61.1677C96.305 60.7771 96.1856 61.1677 96.0289 61.2954C95.372 61.7536 94.8121 62.4447 93.8492 62.0466C93.7522 62.0466 93.4984 62.1593 93.4312 62.287C93.0923 62.7247 92.8689 63.2415 92.7818 63.7894C92.7818 64.1199 92.8266 64.3378 93.2222 64.3378C93.3869 64.3682 93.5473 64.4186 93.6999 64.488C93.8567 64.5331 94.0806 64.5631 94.0134 64.766C93.964 64.8323 93.8997 64.8859 93.8258 64.9225C93.7518 64.959 93.6703 64.9775 93.588 64.9763C93.313 64.9582 93.0418 64.9026 92.7818 64.811C92.4265 64.6789 92.0485 64.6202 91.6702 64.6382C91.2918 64.6563 90.921 64.7508 90.5798 64.9162C90.3708 65.0289 90.0797 65.104 89.9752 64.9162C89.8707 64.7284 89.6617 64.4805 89.8109 64.2101C89.9602 63.9396 89.9901 63.6692 90.2439 63.5039C90.9903 63.6467 91.4083 63.4589 91.5128 62.7152C91.5692 62.2914 91.7499 61.8942 92.0318 61.5744C92.3137 61.2546 92.684 61.0266 93.0953 60.9198C93.6035 60.7601 94.0771 60.5053 94.4912 60.1686C94.6364 60.0549 94.8042 59.9739 94.9832 59.9311C95.1622 59.8884 95.3482 59.8848 95.5287 59.9207C95.824 59.9558 96.1227 59.8934 96.3798 59.7431C96.6369 59.5927 96.8385 59.3624 96.9545 59.0869C97.2021 58.6232 97.5723 58.2375 98.0241 57.9724C98.476 57.7072 98.9918 57.573 99.5148 57.5845C100.155 57.406 100.712 57.0072 101.09 56.4577C101.224 55.9919 100.396 55.1581 99.7238 55.2482C99.4056 55.355 99.0609 55.3508 98.7454 55.2363C98.4299 55.1218 98.1619 54.9037 97.9846 54.6172C97.9608 54.5817 97.9285 54.5527 97.8906 54.533C97.8528 54.5133 97.8107 54.5036 97.7681 54.5046C96.3871 54.7449 95.4168 53.5731 94.118 53.4379C93.6402 53.3928 93.1177 53.7759 92.6624 53.3477C92.6624 53.3477 92.6624 53.4754 92.7146 53.5355C92.7743 53.7759 92.9162 54.0388 92.528 54.1515C90.8222 53.8016 89.151 53.2988 87.5343 52.6491C87.0342 52.4688 86.5564 52.2284 86.0414 52.0031C85.8473 51.8678 85.504 51.8378 85.5114 51.4472Z" fill="#DFD7D4"/>
<path d="M74.2098 64.9008C74.2112 64.8327 74.1955 64.7654 74.1642 64.705C74.1329 64.6446 74.0869 64.5931 74.0307 64.5553C73.9109 64.4517 73.8158 64.3222 73.7524 64.1766C73.6891 64.0309 73.6592 63.8728 73.6649 63.7139C73.5168 63.2121 73.4488 62.6898 73.4633 62.1665C73.4773 61.8388 73.5856 61.5223 73.7751 61.2556C73.9646 60.9888 74.2272 60.7833 74.5308 60.6641C75.8445 60.4763 76.0237 60.5664 76.3297 61.5505C77.1583 62.6547 77.7181 63.9543 78.696 64.9609C79.4462 65.7852 80.4611 66.3172 81.5623 66.4633C82.0952 66.5378 82.6381 66.4818 83.1449 66.3C83.6517 66.1182 84.1075 65.8161 84.4735 65.4192C85.4688 64.4811 86.2353 63.3242 86.7128 62.0388C86.8259 61.6763 87.0283 61.3485 87.301 61.0858C87.5738 60.8232 87.9081 60.6342 88.2729 60.5364C88.4845 60.405 88.7356 60.3533 88.9815 60.3904C89.2275 60.4275 89.4524 60.5511 89.6165 60.7392C89.7807 61.4351 89.9953 62.118 90.2584 62.7825C90.2659 62.8419 90.2604 62.9022 90.2423 62.9593C90.2243 63.0164 90.1941 63.0688 90.1539 63.113C89.6026 64.3828 88.9089 65.585 88.0863 66.6962C87.026 68.096 85.5723 69.1429 83.9136 69.701C81.1592 70.5574 78.7706 69.8287 76.6432 67.9732C75.6855 67.0759 74.8655 66.0405 74.2098 64.9008Z" fill="#32312F"/>
<path d="M85.5112 51.4471C87.7835 52.5404 90.1591 53.4011 92.6025 54.0162C93.7564 54.119 94.8873 54.4029 95.954 54.8575C96.0212 54.9026 96.1182 54.9552 96.1182 55.0228C96.1182 55.7364 96.3645 54.9627 96.4616 55.0679C97.4572 55.0582 98.4207 55.4224 99.1637 56.0895C99.1993 56.1832 99.2062 56.2855 99.1836 56.3832C99.161 56.4809 99.1099 56.5696 99.0368 56.6379C98.5143 56.9233 97.9843 56.6379 97.4618 56.6379C94.6402 56.7731 91.8411 56.3148 89.027 56.2698C88.845 56.2915 88.6604 56.2664 88.4907 56.1968C88.321 56.1271 88.1716 56.0153 88.0566 55.8716C86.6367 55.3369 85.189 54.8805 83.7197 54.5045C81.7749 53.9393 79.9255 53.0834 78.2333 51.9654C77.2874 51.2576 76.4389 50.4265 75.7103 49.494C75.2652 48.9827 74.9592 48.3642 74.8221 47.6986C74.7325 46.9474 75.0236 46.6544 75.7775 46.7821C76.4139 46.9053 77.0264 47.1311 77.5914 47.4507L83.339 50.4555C83.5854 50.5907 83.8541 50.6808 84.0855 50.7935C84.6192 50.8371 85.1197 51.0716 85.4963 51.4546L85.5112 51.4471Z" fill="#5A4941"/>
<path d="M22.6078 61.0097C22.772 61.0097 22.8615 60.7844 23.0482 60.8144C23.705 60.9045 24.2873 61.0773 24.5411 61.8135C24.6157 62.0389 24.9218 62.0238 25.086 62.1816C25.4599 62.433 25.7632 62.7771 25.9668 63.1807C26.4135 63.8625 26.9127 64.508 27.4597 65.1113C27.9571 65.774 28.6801 66.2287 29.49 66.3883C29.9006 66.4709 30.3186 66.531 30.7366 66.5986C31.0393 66.6419 31.3476 66.6243 31.6436 66.547C31.9395 66.4696 32.2173 66.334 32.4609 66.1479C33.4165 65.4985 34.2653 64.7026 34.9764 63.7892C35.7603 62.8613 36.6057 61.9879 37.5068 61.175C37.9696 60.4238 38.3727 60.4238 38.94 61.175C39.1376 61.4842 39.253 61.8393 39.2752 62.2062C39.2975 62.5732 39.2257 62.9397 39.0669 63.2708C37.7383 66.8691 35.3347 69.1903 31.498 69.9189C30.6372 70.0863 29.7504 70.0627 28.8996 69.85C28.0488 69.6372 27.2542 69.2403 26.5714 68.687C24.9983 67.4268 23.7469 65.8069 22.9213 63.9619L22.5481 63.2107C21.8016 62.3393 21.824 61.7309 22.6078 61.0097Z" fill="#31302E"/>
<path d="M38.9177 61.175C38.1712 60.6566 38.1712 60.6566 37.4845 61.175C37.3352 61.1149 37.2904 61.0322 37.3278 60.8519C37.4547 60.1759 37.3278 60.1007 36.6709 60.266C36.59 60.2859 36.5076 60.2984 36.4246 60.3036C36.2041 60.0887 35.9524 59.9088 35.6781 59.7702C35.4376 59.6863 35.2233 59.54 35.0569 59.3461C34.8905 59.1522 34.7777 58.9176 34.7301 58.666C34.648 58.2303 34.3718 58.065 33.9837 58.2828C33.0754 58.6924 32.0618 58.8028 31.0875 58.5983C30.1245 58.5007 29.7364 59.4096 28.9974 59.6801C28.8705 59.7252 28.9601 59.928 29.0347 60.0557C29.8477 61.5688 30.8513 62.9701 32.0205 64.2248C31.5951 64.5103 31.0651 64.3826 30.6023 64.5479C30.5682 64.5597 30.5314 64.5609 30.4967 64.5514C30.4619 64.5419 30.4309 64.522 30.4075 64.4944C30.3841 64.4669 30.3695 64.4328 30.3657 64.3968C30.3618 64.3608 30.3688 64.3244 30.3858 64.2924C30.4903 64.037 30.229 63.8718 30.2365 63.6689C30.2365 62.9177 29.7513 62.6098 29.199 62.3543C29.0615 62.2917 28.9383 62.2014 28.8369 62.089C28.7355 61.9766 28.658 61.8445 28.6093 61.7008C28.4898 61.3853 28.3405 61.0022 27.8628 61.1149C27.6314 61.1599 27.6016 60.9196 27.5418 60.7843C27.3941 60.4628 27.1514 60.1951 26.8468 60.0176C26.5422 59.8401 26.1905 59.7616 25.8399 59.7928C25.6737 59.7959 25.5079 59.7757 25.3473 59.7327C25.1905 59.665 25.0338 59.5073 25.1756 59.3345C25.3551 59.0851 25.4542 58.7861 25.4592 58.4782C25.504 58.1476 25.7578 57.9824 26.1087 57.9072C26.7282 57.7871 27.3478 57.4716 27.9375 57.4039C29.0123 57.2838 30.0648 56.7955 31.2517 57.2913C31.7003 57.5009 32.206 57.5519 32.687 57.436C33.168 57.3201 33.596 57.0441 33.9016 56.6527C34.2627 56.2879 34.7487 56.0757 35.2601 56.0593C35.5494 56.0126 35.8262 55.9073 36.0738 55.7497C36.3215 55.5922 36.5347 55.3857 36.7007 55.1428C36.8013 55.0276 36.869 54.8872 36.8966 54.7364C36.9242 54.5856 36.9106 54.4301 36.8575 54.2865C36.6485 53.6404 36.9769 53.1371 37.5592 53.1672C38.4624 53.2198 38.858 52.6864 39.1566 51.9728C39.1566 51.8976 39.2611 51.8526 39.3133 51.7925C39.4362 51.9197 39.5323 52.0706 39.596 52.236C39.6597 52.4015 39.6896 52.5782 39.6841 52.7555C39.6785 52.9328 39.6375 53.1072 39.5636 53.2683C39.4896 53.4294 39.3842 53.5738 39.2536 53.693C38.9373 53.9289 38.597 54.1303 38.2384 54.294C38.0942 54.3778 37.9569 54.4733 37.8279 54.5794C37.7159 54.6621 37.6039 54.7823 37.701 54.9325C37.736 54.9781 37.7848 55.0109 37.8401 55.0258C37.8954 55.0408 37.9541 55.037 38.007 55.0151C38.1698 54.9793 38.3277 54.9238 38.4773 54.8499C39.4253 54.3541 40.0523 54.3541 40.7614 55.0602C41.4422 55.7276 42.2138 56.2941 43.053 56.7429C43.2418 56.8421 43.3904 57.0042 43.4735 57.2016C43.5566 57.3989 43.5689 57.6191 43.5083 57.8246C43.5083 57.9373 43.3815 58.0425 43.3964 58.1401C43.6203 59.2895 43.0232 60.1984 42.538 61.1449C42.4088 61.332 42.3575 61.5626 42.3952 61.7872C42.4328 62.0119 42.5564 62.2128 42.7395 62.3468C42.9878 62.6087 43.2149 62.89 43.4188 63.1882C43.5606 63.361 43.5382 63.4812 43.3292 63.5788C43.1202 63.6765 42.8067 63.7891 42.8291 63.6614C42.9112 63.1882 42.5678 63.1356 42.314 63.0455C41.9796 62.89 41.6894 62.6523 41.4702 62.3543C41.2511 62.0563 41.11 61.7075 41.06 61.3402C41.0234 60.8142 41.0998 60.2864 41.2839 59.7928C41.3884 59.4148 41.5155 59.0435 41.6646 58.681C41.8064 58.2753 41.6646 58.0349 41.2914 57.9298C41.1345 57.9003 40.9731 57.9055 40.8184 57.9452C40.6638 57.985 40.5196 58.0581 40.3959 58.1597C40.2723 58.2613 40.1721 58.3888 40.1024 58.5333C40.0328 58.6778 39.9953 58.8359 39.9926 58.9965C39.9926 59.5599 40.2165 60.0932 40.2016 60.6641C40.2016 60.8895 40.4479 61.1449 40.2016 61.3553C39.9553 61.5656 39.6044 61.3553 39.3208 61.2801C39.1931 61.2229 39.0569 61.1873 38.9177 61.175Z" fill="#DFD7D4"/>
<path d="M95.9983 55.0604C94.886 54.6547 93.6992 54.4819 92.6019 54.0162C92.8483 53.8209 92.4452 53.7157 92.5273 53.4979C92.6094 53.28 92.1615 53.1373 92.3108 53.0171C92.4601 52.8969 92.684 53.1824 92.8781 53.2725C93.0722 53.3627 93.2812 53.573 93.3334 53.1448C93.3369 53.1161 93.3481 53.0888 93.366 53.0661C93.3838 53.0433 93.4075 53.0259 93.4345 53.0158C93.4615 53.0057 93.4907 53.0033 93.5189 53.0089C93.5472 53.0144 93.5734 53.0276 93.5947 53.0472C93.9666 53.2464 94.3761 53.3641 94.7965 53.3927C95.0824 53.4119 95.3617 53.4881 95.618 53.6171C95.8744 53.7461 96.1026 53.9252 96.2894 54.1439C96.4312 54.3317 96.8716 54.3017 97.1926 54.2491C97.3236 54.2002 97.4633 54.179 97.6028 54.187C97.7424 54.1949 97.8788 54.2318 98.0035 54.2953C98.1283 54.3587 98.2386 54.4475 98.3277 54.5558C98.4168 54.6642 98.4827 54.79 98.5213 54.9252C98.6481 55.158 98.7676 55.2407 98.9691 55.1355C99.1707 55.0303 99.4692 55.0679 99.7156 55.0003C99.9619 54.9327 100.089 54.8951 100.231 55.0904C100.412 55.2704 100.628 55.411 100.865 55.5036C101.612 55.9468 101.612 56.4952 100.932 57.006C100.813 57.0886 100.656 57.1487 100.604 57.2614C100.275 58.0126 99.6932 57.8473 99.1109 57.7722C98.9318 57.7722 98.6482 57.6821 98.5959 57.9225C98.5213 58.2981 98.2077 58.3056 97.9838 58.3506C97.8031 58.4098 97.64 58.5137 97.5096 58.6529C97.3792 58.792 97.2856 58.9619 97.2374 59.1469C97.1899 59.3311 97.1062 59.5039 96.9914 59.6551C96.8766 59.8063 96.7329 59.9329 96.5688 60.0273C96.4046 60.1218 96.2234 60.1823 96.0357 60.2053C95.848 60.2282 95.6576 60.2132 95.4757 60.161C95.282 60.1131 95.0783 60.1255 94.8917 60.1966C94.7051 60.2677 94.5444 60.3941 94.4307 60.5592C94.3454 60.6828 94.2345 60.7865 94.1057 60.863C93.9768 60.9395 93.8331 60.987 93.6843 61.0024C93.22 61.1152 92.7817 61.3167 92.3929 61.5958C92.2157 61.6888 92.07 61.8328 91.9743 62.0093C91.8786 62.1859 91.8373 62.3871 91.8555 62.5874C91.9227 63.2935 91.4076 63.609 90.9896 63.9396C90.5716 64.2701 90.4895 63.7893 90.3178 63.5565C90.3178 63.3762 90.3924 63.1658 90.1685 63.0531V62.7226C90.4074 61.9714 89.9446 61.4306 89.6087 60.8521C89.2202 60.5626 88.7387 60.4287 88.2576 60.4765C88.2576 60.3789 88.489 60.2361 88.2576 60.1836C88.1904 60.1836 88.1158 60.2662 88.0336 60.2812C87.8097 60.3338 87.5634 60.6718 87.3842 60.3864C87.2947 60.2437 87.6455 60.176 87.8246 60.1084C87.862 60.1084 87.9142 59.9958 87.8993 59.9807C87.4813 59.4925 87.8545 58.9065 87.6679 58.3356C87.4858 57.6943 87.1646 57.1016 86.7274 56.6003C86.6726 56.5553 86.6341 56.4934 86.6179 56.4241C86.6017 56.3548 86.6087 56.2821 86.6378 56.2172C86.655 56.1785 86.6802 56.1439 86.7117 56.1157C86.7431 56.0875 86.7802 56.0663 86.8204 56.0535C86.8606 56.0407 86.903 56.0367 86.9449 56.0416C86.9867 56.0465 87.0271 56.0603 87.0633 56.082C87.2383 56.1585 87.4317 56.1822 87.6198 56.1501C87.808 56.1181 87.9829 56.0318 88.1232 55.9017C88.8215 56.0542 89.5384 56.1023 90.2506 56.0445C91.3404 56.0895 92.4228 56.2398 93.5051 56.3149C94.5875 56.39 95.6325 56.36 96.6999 56.3825C97.5061 56.3825 98.3122 56.4952 99.1184 56.5553C99.3423 56.3975 99.3349 56.2398 99.1184 56.082C98.2611 55.6646 97.3524 55.364 96.4163 55.1881C96.2729 55.1601 96.1328 55.1173 95.9983 55.0604Z" fill="#DFD7D4"/>
<path d="M22.608 61.0098C22.0333 61.7159 22.2497 62.4596 22.5259 63.2033C22.4289 63.5414 22.0855 63.2484 21.8989 63.4512C21.8243 63.5263 21.4585 63.7667 21.3241 63.331C21.2644 63.1582 21.1002 63.2634 20.9658 63.331C20.6207 63.5106 20.3545 63.8132 20.2194 64.1799C19.7605 65.0676 19.0081 65.7664 18.092 66.1555C17.5695 66.3884 17.0171 66.3659 16.517 66.5987C16.4638 66.6171 16.406 66.6171 16.3528 66.5987C15.4933 66.3674 14.6818 65.9832 13.9567 65.4644C13.7133 65.2321 13.521 64.9509 13.3924 64.639C13.2639 64.3271 13.2018 63.9916 13.2102 63.654C12.9639 61.4004 13.0908 59.1994 13.061 56.9759C13.061 56.2247 13.061 56.2247 13.8074 56.2247C14.1657 56.2247 14.5091 56.2247 14.4419 55.7139C14.5456 55.6083 14.6705 55.5263 14.8082 55.4732C14.946 55.4201 15.0934 55.3971 15.2406 55.4059C15.7407 55.4735 15.987 55.6462 15.6362 56.1571C15.3694 56.5902 15.1444 57.048 14.9644 57.5243C14.7927 57.99 14.9644 58.2754 15.457 58.3881C15.7739 58.4879 16.1147 58.4785 16.4256 58.3615C16.7365 58.2445 16.9998 58.0265 17.1739 57.7421C17.2803 57.6975 17.3945 57.6745 17.5098 57.6745C17.6251 57.6745 17.7393 57.6975 17.8457 57.7421C17.9169 57.7731 17.9805 57.8192 18.0323 57.8773C18.1517 58.2604 18.5697 58.4858 18.4428 59.0492C18.3383 59.4699 19.1893 59.8004 19.7491 59.6652C19.9656 59.6051 20.1672 59.4924 20.3836 59.4548C20.9285 59.3797 21.5779 59.4098 21.7347 60.206C21.7347 60.3337 21.8541 60.4614 21.884 60.5891C21.9586 61.0699 22.2721 61.0624 22.608 61.0098Z" fill="#DFD7D4"/>
<path d="M100.239 41.5614C100.425 41.0923 100.71 40.6694 101.075 40.3219C102.433 38.7219 103.657 37.0091 104.941 35.349C104.986 35.2889 104.941 35.1837 104.986 35.1011H105.158C106.06 35.4923 107.004 35.7772 107.972 35.9499C109.345 36.3556 110.756 36.6335 112.1 37.1443C111.835 37.7936 111.478 38.4009 111.04 38.9472C110.29 40.0995 109.483 41.2127 108.621 42.2825C108.502 42.4328 108.464 42.6506 108.352 42.8084C108.128 43.0938 108.509 43.0938 108.546 43.2516C106.986 42.9586 105.426 42.6657 103.866 42.3577C102.881 42.1699 101.903 41.967 100.88 41.7642C100.847 41.7948 100.808 41.8179 100.766 41.832C100.723 41.846 100.678 41.8507 100.633 41.8457C100.589 41.8408 100.546 41.8262 100.507 41.8031C100.469 41.7799 100.436 41.7488 100.41 41.7116L100.239 41.5614Z" fill="#F48676"/>
<path d="M43.6947 35.1233C42.5974 37.6699 41.4553 40.2014 40.6268 42.8456C40.5671 43.0259 40.3954 43.1987 40.679 43.3339L37.4245 44.8363C36.7478 45.4233 35.9289 45.8198 35.0508 45.9856C34.9617 45.9713 34.8814 45.9228 34.8269 45.8504C34.6253 45.4898 34.7895 45.1443 34.8717 44.7912C35.4614 42.5376 36.1481 40.3892 36.8871 38.2182C36.9545 37.8258 37.1487 37.4667 37.4394 37.1966C37.6037 37.1365 37.6037 36.9938 37.6111 36.8586C38.3534 36.7592 39.079 36.5596 39.7684 36.2651C40.8656 35.9646 41.948 35.589 43.0303 35.2285C43.247 35.1675 43.4699 35.1322 43.6947 35.1233Z" fill="#F48676"/>
<path d="M82.1301 31.5253C81.3986 33.5285 80.6695 35.5317 79.943 37.5349C79.8609 37.7753 79.6668 38.0457 79.943 38.2861C78.8233 38.226 77.7037 38.0232 76.6138 37.9331C75.524 37.8429 74.2252 37.6626 73.016 37.6251C72.7174 37.6251 72.3964 37.7227 72.1277 37.4823C72.6054 37.3997 73.1876 37.6626 73.5235 37.3772C73.8594 37.0917 73.9266 36.5358 74.0983 36.1001L75.6883 31.8408C75.7036 31.7287 75.7036 31.6149 75.6883 31.5028C75.8525 31.4427 75.8525 31.3 75.8599 31.1572C76.1431 31.2484 76.4365 31.3039 76.7333 31.3225C78.5471 31.2399 80.3311 31.6155 82.1301 31.5253Z" fill="#F48676"/>
<path d="M40.2988 49.0203C39.985 49.4963 39.556 49.8841 39.0522 50.1471C38.455 50.5227 37.8952 50.9434 37.3055 51.319C36.0215 52.2606 34.5732 52.9511 33.0358 53.3547C32.4611 53.2646 32.6253 52.8364 32.6701 52.5059C32.8027 51.9883 32.8281 51.4488 32.7447 50.9209C32.6925 50.7331 32.8791 50.2298 32.3043 50.6429C31.8863 50.9359 31.737 50.5528 31.8565 50.1321C32.4316 49.4683 33.1285 48.9225 33.9092 48.5245C34.7154 48.0663 35.5066 47.5705 36.3128 47.1048C36.992 46.7893 37.5295 46.1883 38.2983 46.0456C38.985 45.6549 39.6568 45.2568 40.351 44.8887C40.739 44.6622 41.1525 44.4831 41.5827 44.3554C42.4859 44.1075 42.8666 44.5056 42.6576 45.4371C42.6062 45.6561 42.5285 45.868 42.4262 46.0681C42.0137 46.9364 41.4557 47.7267 40.7765 48.4043C40.6197 48.5546 40.2988 48.6898 40.2988 49.0203Z" fill="#594840"/>
<path d="M15.2399 55.5333C14.9488 55.5333 14.7025 55.7737 14.3965 55.7136C12.9633 55.0601 11.5674 54.3239 10.0745 53.8131C9.06987 53.4716 8.12887 52.9639 7.29028 52.3107C8.09645 50.9059 9.02203 49.5688 9.75355 48.1265C9.75355 48.0739 9.91031 48.0814 9.99242 48.0664C10.6193 48.6387 11.305 49.1424 12.0377 49.5688C12.4184 49.8618 12.6348 50.4102 13.2096 50.4402C13.2992 50.305 13.3962 50.1698 13.5978 50.2073C13.884 50.3146 14.1786 50.3975 14.4786 50.4552C14.7707 50.435 15.0623 50.5017 15.3171 50.647C15.5718 50.7923 15.7785 51.0098 15.9114 51.2724C16.0442 51.535 16.0974 51.8312 16.0643 52.124C16.0312 52.4168 15.9132 52.6933 15.7251 52.9192C15.3889 53.4291 15.1837 54.015 15.128 54.6244C15.1056 54.8714 15.1632 55.1191 15.2922 55.3305C15.3005 55.366 15.3 55.4031 15.2909 55.4384C15.2818 55.4737 15.2643 55.5063 15.2399 55.5333Z" fill="#EF6256"/>
<path d="M108.89 65.2315C108.143 65.3892 107.397 64.9911 106.65 65.0662C106.58 65.0676 106.51 65.0535 106.446 65.0249C106.381 64.9964 106.324 64.9541 106.277 64.9009C105.964 64.6391 105.59 64.4634 105.189 64.391C104.789 64.3186 104.377 64.3519 103.993 64.4878C103.739 64.5479 103.553 64.5779 103.396 64.3526C103.239 64.1272 103.344 63.9845 103.441 63.8042C103.642 63.4368 103.908 63.1086 104.224 62.8351L104.844 62.2567C104.898 62.2203 104.942 62.1711 104.972 62.1135C105.003 62.0558 105.019 61.9915 105.019 61.9262C105.019 61.8609 105.003 61.7966 104.972 61.7389C104.942 61.6813 104.898 61.6321 104.844 61.5957C104.261 61.0253 103.491 60.6887 102.679 60.6491C102.371 60.6535 102.065 60.6001 101.776 60.4914C101.268 60.2886 101.216 60.1684 101.44 59.6876C101.569 59.3626 101.81 59.0956 102.119 58.9364C103.152 58.3143 104.343 58.0089 105.546 58.0575C105.741 58.0532 105.934 58.1044 106.101 58.2054C106.269 58.3064 106.405 58.4531 106.494 58.6284C106.754 59.1148 107.067 59.5708 107.427 59.9881C107.573 60.1708 107.656 60.3968 107.663 60.6316C107.67 60.8663 107.6 61.0967 107.464 61.2877C107.203 61.8886 107.18 61.8811 107.725 62.2417C108.193 62.6364 108.581 63.1185 108.867 63.6615C109.233 64.1648 109.464 64.7131 110.188 64.7206C110.224 64.7176 110.26 64.7235 110.293 64.7378C110.326 64.7521 110.355 64.7744 110.377 64.8027C110.399 64.831 110.414 64.8644 110.42 64.8999C110.426 64.9354 110.424 64.9719 110.412 65.0061C110.411 65.0344 110.405 65.0622 110.393 65.0879C110.381 65.1135 110.364 65.1365 110.343 65.1555C110.322 65.1744 110.298 65.1889 110.271 65.1981C110.245 65.2073 110.217 65.211 110.188 65.2089L108.89 65.2315Z" fill="#DFD7D4"/>
<path d="M38.2981 46.0084C37.7211 46.4715 37.0953 46.8695 36.432 47.1953C36.0513 46.6695 35.1257 46.6995 35.0735 45.8431C35.8368 45.4458 36.6218 45.0922 37.4248 44.7839C37.4729 44.8853 37.5587 44.9635 37.6637 45.0018C37.8432 45.1045 37.995 45.25 38.1056 45.4255C38.2162 45.601 38.2823 45.8012 38.2981 46.0084Z" fill="#D9D1CE"/>
<path d="M100.447 41.7114L100.917 41.764C100.917 42.3731 100.335 42.2377 99.9991 42.4107C99.9095 42.4558 99.82 42.4107 99.8423 42.2227C99.8946 41.8843 100.066 41.6738 100.447 41.7114Z" fill="#F9F2EE"/>
<path d="M85.5184 51.4557C85.0148 51.316 84.538 51.0923 84.1077 50.794C84.2868 50.794 84.4212 50.5308 84.6376 50.6661C84.8541 50.8015 85.3468 50.9218 85.5931 51.2301C85.6229 51.2602 85.5408 51.373 85.5184 51.4557Z" fill="#DCD4D1"/>
<path d="M37.4401 37.1444C36.6339 39.6985 35.7681 42.2225 35.0664 44.8066C34.1313 44.9699 33.1764 44.9826 32.2374 44.8442C31.0279 44.8524 29.868 45.3285 28.9978 46.1738C28.5534 46.6498 28.2688 47.2541 28.1842 47.9016C28.0506 48.4453 27.8447 48.9683 27.5721 49.4566C27.1194 49.9904 26.4755 50.3225 25.7806 50.3805C25.1163 50.1251 25.273 50.0951 25.1237 49.419C24.8401 48.0669 24.8774 46.5194 23.4368 45.663C23.2062 45.4994 22.9271 45.4199 22.6455 45.4377C22.3923 45.4822 22.1316 45.4298 21.9148 45.2908C21.6979 45.1518 21.5406 44.9363 21.4736 44.6865C21.4652 44.6473 21.4655 44.6068 21.4746 44.5679C21.4836 44.5289 21.5011 44.4924 21.5259 44.4611C22.3063 44.0922 23.0663 43.6809 23.8025 43.2291C24.3474 42.9587 24.855 42.6207 25.3999 42.3427C26.848 41.5915 28.2887 40.8403 29.7517 40.1642C31.8127 39.1721 33.923 38.287 36.0741 37.5125C36.5145 37.3773 36.8877 36.9641 37.4401 37.1444Z" fill="#EE6255"/>
<path d="M17.1215 35.9499C17.2335 35.7095 17.4574 35.8072 17.644 35.7771C20.8239 34.8306 24.0112 33.9141 27.1687 32.9C30.5202 31.8258 33.8867 30.7967 37.2457 29.745L37.3204 29.7074C37.4472 29.6623 37.6115 29.5947 37.6861 29.7074C37.7608 29.8201 37.5742 29.8877 37.4771 29.9478L35.5289 31.2624L26.0117 37.6176C24.3844 38.7068 22.7273 39.766 21.115 40.8778C20.9497 41.0014 20.7547 41.0784 20.55 41.1009C20.3453 41.1233 20.1384 41.0904 19.9505 41.0055C18.5173 40.4496 17.0692 39.9388 15.5987 39.5031C15.539 39.3378 15.3972 39.3453 15.2554 39.3378C15.2554 38.6617 15.7704 38.2486 16.0839 37.7377C16.4847 37.1758 16.8321 36.5773 17.1215 35.9499Z" fill="#F6A997"/>
<path d="M21.5251 44.4682V44.6335C21.4356 44.949 21.1519 45.0466 20.913 45.1819C19.8945 45.7838 18.9413 46.4913 18.0691 47.2927C17.7772 47.4985 17.4703 47.6818 17.1509 47.8411C16.1079 48.3452 15.1606 49.0291 14.3518 49.8618C14.1651 50.0797 13.9412 50.3576 13.568 50.26L13.2321 50.4252C13.1137 50.1889 13.0903 49.9158 13.1667 49.6626C13.2432 49.4094 13.4136 49.1956 13.6426 49.0656C13.8292 48.9529 13.8292 48.8477 13.6426 48.6224C13.456 48.397 13.5456 48.0064 13.7845 47.7059C14.1934 47.2561 14.4857 46.7116 14.6354 46.1209C14.6467 45.9488 14.7222 45.7873 14.8468 45.6689C14.9714 45.5505 15.1358 45.4839 15.3072 45.4823C15.673 45.4823 15.5237 44.8814 15.9641 44.9715C16.117 45.0002 16.2746 44.992 16.4238 44.9476C16.573 44.9032 16.7096 44.8239 16.8225 44.7161C17.024 44.5509 17.3077 44.656 17.5689 44.641C17.8302 44.626 18.2781 44.7687 18.3602 44.2504C18.3602 44.1978 18.502 44.1377 18.5692 44.1452C19.562 44.2053 20.5921 43.8748 21.5251 44.4682Z" fill="#F27567"/>
<path d="M17.1215 35.9495C17.323 35.9495 17.4574 36.0096 17.3081 36.2424L15.2404 39.3524L10.8215 37.85L10.605 37.7448C10.6796 37.7448 10.7543 37.6772 10.8289 37.6547C12.1203 37.3166 13.4191 36.9936 14.703 36.6481C15.5241 36.4152 16.3228 36.1748 17.1215 35.9495Z" fill="#FBC3B4"/>
<path d="M71.1268 63.3692L71.1865 63.6775C70.8655 63.6775 70.5819 63.9783 70.2311 63.8504C70.134 63.8504 70.1116 63.8504 70.1489 63.512C70.1863 63.1737 70.022 63.3917 69.9549 63.3767C69.8877 63.3617 69.4846 63.4669 69.507 63.1812C69.5294 62.8955 69.7832 63.1812 69.9101 63.106C69.987 63.0318 70.0547 62.9485 70.1116 62.8579C70.1806 62.7934 70.2713 62.7576 70.3654 62.7576C70.4595 62.7576 70.5502 62.7934 70.6192 62.8579C70.9103 62.918 70.8954 63.2639 71.1268 63.3692Z" fill="#DAD2CF"/>
<path d="M70.6202 62.8578H70.1115C70.1115 62.6924 70.0218 62.4217 70.291 62.3991C70.5603 62.3766 70.6202 62.6247 70.6202 62.8578Z" fill="#DFD7D4"/>
<path d="M32.021 64.2251C31.8269 64.2251 31.5507 64.2777 31.4835 64.0748C31.3044 63.4889 30.7371 63.241 30.4534 62.8128C30.1698 62.3846 29.8488 61.9489 29.5801 61.4982C29.4746 61.3628 29.3984 61.2067 29.3562 61.04C29.3491 60.8605 29.2941 60.6862 29.1969 60.5354C29.0997 60.3847 28.9639 60.2632 28.8038 60.1836C28.3485 59.8907 28.3932 59.6953 28.9008 59.4324C29.2218 59.2597 29.5726 59.1319 29.8787 58.9366C30.3431 58.6372 30.8799 58.4709 31.4313 58.4559C31.8568 58.4559 32.2748 58.4559 32.7003 58.4559C32.8827 58.4789 33.0679 58.4649 33.2448 58.4145C33.4218 58.3642 33.5869 58.2786 33.7303 58.1629C33.9246 58.0012 34.173 57.9205 34.4245 57.9375C34.7231 57.9375 34.9247 57.9976 34.9023 58.3582C34.8425 59.1094 35.2979 59.4475 35.9398 59.6803C36.1712 59.7705 36.6863 59.778 36.425 60.3264C35.6358 60.8044 34.9625 61.4537 34.4544 62.2269C34.4096 62.2945 34.2902 62.3696 34.2976 62.4147C34.5066 63.1058 33.8348 63.241 33.5512 63.6316C33.3815 63.8701 33.1462 64.0533 32.8743 64.1587C32.6024 64.2642 32.3058 64.2873 32.021 64.2251Z" fill="#DFD7D4"/>
<path d="M31.3035 53.9782C30.3331 54.2711 29.3553 54.5115 28.4073 54.8571C26.8914 55.3604 25.3281 55.7052 23.742 55.8862C22.777 56.0489 21.8475 56.3794 20.9951 56.8628C20.0753 57.3969 19.0613 57.7464 18.0093 57.8919C17.3972 57.4487 17.3524 57.1407 17.8824 56.675C18.3004 56.3144 18.8005 56.0665 19.2185 55.6984C20.8368 54.8159 22.507 54.0332 24.2197 53.3547C26.056 52.6936 27.7803 51.7696 29.5867 51.026C29.6677 51.0073 29.7519 51.0073 29.833 51.026C29.9898 51.1086 30.1316 51.2588 30.1017 51.4241C29.8853 52.5659 30.8034 53.0692 31.3782 53.7754C31.3894 53.793 31.3965 53.813 31.3988 53.8339C31.401 53.8547 31.3984 53.8759 31.3912 53.8955C31.384 53.9152 31.3723 53.9329 31.357 53.9473C31.3418 53.9616 31.3235 53.9722 31.3035 53.9782Z" fill="#594840"/>
<path d="M31.3711 53.8436C30.9904 53.7384 30.4902 53.7609 30.6246 53.0924C30.6243 53.0574 30.6157 53.0231 30.5995 52.9922C30.5833 52.9613 30.5599 52.9348 30.5314 52.9149C30.5028 52.895 30.47 52.8823 30.4355 52.8779C30.4011 52.8735 30.3661 52.8775 30.3335 52.8895C29.8856 53.0398 29.8483 52.8895 29.8782 52.4539C29.984 52.0119 29.966 51.549 29.8259 51.1167C30.3986 50.4991 31.1715 50.1075 32.0055 50.0125C32.0055 50.1777 31.8936 50.4106 32.0055 50.4857C32.1847 50.6735 32.3713 50.4331 32.5057 50.343C32.7744 50.1552 32.8042 50.1026 32.9461 50.5082C33.1228 51.2525 33.097 52.031 32.8714 52.7618C32.8192 53.0698 32.9535 53.1525 33.073 53.3177L32.9088 53.5055C32.7261 53.7256 32.4758 53.8783 32.1974 53.9395C31.919 54.0007 31.6283 53.9669 31.3711 53.8436Z" fill="#56453D"/>
<path d="M23.2276 59.2071C23.3587 58.8676 23.4172 58.5042 23.3993 58.1404C23.3968 58.0693 23.4183 57.9994 23.4603 57.9421C23.5024 57.8848 23.5624 57.8435 23.6307 57.8249C24.1457 57.6747 23.8695 57.1113 24.1457 56.8258C24.2726 56.6981 23.6755 56.8258 23.9666 56.5854C24.2577 56.3451 23.9666 56.4352 23.9069 56.3676C23.8471 56.3 23.9442 56.2324 24.0114 56.2173L24.9668 55.9319C25.0564 55.9319 25.146 55.9319 25.1833 55.992C25.2206 56.0521 25.1833 56.1497 25.1012 56.2023C25.0191 56.2549 25.0415 56.2023 25.0265 56.2474C24.7552 56.5266 24.5849 56.8894 24.5429 57.2776C24.501 57.6658 24.5898 58.057 24.7951 58.3883C25.0937 58.9367 24.8548 59.3198 24.2129 59.4851C24.0487 59.5301 23.9069 59.6353 23.7501 59.6879C23.3172 59.8531 23.1903 59.7555 23.2276 59.2071Z" fill="#DFD7D4"/>
<path d="M31.3715 53.8437L32.8644 53.5056C33.5735 54.2568 33.5362 54.7 32.7076 55.2784C32.6077 55.3765 32.4947 55.4599 32.3717 55.5263C32.1851 55.594 32.1403 56.0071 31.8492 55.7742C31.5581 55.5414 31.2968 55.4137 31.3715 55.1357C31.4685 54.7226 31.2073 54.3845 31.2969 53.9789L31.3715 53.8437Z" fill="#DFD7D4"/>
<path d="M25.064 62.1667C24.5713 62.2268 24.1907 62.1667 24.1533 61.5282C24.1533 61.2277 23.8398 61.0775 23.5636 60.9873C23.2874 60.8972 23.1531 61.0474 23.0486 60.7995C23.347 60.7133 23.666 60.7344 23.9507 60.8591C24.2354 60.9839 24.4681 61.2045 24.6087 61.4831C24.7505 61.731 25.0118 61.8888 25.064 62.1667Z" fill="#3F3A38"/>
<path d="M73.6431 63.7139C73.8133 63.9709 73.9374 64.2559 74.0096 64.556C73.5833 64.4959 73.4636 64.2327 73.6431 63.7139Z" fill="#DFD7D4"/>
<path d="M89.5792 60.8369C89.7858 60.9522 89.964 61.1126 90.1009 61.3063C90.2379 61.5 90.3299 61.722 90.3705 61.9562C90.4207 62.0894 90.4253 62.2358 90.3833 62.3719C90.3414 62.508 90.2554 62.6261 90.1391 62.7074C89.945 62.4219 89.8853 62.0463 89.5419 61.8585C89.4709 61.8085 89.4224 61.7323 89.4071 61.6465C89.3917 61.5606 89.4106 61.4721 89.4598 61.4003C89.5537 61.2284 89.5953 61.0324 89.5792 60.8369Z" fill="#403E3C"/>
<path d="M99.0518 56.0666C99.3136 56.014 99.538 56.1268 99.523 56.3824C99.508 56.6381 99.2388 56.5629 99.0518 56.5403V56.0666Z" fill="#7D6F6A"/>
<path d="M95.9993 55.0603C96.1414 55.0603 96.2686 55.0603 96.3509 55.1731C96.4332 55.2859 96.3509 55.519 96.104 55.5265C96.0025 55.5438 95.8989 55.5438 95.7974 55.5265C95.7974 55.316 95.9993 55.4513 96.0666 55.3686C96.134 55.2859 96.0292 55.1505 95.9993 55.0603Z" fill="#8C817A"/>
<path d="M19.2783 55.8717C19.0095 56.2849 18.5318 56.4201 18.1735 56.698C17.4868 57.2013 17.4719 57.2464 17.9944 57.9C17.8734 57.9249 17.7487 57.9245 17.6279 57.8986C17.5072 57.8728 17.3931 57.8221 17.2927 57.7497C16.9792 57.4868 17.0464 56.9534 16.5463 56.7807C16.2775 56.683 16.4119 56.3825 16.5463 56.3149C17.5092 55.8867 17.0986 55.2332 16.8672 54.5947C16.9094 54.4907 16.9743 54.3976 17.0569 54.3222C17.1396 54.2468 17.238 54.1911 17.345 54.159C18.4124 53.7533 19.3828 53.1449 20.4203 52.6566C20.9545 52.3458 21.5377 52.1299 22.1446 52.0181C22.5552 52.1007 22.8537 52.0857 22.7492 52.7693C22.6074 53.7158 22.7492 53.7233 21.8087 53.8735C21.1045 53.9245 20.422 54.1406 19.8157 54.5045C19.575 54.6263 19.3871 54.8329 19.288 55.085C19.1889 55.3372 19.1854 55.6172 19.2783 55.8717Z" fill="#DFD7D4"/>
<path d="M16.9426 54.6545C17.1326 54.7856 17.2859 54.9635 17.3879 55.1714C17.4899 55.3792 17.537 55.61 17.5248 55.8414C17.5275 55.8911 17.5192 55.9408 17.5006 55.9869C17.4819 56.033 17.4534 56.0744 17.417 56.1081C17.3807 56.1418 17.3374 56.1671 17.2902 56.182C17.243 56.1969 17.1931 56.2012 17.1441 56.1945C17.0464 56.189 16.9487 56.2081 16.8601 56.2501C16.7715 56.292 16.6947 56.3555 16.6366 56.4349C16.5694 56.51 16.4425 56.6452 16.6366 56.6678C17.3158 56.7429 17.3084 57.2312 17.3084 57.7269C17.2113 57.8246 17.0322 57.9147 17.0322 58.0124C17.0322 58.7636 16.5843 58.7636 16.0319 58.5908C15.8362 58.5647 15.6379 58.5647 15.4422 58.5908C14.748 58.5908 14.5166 58.2302 14.6958 57.5617C14.7855 57.213 14.957 56.891 15.1959 56.6227C15.4049 56.3823 15.1586 55.9316 15.6289 55.8715C15.7707 55.8715 15.7483 55.7513 15.293 55.5635C15.3019 55.5151 15.3143 55.4674 15.3303 55.4208C15.3851 55.31 15.4707 55.2177 15.5768 55.155C15.6828 55.0923 15.8046 55.062 15.9274 55.0677C16.1439 54.9926 16.5395 55.556 16.5992 54.8799C16.659 54.7146 16.7336 54.6545 16.9426 54.6545Z" fill="#DFD7D4"/>
<path d="M21.5115 61.9339C21.6312 62.0392 21.8332 62.1219 21.7733 62.3099C21.7135 62.4979 21.519 62.5956 21.5115 62.8137C21.5115 62.8588 21.4517 62.8964 21.4218 62.934C21.3973 62.8858 21.3773 62.8354 21.3619 62.7836C21.2796 62.543 21.5564 62.3174 21.3619 62.0317C21.3544 62.0016 21.3844 61.9038 21.5115 61.9339Z" fill="#DFD7D4"/>
<path d="M27.4824 49.3963C27.3481 49.3287 27.2286 49.2235 27.4003 49.0883C27.6265 48.9517 27.7943 48.7356 27.8715 48.4817C27.9487 48.2279 27.9298 47.9542 27.8183 47.7136C27.8183 47.646 27.8183 47.4808 27.8183 47.4732C28.4453 47.3155 28.2214 46.722 28.423 46.3164C28.52 46.1286 28.5722 45.9708 28.8186 45.9708C28.8606 45.9759 28.9033 45.9711 28.9432 45.9569C28.9831 45.9427 29.0193 45.9195 29.0489 45.889C29.0785 45.8585 29.1007 45.8216 29.1138 45.781C29.1269 45.7405 29.1306 45.6975 29.1246 45.6553C29.1246 45.4225 29.2366 45.3173 29.4829 45.2948C29.9158 45.2948 30.3786 45.2948 30.5653 44.7088C30.6026 44.5811 30.8116 44.6187 30.946 44.6187H34.1557C34.4692 44.6187 34.7304 44.8591 35.0514 44.7915C35.0141 45.137 34.8125 45.4525 34.8872 45.8131C34.9618 46.1737 34.5364 46.2713 34.2826 46.384C32.4314 47.1352 30.6548 48.0967 28.8634 49.0057C28.408 49.1409 28.0497 49.6442 27.4824 49.3963Z" fill="#EE6255"/>
<path d="M28.7959 48.893C30.0957 48.142 31.4337 47.46 32.8043 46.8498C33.5326 46.5734 34.2346 46.2315 34.9018 45.8281H35.0735C35.1563 46.0019 35.2772 46.1544 35.4272 46.2742C35.5773 46.3939 35.7524 46.4777 35.9394 46.5192C36.3201 46.5643 36.3798 46.8798 36.4321 47.1803C35.8525 47.6231 35.2297 48.0057 34.5734 48.3221C33.6627 48.8179 32.879 49.4714 32.0056 50.0123C31.3047 50.4295 30.5765 50.7984 29.826 51.1166H29.6618C29.2736 51.1692 28.9676 51.1166 29.0945 50.6133C29.171 50.0226 29.0669 49.4226 28.7959 48.893Z" fill="#DDD5D2"/>
<path d="M15.9348 55.1956L15.3004 55.391C15.0974 55.2913 14.9209 55.1445 14.7853 54.9628C14.6957 54.8726 14.5539 54.7299 14.8226 54.6848C15.0914 54.6397 15.1511 54.452 15.0391 54.2566C14.8077 53.8435 15.0391 53.558 15.2481 53.2575C15.3757 53.1089 15.4953 52.9534 15.6064 52.7918C15.7258 52.627 15.8084 52.4381 15.8483 52.2382C15.8883 52.0382 15.8847 51.8319 15.8379 51.6335C15.7911 51.435 15.7021 51.2491 15.5771 51.0886C15.4521 50.928 15.294 50.7967 15.1138 50.7035C15.047 50.6512 14.9689 50.6157 14.8858 50.6C14.8027 50.5844 14.717 50.5889 14.636 50.6133C14.1359 50.8838 13.8896 50.5157 13.5686 50.2603C14.3151 49.8095 14.7405 48.9832 15.5094 48.555C16.0267 48.2328 16.5654 47.9467 17.1217 47.6987C17.5248 47.909 17.1889 48.0893 17.0694 48.1945C16.6216 48.6001 16.2558 48.9457 17.0694 49.3363C17.2635 49.4189 17.271 49.8095 17.4725 49.8471C17.9428 49.9448 18.0249 50.7711 18.4131 50.5983C19.264 50.1551 20.3389 49.8471 20.4733 48.6001C20.5255 48.1193 19.5327 47.4508 18.9803 47.571C18.5773 47.6611 18.0771 47.9916 17.9652 47.2179C18.5219 46.601 19.1569 46.0605 19.8537 45.6103C20.3762 45.2498 20.9584 44.9793 21.5183 44.6638C21.6965 44.7501 21.8335 44.9042 21.899 45.092C21.9811 45.2422 22.1304 45.4 22.302 45.2873C22.6827 45.0469 23.0037 45.2873 23.3545 45.3399C23.5859 45.3399 23.6755 45.4601 23.7427 45.6855C23.8099 45.9108 23.9144 46.339 24.3697 46.0686C24.3697 46.0686 24.5041 46.1212 24.5041 46.1362C24.4145 46.7897 25.3252 47.0827 25.0863 47.8113C25.0413 48.09 25.0413 48.3741 25.0863 48.6527C25.0863 48.9231 25.0042 49.2311 25.4297 49.2912C25.4648 49.2998 25.4972 49.3172 25.5239 49.3416C25.5507 49.3661 25.5709 49.3969 25.5828 49.4313C25.5947 49.4656 25.5978 49.5024 25.5919 49.5383C25.5861 49.5742 25.5713 49.6081 25.5491 49.6368C25.4595 49.772 25.3699 49.6368 25.2878 49.5692C25.2057 49.5015 25.1236 49.4865 25.1012 49.6067C25.0786 49.6878 25.0786 49.7735 25.1012 49.8546C25.1908 50.1776 25.6387 50.0124 25.7432 50.3204C25.5629 50.5989 25.3192 50.83 25.0322 50.9947C24.7453 51.1593 24.4235 51.2526 24.0935 51.2669L23.6755 51.2068C23.4665 51.2068 23.1754 51.2969 23.1381 50.9589C23.1007 50.6208 23.3322 50.5532 23.5561 50.5006C23.78 50.4481 23.7427 50.3579 23.6233 50.1926C23.5038 50.0274 23.5337 49.5842 23.474 49.2837C23.4651 49.1825 23.4201 49.088 23.3474 49.0176C23.2747 48.9472 23.1791 48.9056 23.0784 48.9006C22.832 48.9006 22.8693 49.1184 22.8619 49.2762C22.7479 49.9459 22.4934 50.5836 22.1154 51.1467C22.0535 51.2909 21.9482 51.412 21.8143 51.4929C21.6804 51.5737 21.5246 51.6103 21.369 51.5974C20.1672 51.4547 20.1821 51.7702 20.5628 52.8669C19.4058 53.573 18.1294 54.0538 16.95 54.7074L16.629 54.8952C16.4723 55.1431 16.1438 55.0454 15.9348 55.1956Z" fill="#EE6255"/>
<path d="M24.0782 51.1314C24.6751 50.9274 25.2424 50.6445 25.7652 50.2901C26.3746 50.0804 26.9523 49.7872 27.482 49.4187C27.9672 49.3511 28.3181 48.9604 28.7958 48.8928C28.9962 49.0037 29.1571 49.1748 29.2561 49.3822C29.3552 49.5896 29.3873 49.823 29.3482 50.0497C29.3482 50.29 29.4377 50.583 29.2362 50.8459C29.0346 51.1089 29.2735 51.0112 29.4079 50.9736C29.5422 50.9361 29.6169 50.9736 29.6617 51.1239C27.9318 52.0612 26.1325 52.8624 24.2798 53.5202C23.5333 53.6179 23.3766 53.0244 23.1079 52.5512C22.9511 52.2882 23.1526 52.1906 23.3019 52.0854C23.583 51.9101 23.7983 51.6459 23.914 51.3342C23.948 51.252 24.0051 51.1815 24.0782 51.1314Z" fill="#DFD7D4"/>
<path d="M17.9727 47.1878C18.3011 47.8639 18.7863 47.4282 19.1073 47.263C19.4282 47.0977 19.6447 47.0977 19.8537 47.4132C19.9815 47.5993 20.1348 47.7662 20.3091 47.909C20.7868 48.2771 20.7196 48.2545 20.6151 48.9156C20.4832 49.3579 20.2564 49.7656 19.9507 50.11C19.794 50.3729 19.3984 50.3128 19.1147 50.3955C18.8311 50.4781 18.6295 50.4781 18.637 50.8387C18.637 51.0565 18.4728 51.1016 18.2862 51.1016C18.0996 51.1016 17.9727 50.9213 17.9727 50.7035C17.9727 50.3579 17.9279 50.08 17.4576 50.2152C17.3158 50.2152 17.1665 50.095 17.1665 49.9598C17.1665 49.464 16.8829 49.2762 16.4201 49.2086C15.9573 49.141 16.0394 48.9907 16.2558 48.7053C16.531 48.3592 16.8525 48.0533 17.2113 47.7963C17.2113 47.7963 17.2113 47.7437 17.2113 47.7212L17.1366 47.6761C17.3456 47.4207 17.6965 47.3681 17.9727 47.1878Z" fill="#ED6255"/>
<path d="M24.0553 51.2593C24.1225 51.8077 23.7791 52.0706 23.3686 52.2885C23.2939 52.326 23.2118 52.3486 23.1372 52.3786L23.4731 52.604C23.585 52.6791 23.7493 52.7091 23.6448 52.912C23.6074 52.9796 23.2939 53.0923 23.6448 53.1448C23.9956 53.1974 24.0404 53.4604 24.2867 53.5204C23.167 53.9787 22.122 54.6172 20.965 55.0228C20.391 55.2847 19.8304 55.5755 19.2855 55.8942C18.9197 55.7966 19.069 55.4585 19.0093 55.2407C18.9496 55.0228 19.1885 54.8275 19.3975 54.6397C20.1867 54.0154 21.163 53.6791 22.1668 53.6857C22.2783 53.6748 22.3884 53.6521 22.4952 53.6181C22.652 53.573 22.8013 53.5129 22.958 53.4528C22.6744 53.4528 22.7565 53.1448 22.6371 53.0171C22.5176 52.8894 22.443 52.9646 22.4878 52.7993C22.5139 52.7405 22.5275 52.6768 22.5275 52.6124C22.5276 52.548 22.5141 52.4843 22.4881 52.4255C22.462 52.3666 22.4239 52.314 22.3763 52.271C22.3286 52.2279 22.2725 52.1955 22.2116 52.1758C22.404 51.8658 22.6784 51.6159 23.0041 51.454C23.3297 51.2921 23.6937 51.2247 24.0553 51.2593Z" fill="#DFD7D4"/>
<path d="M24.0559 51.2589C23.4134 51.5002 22.7938 51.7994 22.2047 52.1528L20.5551 52.8364C20.4207 52.6561 19.9131 52.7613 20.152 52.3181C20.3237 52.0026 19.8385 51.9951 19.9206 51.7397C19.9206 51.6946 19.9206 51.627 19.9654 51.5894C20.1744 51.349 20.5775 51.5444 20.7641 51.2063C20.8462 51.0486 20.9955 51.2063 21.1149 51.289C21.5478 51.4918 21.8613 51.4392 21.9733 51.011C22.2047 50.2598 22.8467 49.7415 22.675 48.8626C22.5854 48.4194 22.7944 48.3818 23.205 48.6072C23.6155 48.8325 23.8245 49.0504 23.7349 49.5236C23.7007 49.6171 23.6869 49.717 23.6945 49.8164C23.7022 49.9157 23.7312 50.0122 23.7794 50.0993C23.8276 50.1863 23.894 50.2619 23.9739 50.3207C24.0538 50.3795 24.1455 50.4203 24.2425 50.4401C24.2626 50.4452 24.2815 50.4544 24.2978 50.4673C24.3142 50.4801 24.3277 50.4962 24.3376 50.5146C24.3474 50.5329 24.3533 50.5532 24.3549 50.574C24.3566 50.5948 24.3539 50.6157 24.347 50.6354C24.3336 50.6605 24.3137 50.6815 24.2894 50.6962C24.2651 50.7108 24.2373 50.7185 24.2089 50.7185C24.1806 50.7185 24.1528 50.7108 24.1285 50.6962C24.1042 50.6815 24.0842 50.6605 24.0708 50.6354C23.8991 50.4326 23.7797 50.6354 23.6155 50.6354C23.4513 50.6354 23.2423 50.7105 23.2721 50.8758C23.3244 51.1688 23.5185 50.8758 23.6603 50.8758C23.8021 50.8758 24.0036 50.8758 24.0783 51.0786L24.0559 51.2589Z" fill="#EE6255"/>
<path d="M15.9346 55.1958C16.0198 55.0955 16.125 55.0143 16.2432 54.9573C16.3615 54.9003 16.4903 54.8689 16.6213 54.865C16.6213 55.0379 17.0916 55.0079 16.7706 55.2786C16.7342 55.3241 16.6882 55.3608 16.6359 55.386C16.5836 55.4112 16.5263 55.4243 16.4683 55.4243C16.4103 55.4243 16.353 55.4112 16.3007 55.386C16.2484 55.3608 16.2024 55.3241 16.166 55.2786C16.1137 55.1958 15.9868 55.2109 15.9346 55.1958Z" fill="#DFD7D4"/>
</svg>
