<svg xmlns="http://www.w3.org/2000/svg" width="10" height="8" viewBox="0 0 10 8">
  <path id="icon" d="M5.75,8a1.1,1.1,0,0,1-.875-.4l-2.5-2.667a1.349,1.349,0,0,1,0-1.867,1.157,1.157,0,0,1,1.75,0L5.75,4.8,9.875.4a1.157,1.157,0,0,1,1.75,0,1.349,1.349,0,0,1,0,1.867l-5,5.333A1.1,1.1,0,0,1,5.75,8Z" transform="translate(-2)" fill="#fff"/>
</svg>
