<svg width="97" height="28" viewBox="0 0 97 28" fill="none" xmlns="http://www.w3.org/2000/svg">
<g clip-path="url(#clip0)">
<path fill-rule="evenodd" clip-rule="evenodd" d="M19.5 11C18.1 11 17 9.9 17 8.5C17 7.1 18.1 6 19.5 6C20.9 6 22 7.1 22 8.5C22 9.2 21.7 9.8 21.3 10.3C20.9 10.8 20.2 11 19.5 11ZM14 0C6.3 0 0 6.3 0 14C0 21.7 6.3 28 14 28C21.7 28 28 21.7 28 14C28 10.3 26.5 6.7 23.9 4.1C21.3 1.5 17.7 0 14 0ZM37.2 11.1C37.7 11.1 38.2 11 38.7 10.8C39.2 10.6 39.6 10.3 40 9.9L39.1 9C38.8 9.3 38.5 9.5 38.2 9.7C37.9 9.9 37.5 9.9 37.2 9.9C36.5 9.9 36 9.7 35.5 9.2C35 8.7 34.8 8.1 34.8 7.4C34.8 6.7 35 6.1 35.5 5.7C36 5.2 36.6 5 37.2 5C37.6 5 37.9 5.1 38.2 5.2C38.5 5.3 38.8 5.6 39.1 5.9L40 4.9C39.6 4.5 39.2 4.2 38.7 4C38.2 3.8 37.7 3.7 37.1 3.7C36.6 3.7 36.1 3.8 35.7 4C35.3 4.2 34.9 4.5 34.5 4.8C34.2 5.1 34 5.5 33.8 6C33.6 6.5 33.5 6.9 33.5 7.4C33.5 7.9 33.6 8.4 33.8 8.9C34 9.4 34.3 9.7 34.6 10.1C34.9 10.5 35.3 10.7 35.8 10.9C36.2 11 36.7 11.1 37.2 11.1ZM43 11V6.2C43.2 5.8 43.4 5.4 43.7 5.2C44 5 44.4 4.9 44.8 4.9C44.9 4.9 45.1 4.9 45.2 4.9C45.3 4.9 45.5 5 45.6 5V3.8C45.5 3.8 45.4 3.7 45.3 3.7C45.2 3.7 45.1 3.7 44.9 3.7C44.5 3.7 44.1 3.8 43.8 4C43.5 4.2 43.2 4.4 43 4.8V3.9H41.6V11H43ZM49.3 11.1C49.7 11.1 50.1 11 50.5 10.9C50.9 10.8 51.2 10.6 51.5 10.3V11H52.9V6.3C52.9 5.5 52.6 4.9 52.1 4.4C51.6 3.9 50.9 3.7 50 3.7C49.5 3.7 49.1 3.8 48.6 3.9C48.1 4 47.6 4.2 47.1 4.5L47.6 5.6C48 5.4 48.4 5.2 48.8 5.1C49.2 5 49.5 5 49.8 5C50.4 5 50.8 5.1 51.1 5.4C51.4 5.7 51.5 6 51.5 6.5V7.3C51.2 7.2 50.9 7.1 50.6 7C50.3 6.9 49.9 6.9 49.6 6.9C48.7 6.9 48 7.1 47.5 7.5C47 7.9 46.7 8.4 46.7 9.1C46.7 9.7 46.9 10.3 47.4 10.7C47.9 10.9 48.5 11.1 49.3 11.1ZM49.6 10.1C49.1 10.1 48.7 10 48.4 9.8C48.1 9.6 48 9.3 48 8.9C48 8.5 48.1 8.3 48.4 8C48.7 7.8 49.1 7.7 49.6 7.7C50 7.7 50.3 7.7 50.6 7.8C50.9 7.9 51.2 8 51.5 8.1V9.3C51.2 9.5 51 9.7 50.6 9.8C50.3 10 50 10.1 49.6 10.1ZM57.2 11V5.1H59.2V3.9H57.2V2.8C57.2 2.4 57.3 2.1 57.5 2C57.7 1.9 58 1.7 58.4 1.7C58.6 1.7 58.7 1.7 58.8 1.7C58.9 1.7 59.1 1.8 59.2 1.8V0.6C59.1 0.6 58.9 0.5 58.7 0.5C58.5 0.5 58.4 0.5 58.2 0.5C57.4 0.5 56.8 0.7 56.4 1.1C56 1.5 55.8 2.1 55.8 2.8V3.9H54.1V5.1H55.8V11H57.2ZM63.9 11.1C64.1 11.1 64.3 11.1 64.6 11C64.8 11 65.1 10.9 65.3 10.8V9.7C65.1 9.8 65 9.8 64.8 9.8C64.6 9.8 64.5 9.8 64.3 9.8C63.9 9.8 63.7 9.7 63.5 9.6C63.3 9.5 63.3 9.2 63.3 8.8V5.1H65.4V3.9H63.3V1.7L61.9 2V3.8H60.4V5H61.9V9.2C61.9 9.8 62.1 10.3 62.4 10.6C62.7 11 63.2 11.1 63.9 11.1ZM70.1 11.1C70.6 11.1 71.1 11 71.6 10.9C72 10.7 72.5 10.5 72.9 10.2L72 9.3C71.8 9.5 71.5 9.7 71.2 9.8C70.9 9.9 70.6 10 70.2 10C69.6 10 69.1 9.8 68.6 9.4C68.2 9 67.9 8.5 67.8 7.9H73.4V7.5C73.4 7 73.3 6.5 73.1 6C72.9 5.5 72.7 5.1 72.4 4.8C72.1 4.5 71.7 4.2 71.3 4C70.9 3.8 70.4 3.7 69.9 3.7C69.4 3.7 68.9 3.8 68.5 4C68.1 4.2 67.7 4.5 67.4 4.8C67.1 5.1 66.8 5.5 66.6 6C66.4 6.5 66.3 6.9 66.3 7.4C66.3 7.9 66.4 8.4 66.6 8.9C66.8 9.4 67.1 9.7 67.4 10.1C67.7 10.5 68.1 10.7 68.6 10.9C69.1 11 69.6 11.1 70.1 11.1ZM72 6.8H67.8C67.9 6.2 68.2 5.8 68.5 5.4C68.9 5 69.4 4.9 69.9 4.9C70.4 4.9 70.9 5.1 71.3 5.4C71.6 5.8 71.9 6.3 72 6.8ZM78.5 11.1C78.9 11.1 79.3 11 79.7 10.9C80.1 10.8 80.4 10.6 80.7 10.3V11H82.1V0.9L80.7 1.2V4.5C80.4 4.3 80.1 4.1 79.7 4C79.3 3.9 79 3.8 78.6 3.8C78.1 3.8 77.6 3.9 77.2 4.1C76.8 4.3 76.4 4.6 76 4.9C75.7 5.2 75.4 5.6 75.2 6.1C75 6.5 74.9 7 74.9 7.5C74.9 8 75 8.5 75.2 8.9C75.4 9.4 75.6 9.7 76 10.1C76.3 10.4 76.7 10.7 77.1 10.9C77.5 11 78 11.1 78.5 11.1ZM78.7 9.9C78 9.9 77.4 9.7 77 9.2C76.6 8.7 76.3 8.1 76.3 7.4C76.3 6.7 76.5 6.1 77 5.6C77.5 5.1 78 5 78.7 5C79.1 5 79.5 5.1 79.8 5.2C80.1 5.3 80.4 5.6 80.7 5.8V9C80.5 9.3 80.2 9.5 79.8 9.6C79.5 9.8 79.1 9.9 78.7 9.9ZM37.4 25.1C37.9 25.1 38.4 25 38.8 24.8C39.2 24.6 39.6 24.3 40 24C40.3 23.7 40.6 23.3 40.8 22.8C41 22.3 41.1 21.9 41.1 21.4C41.1 20.9 41 20.4 40.8 20C40.6 19.6 40.4 19.2 40 18.8C39.7 18.5 39.3 18.2 38.9 18C38.5 17.8 38 17.7 37.5 17.7C37.1 17.7 36.7 17.8 36.3 17.9C35.9 18 35.6 18.2 35.3 18.5V14.8L33.9 15.1V25H35.3V24.4C35.6 24.6 35.9 24.8 36.3 24.9C36.6 25.1 37 25.1 37.4 25.1ZM37.2 23.9C36.8 23.9 36.4 23.8 36.1 23.7C35.7 23.6 35.5 23.3 35.2 23.1V19.9C35.4 19.6 35.7 19.4 36.1 19.3C36.4 19.2 36.8 19.1 37.2 19.1C37.9 19.1 38.4 19.3 38.9 19.8C39.4 20.3 39.6 20.9 39.6 21.6C39.6 22.3 39.4 22.9 38.9 23.4C38.5 23.7 37.9 23.9 37.2 23.9ZM43 28C43.7 28 44.2 27.8 44.6 27.5C45 27.2 45.4 26.6 45.7 25.9L49.1 17.9H47.6L45.3 23.3L43.2 17.9H41.7L44.5 25.1L44.2 25.7C44.1 26.1 43.9 26.3 43.6 26.5C43.4 26.7 43.1 26.8 42.8 26.8C42.7 26.8 42.6 26.8 42.5 26.8C42.4 26.8 42.3 26.8 42.2 26.8V28C42.3 28 42.4 28 42.5 28.1C42.7 28 42.9 28 43 28ZM57.3 25.1C57.8 25.1 58.3 25 58.8 24.8C59.3 24.6 59.7 24.3 60.1 23.9L59.3 23C59 23.3 58.7 23.5 58.4 23.7C58.1 23.9 57.7 23.9 57.4 23.9C56.7 23.9 56.2 23.7 55.7 23.2C55.2 22.7 55 22.1 55 21.4C55 20.7 55.2 20.1 55.7 19.7C56.1 19.2 56.7 19 57.3 19C57.7 19 58 19.1 58.3 19.2C58.6 19.4 58.9 19.6 59.2 19.9L60.1 18.9C59.7 18.5 59.3 18.2 58.8 18C58.3 17.8 57.8 17.7 57.2 17.7C56.7 17.7 56.2 17.8 55.8 18C55.4 18.2 55 18.5 54.6 18.8C54.2 19.1 54.1 19.5 54 20C53.8 20.5 53.7 20.9 53.7 21.4C53.7 21.9 53.8 22.4 54 22.9C54.2 23.4 54.5 23.7 54.8 24.1C55.1 24.4 55.5 24.7 56 24.9C56.3 25 56.8 25.1 57.3 25.1ZM63.2 25V19.9C63.4 19.6 63.6 19.4 63.9 19.2C64.2 19 64.5 19 64.9 19C65.4 19 65.9 19.2 66.2 19.5C66.5 19.8 66.7 20.3 66.7 20.8V25H68.1V20.5C68.1 19.7 67.8 19 67.3 18.5C66.8 18 66.1 17.7 65.3 17.7C64.9 17.7 64.5 17.8 64.1 17.9C63.7 18 63.4 18.3 63.1 18.5V14.8L61.7 15.1V25H63.2ZM73.6 25.1C74.1 25.1 74.6 25 75.1 24.9C75.5 24.7 76 24.5 76.4 24.2L75.5 23.3C75.3 23.5 75 23.7 74.7 23.8C74.4 23.9 74.1 24 73.7 24C73.1 24 72.6 23.8 72.1 23.4C71.6 23 71.4 22.5 71.3 21.9H76.9V21.5C76.9 21 76.8 20.5 76.6 20C76.4 19.5 76.2 19.1 75.9 18.8C75.6 18.5 75.2 18.2 74.8 18C74.4 17.8 73.9 17.7 73.4 17.7C72.9 17.7 72.4 17.8 72 18C71.6 18.2 71.2 18.5 70.9 18.8C70.6 19.1 70.3 19.5 70.1 20C69.9 20.5 69.8 20.9 69.8 21.4C69.8 21.9 69.9 22.4 70.1 22.9C70.3 23.4 70.6 23.7 70.9 24.1C71.2 24.4 71.6 24.7 72.1 24.9C72.6 25 73.1 25.1 73.6 25.1ZM75.5 20.8H71.3C71.4 20.2 71.7 19.8 72 19.4C72.4 19 72.9 18.9 73.4 18.9C73.9 18.9 74.4 19.1 74.8 19.4C75.2 19.8 75.4 20.3 75.5 20.8ZM80.1 25V20.2C80.3 19.8 80.5 19.4 80.8 19.2C81.1 19 81.5 18.9 81.9 18.9C82 18.9 82.2 18.9 82.3 18.9C82.4 18.9 82.6 19 82.7 19V17.7C82.6 17.7 82.5 17.6 82.4 17.6C82.3 17.6 82.2 17.6 82 17.6C81.6 17.6 81.2 17.7 80.9 17.9C80.6 18.1 80.3 18.3 80.1 18.7V17.8H78.7V25H80.1ZM85.8 25V20.2C86 19.8 86.2 19.4 86.5 19.2C86.8 19 87.2 18.9 87.6 18.9C87.7 18.9 87.9 18.9 88 18.9C88.1 18.9 88.3 19 88.4 19V17.7C88.3 17.7 88.2 17.6 88.1 17.6C88 17.6 87.9 17.6 87.7 17.6C87.3 17.6 86.9 17.7 86.6 17.9C86.3 18.1 86 18.3 85.8 18.7V17.8H84.4V25H85.8ZM90.7 28C91.4 28 91.9 27.8 92.3 27.5C92.7 27.2 93.1 26.6 93.4 25.9L96.8 17.9H95.3L93 23.3L91 17.9H89.5L92.3 25.1L92 25.7C91.9 26.1 91.7 26.3 91.4 26.5C91.2 26.7 90.9 26.8 90.6 26.8C90.5 26.8 90.4 26.8 90.3 26.8C90.2 26.8 90.1 26.8 90 26.8V28C90.1 28 90.2 28 90.3 28.1C90.4 28.2 90.6 28 90.7 28Z" fill="white"/>
</g>
<defs>
<clipPath id="clip0">
<rect width="97" height="28" fill="white"/>
</clipPath>
</defs>
</svg>
