<svg width="36" height="36" viewBox="0 0 36 36" fill="none" xmlns="http://www.w3.org/2000/svg">
<circle cx="18" cy="18" r="18" fill="white"/>
<g clip-path="url(#clip0)">
<path fill-rule="evenodd" clip-rule="evenodd" d="M14.9949 13.5803C14.6044 13.1898 13.9712 13.1898 13.5807 13.5803C13.1902 13.9708 13.1902 14.604 13.5807 14.9945L16.5859 17.9997L13.5804 21.0052C13.1899 21.3957 13.1899 22.0289 13.5804 22.4194C13.9709 22.8099 14.6041 22.8099 14.9946 22.4194L18.0001 19.4139L21.0053 22.4192C21.3958 22.8097 22.029 22.8097 22.4195 22.4192C22.8101 22.0286 22.8101 21.3955 22.4195 21.0049L19.4143 17.9997L22.4192 14.9948C22.8098 14.6042 22.8098 13.9711 22.4192 13.5806C22.0287 13.19 21.3956 13.19 21.005 13.5806L18.0001 16.5855L14.9949 13.5803Z" fill="#EF5101"/>
</g>
<defs>
<clipPath id="clip0">
<rect width="18" height="18" fill="white" transform="translate(5.27209 18) rotate(-45)"/>
</clipPath>
</defs>
</svg>
