<svg xmlns="http://www.w3.org/2000/svg" width="33.086" height="29" viewBox="0 0 33.086 29">
  <g id="Icon_feather-alert-triangle" data-name="Icon feather-alert-triangle" transform="translate(-0.787 -2.846)">
    <path id="Path_76" data-name="Path 76" d="M14.873,5.729,2.713,26.037a2.873,2.873,0,0,0,2.455,4.309h24.32a2.873,2.873,0,0,0,2.455-4.309L19.783,5.729a2.871,2.871,0,0,0-4.91,0Z" transform="translate(0 0)" fill="none" stroke="#ea5355" stroke-linecap="round" stroke-linejoin="round" stroke-width="3"/>
    <path id="Path_77" data-name="Path 77" d="M18,13.5v6" transform="translate(-0.672 -0.499)" fill="none" stroke="#ea5355" stroke-linecap="round" stroke-linejoin="round" stroke-width="3"/>
    <path id="Path_78" data-name="Path 78" d="M18,25.5h0" transform="translate(-0.672 -0.899)" fill="none" stroke="#ea5355" stroke-linecap="round" stroke-linejoin="round" stroke-width="3"/>
  </g>
</svg>
